"patch"
{
	"include"		"materials/WATER/WATER_SLIME01.vmt"
	"replace"
	{
		"$envmap"		"maps/surf_hyper/c-11920_-11620_813"
		"Water_DX80"
		{
			"Proxies"
			{
			}
		}
		"Water_DX81"
		{
			"Proxies"
			{
			}
		}
		"Proxies"
		{
		}
	}
}
