"patch"
{
	"include"		"materials/WATER/WATER_CARIBBEAN01.vmt"
	"replace"
	{
		"$envmap"		"maps/surf_hyper/c61_84_140"
		"Water_DX80"
		{
			"Proxies"
			{
			}
		}
		"Water_DX81"
		{
			"Proxies"
			{
			}
		}
		"Proxies"
		{
		}
	}
}
