versioninfo
{
	"editorversion" "400"
	"editorbuild" "7538"
	"mapversion" "2"
	"formatversion" "100"
	"prefab" "0"
}
visgroups
{
}
viewsettings
{
	"bSnapToGrid" "1"
	"bShowGrid" "1"
	"bShowLogicalGrid" "0"
	"nGridSpacing" "64"
	"bShow3DGrid" "0"
}
world
{
	"id" "1"
	"mapversion" "2"
	"classname" "worldspawn"
	"skyname" "sky_day01_01"
	"maxpropscreenwidth" "-1"
	"detailvbsp" "detail.vbsp"
	"detailmaterial" "detail/detailsprites"
}
entity
{
	"id" "2"
	"classname" "trigger_momentum_timer_checkpoint"
	"checkpoint" "-1"
	"origin" "-10208 0 2496"
	"spawnflags" "1"
	"StartDisabled" "0"
	solid
	{
		"id" "3"
		side
		{
			"id" "1"
			"plane" "(-10240 512 3008) (-10176 512 3008) (-10176 -512 3008)"
			"material" "TOOLS/TOOLSTRIGGER"
			"uaxis" "[1 0 0 0] 0.25"
			"vaxis" "[0 -1 0 0] 0.25"
			"rotation" "0"
			"lightmapscale" "128"
			"smoothing_groups" "0"
		}
		side
		{
			"id" "2"
			"plane" "(-10240 -512 1984) (-10176 -512 1984) (-10176 512 1984)"
			"material" "TOOLS/TOOLSTRIGGER"
			"uaxis" "[1 0 0 0] 0.25"
			"vaxis" "[0 -1 0 0] 0.25"
			"rotation" "0"
			"lightmapscale" "128"
			"smoothing_groups" "0"
		}
		side
		{
			"id" "3"
			"plane" "(-10240 512 3008) (-10240 -512 3008) (-10240 -512 1984)"
			"material" "TOOLS/TOOLSTRIGGER"
			"uaxis" "[0 1 0 0] 0.25"
			"vaxis" "[0 0 -1 0] 0.25"
			"rotation" "0"
			"lightmapscale" "128"
			"smoothing_groups" "0"
		}
		side
		{
			"id" "4"
			"plane" "(-10176 512 1984) (-10176 -512 1984) (-10176 -512 3008)"
			"material" "TOOLS/TOOLSTRIGGER"
			"uaxis" "[0 1 0 0] 0.25"
			"vaxis" "[0 0 -1 0] 0.25"
			"rotation" "0"
			"lightmapscale" "128"
			"smoothing_groups" "0"
		}
		side
		{
			"id" "5"
			"plane" "(-10176 512 3008) (-10240 512 3008) (-10240 512 1984)"
			"material" "TOOLS/TOOLSTRIGGER"
			"uaxis" "[1 0 0 0] 0.25"
			"vaxis" "[0 0 -1 0] 0.25"
			"rotation" "0"
			"lightmapscale" "128"
			"smoothing_groups" "0"
		}
		side
		{
			"id" "6"
			"plane" "(-10176 -512 1984) (-10240 -512 1984) (-10240 -512 3008)"
			"material" "TOOLS/TOOLSTRIGGER"
			"uaxis" "[1 0 0 0] 0.25"
			"vaxis" "[0 0 -1 0] 0.25"
			"rotation" "0"
			"lightmapscale" "128"
			"smoothing_groups" "0"
		}
		editor
		{
			"color" "220 30 220"
			"visgroupshown" "1"
			"visgroupautoshown" "1"
		}
	}
	editor
	{
		"color" "220 30 220"
		"visgroupshown" "1"
		"visgroupautoshown" "1"
		"logicalpos" "[1500 2000]"
	}
}
entity
{
	"id" "5"
	"classname" "trigger_momentum_timer_checkpoint"
	"checkpoint" "-1"
	"origin" "13824 0 6848"
	"spawnflags" "1"
	"StartDisabled" "0"
	solid
	{
		"id" "6"
		side
		{
			"id" "164"
			"plane" "(13120 -8640 7552) (14528 -8640 7552) (14528 -8704 7552)"
			"material" "TOOLS/TOOLSTRIGGER"
			"uaxis" "[1 0 0 0] 0.25"
			"vaxis" "[0 -1 0 0] 0.25"
			"rotation" "0"
			"lightmapscale" "128"
			"smoothing_groups" "0"
		}
		side
		{
			"id" "163"
			"plane" "(13120 -8704 6144) (14528 -8704 6144) (14528 -8640 6144)"
			"material" "TOOLS/TOOLSTRIGGER"
			"uaxis" "[1 0 0 0] 0.25"
			"vaxis" "[0 -1 0 0] 0.25"
			"rotation" "0"
			"lightmapscale" "128"
			"smoothing_groups" "0"
		}
		side
		{
			"id" "162"
			"plane" "(13120 -8640 7552) (13120 -8704 7552) (13120 -8704 6144)"
			"material" "TOOLS/TOOLSTRIGGER"
			"uaxis" "[0 1 0 0] 0.25"
			"vaxis" "[0 0 -1 0] 0.25"
			"rotation" "0"
			"lightmapscale" "128"
			"smoothing_groups" "0"
		}
		side
		{
			"id" "161"
			"plane" "(14528 -8640 6144) (14528 -8704 6144) (14528 -8704 7552)"
			"material" "TOOLS/TOOLSTRIGGER"
			"uaxis" "[0 1 0 0] 0.25"
			"vaxis" "[0 0 -1 0] 0.25"
			"rotation" "0"
			"lightmapscale" "128"
			"smoothing_groups" "0"
		}
		side
		{
			"id" "160"
			"plane" "(14528 -8640 7552) (13120 -8640 7552) (13120 -8640 6144)"
			"material" "TOOLS/TOOLSTRIGGER"
			"uaxis" "[1 0 0 0] 0.25"
			"vaxis" "[0 0 -1 0] 0.25"
			"rotation" "0"
			"lightmapscale" "128"
			"smoothing_groups" "0"
		}
		side
		{
			"id" "159"
			"plane" "(14528 -8704 6144) (13120 -8704 6144) (13120 -8704 7552)"
			"material" "TOOLS/TOOLSTRIGGER"
			"uaxis" "[1 0 0 0] 0.25"
			"vaxis" "[0 0 -1 0] 0.25"
			"rotation" "0"
			"lightmapscale" "128"
			"smoothing_groups" "0"
		}
		editor
		{
			"color" "220 30 220"
			"visgroupshown" "1"
			"visgroupautoshown" "1"
		}
	}
	solid
	{
		"id" "7"
		side
		{
			"id" "170"
			"plane" "(13120 8704 7552) (14528 8704 7552) (14528 8640 7552)"
			"material" "TOOLS/TOOLSTRIGGER"
			"uaxis" "[1 0 0 0] 0.25"
			"vaxis" "[0 -1 0 0] 0.25"
			"rotation" "0"
			"lightmapscale" "128"
			"smoothing_groups" "0"
		}
		side
		{
			"id" "169"
			"plane" "(13120 8640 6144) (14528 8640 6144) (14528 8704 6144)"
			"material" "TOOLS/TOOLSTRIGGER"
			"uaxis" "[1 0 0 0] 0.25"
			"vaxis" "[0 -1 0 0] 0.25"
			"rotation" "0"
			"lightmapscale" "128"
			"smoothing_groups" "0"
		}
		side
		{
			"id" "168"
			"plane" "(13120 8704 7552) (13120 8640 7552) (13120 8640 6144)"
			"material" "TOOLS/TOOLSTRIGGER"
			"uaxis" "[0 1 0 0] 0.25"
			"vaxis" "[0 0 -1 0] 0.25"
			"rotation" "0"
			"lightmapscale" "128"
			"smoothing_groups" "0"
		}
		side
		{
			"id" "167"
			"plane" "(14528 8704 6144) (14528 8640 6144) (14528 8640 7552)"
			"material" "TOOLS/TOOLSTRIGGER"
			"uaxis" "[0 1 0 0] 0.25"
			"vaxis" "[0 0 -1 0] 0.25"
			"rotation" "0"
			"lightmapscale" "128"
			"smoothing_groups" "0"
		}
		side
		{
			"id" "166"
			"plane" "(14528 8704 7552) (13120 8704 7552) (13120 8704 6144)"
			"material" "TOOLS/TOOLSTRIGGER"
			"uaxis" "[1 0 0 0] 0.25"
			"vaxis" "[0 0 -1 0] 0.25"
			"rotation" "0"
			"lightmapscale" "128"
			"smoothing_groups" "0"
		}
		side
		{
			"id" "165"
			"plane" "(14528 8640 6144) (13120 8640 6144) (13120 8640 7552)"
			"material" "TOOLS/TOOLSTRIGGER"
			"uaxis" "[1 0 0 0] 0.25"
			"vaxis" "[0 0 -1 0] 0.25"
			"rotation" "0"
			"lightmapscale" "128"
			"smoothing_groups" "0"
		}
		editor
		{
			"color" "220 30 220"
			"visgroupshown" "1"
			"visgroupautoshown" "1"
		}
	}
	editor
	{
		"color" "220 30 220"
		"visgroupshown" "1"
		"visgroupautoshown" "1"
		"logicalpos" "[1500 1000]"
	}
}
entity
{
	"id" "9"
	"classname" "trigger_momentum_timer_start"
	"bhopleavespeed" "350"
	"LimitSpeedType" "0"
	"lookangles" "0 0 0"
	"origin" "-14048 0 12928"
	"spawnflags" "8193"
	"StartDisabled" "0"
	"StartOnJump" "1"
	"ZoneNumber" "0"
	solid
	{
		"id" "10"
		side
		{
			"id" "176"
			"plane" "(-14336 -1088 13056) (-14336 1088 13056) (-13760 512 13056)"
			"material" "TOOLS/TOOLSTRIGGER"
			"uaxis" "[1 0 0 0] 0.25"
			"vaxis" "[0 -1 0 0] 0.25"
			"rotation" "0"
			"lightmapscale" "128"
			"smoothing_groups" "0"
		}
		side
		{
			"id" "175"
			"plane" "(-14336 1088 12800) (-14336 -1088 12800) (-13760 -512 12800)"
			"material" "TOOLS/TOOLSTRIGGER"
			"uaxis" "[1 0 0 0] 0.25"
			"vaxis" "[0 -1 0 0] 0.25"
			"rotation" "0"
			"lightmapscale" "128"
			"smoothing_groups" "0"
		}
		side
		{
			"id" "174"
			"plane" "(-14336 -1088 12800) (-14336 1088 12800) (-14336 1088 13056)"
			"material" "TOOLS/TOOLSTRIGGER"
			"uaxis" "[0 1 0 0] 0.25"
			"vaxis" "[0 0 -1 0] 0.25"
			"rotation" "0"
			"lightmapscale" "128"
			"smoothing_groups" "0"
		}
		side
		{
			"id" "173"
			"plane" "(-13760 512 12800) (-13760 -512 12800) (-13760 -512 13056)"
			"material" "TOOLS/TOOLSTRIGGER"
			"uaxis" "[0 1 0 0] 0.25"
			"vaxis" "[0 0 -1 0] 0.25"
			"rotation" "0"
			"lightmapscale" "128"
			"smoothing_groups" "0"
		}
		side
		{
			"id" "172"
			"plane" "(-14336 1088 12800) (-13760 512 12800) (-13760 512 13056)"
			"material" "TOOLS/TOOLSTRIGGER"
			"uaxis" "[0 1 0 0] 0.25"
			"vaxis" "[0 0 -1 0] 0.25"
			"rotation" "0"
			"lightmapscale" "128"
			"smoothing_groups" "0"
		}
		side
		{
			"id" "171"
			"plane" "(-13760 -512 12800) (-14336 -1088 12800) (-14336 -1088 13056)"
			"material" "TOOLS/TOOLSTRIGGER"
			"uaxis" "[0 1 0 0] 0.25"
			"vaxis" "[0 0 -1 0] 0.25"
			"rotation" "0"
			"lightmapscale" "128"
			"smoothing_groups" "0"
		}
		editor
		{
			"color" "220 30 220"
			"visgroupshown" "1"
			"visgroupautoshown" "1"
		}
	}
	editor
	{
		"color" "220 30 220"
		"visgroupshown" "1"
		"visgroupautoshown" "1"
		"logicalpos" "[1000 -768]"
	}
}
entity
{
	"id" "12"
	"classname" "trigger_momentum_timer_stop"
	"origin" "-14088 0 -6056"
	"spawnflags" "1"
	"StartDisabled" "0"
	"ZoneNumber" "0"
	solid
	{
		"id" "13"
		side
		{
			"id" "182"
			"plane" "(-14239 -998 -6208) (-14336 -1008 -6208) (-14336 -1024 -6208)"
			"material" "TOOLS/TOOLSTRIGGER"
			"uaxis" "[0 -1 0 0] 0.25"
			"vaxis" "[-1 0 0 0] 0.25"
			"rotation" "0"
			"lightmapscale" "128"
			"smoothing_groups" "0"
		}
		side
		{
			"id" "181"
			"plane" "(-14236 -1014 -5904) (-14336 -1024 -5904) (-14336 -1008 -5904)"
			"material" "TOOLS/TOOLSTRIGGER"
			"uaxis" "[0 -1 0 0] 0.25"
			"vaxis" "[-1 0 0 0] 0.25"
			"rotation" "0"
			"lightmapscale" "128"
			"smoothing_groups" "0"
		}
		side
		{
			"id" "180"
			"plane" "(-14336 -1008 -6208) (-14239 -998 -6208) (-14239 -998 -5904)"
			"material" "TOOLS/TOOLSTRIGGER"
			"uaxis" "[1 0 0 0] 0.25"
			"vaxis" "[0 0 -1 0] 0.25"
			"rotation" "0"
			"lightmapscale" "128"
			"smoothing_groups" "0"
		}
		side
		{
			"id" "179"
			"plane" "(-14236 -1014 -6208) (-14336 -1024 -6208) (-14336 -1024 -5904)"
			"material" "TOOLS/TOOLSTRIGGER"
			"uaxis" "[1 0 0 0] 0.25"
			"vaxis" "[0 0 -1 0] 0.25"
			"rotation" "0"
			"lightmapscale" "128"
			"smoothing_groups" "0"
		}
		side
		{
			"id" "178"
			"plane" "(-14239 -998 -6208) (-14236 -1014 -6208) (-14236 -1014 -5904)"
			"material" "TOOLS/TOOLSTRIGGER"
			"uaxis" "[0 -1 0 0] 0.25"
			"vaxis" "[0 0 -1 0] 0.25"
			"rotation" "0"
			"lightmapscale" "128"
			"smoothing_groups" "0"
		}
		side
		{
			"id" "177"
			"plane" "(-14336 -1024 -6208) (-14336 -1008 -6208) (-14336 -1008 -5904)"
			"material" "TOOLS/TOOLSTRIGGER"
			"uaxis" "[0 -1 0 0] 0.25"
			"vaxis" "[0 0 -1 0] 0.25"
			"rotation" "0"
			"lightmapscale" "128"
			"smoothing_groups" "0"
		}
		editor
		{
			"color" "220 30 220"
			"visgroupshown" "1"
			"visgroupautoshown" "1"
		}
	}
	solid
	{
		"id" "14"
		side
		{
			"id" "188"
			"plane" "(-14236 -1014 -6208) (-14239 -998 -6208) (-14239 -998 -5904)"
			"material" "TOOLS/TOOLSTRIGGER"
			"uaxis" "[0 -1 0 0] 0.25"
			"vaxis" "[0 0 -1 0] 0.25"
			"rotation" "0"
			"lightmapscale" "128"
			"smoothing_groups" "0"
		}
		side
		{
			"id" "187"
			"plane" "(-14146 -970 -6208) (-14140 -985 -6208) (-14140 -985 -5904)"
			"material" "TOOLS/TOOLSTRIGGER"
			"uaxis" "[0 -1 0 0] 0.25"
			"vaxis" "[0 0 -1 0] 0.25"
			"rotation" "0"
			"lightmapscale" "128"
			"smoothing_groups" "0"
		}
		side
		{
			"id" "186"
			"plane" "(-14239 -998 -6208) (-14236 -1014 -6208) (-14140 -985 -6208)"
			"material" "TOOLS/TOOLSTRIGGER"
			"uaxis" "[0 -1 0 0] 0.25"
			"vaxis" "[-1 0 0 0] 0.25"
			"rotation" "0"
			"lightmapscale" "128"
			"smoothing_groups" "0"
		}
		side
		{
			"id" "185"
			"plane" "(-14236 -1014 -5904) (-14239 -998 -5904) (-14146 -970 -5904)"
			"material" "TOOLS/TOOLSTRIGGER"
			"uaxis" "[0 -1 0 0] 0.25"
			"vaxis" "[-1 0 0 0] 0.25"
			"rotation" "0"
			"lightmapscale" "128"
			"smoothing_groups" "0"
		}
		side
		{
			"id" "184"
			"plane" "(-14140 -985 -5904) (-14140 -985 -6208) (-14236 -1014 -6208)"
			"material" "TOOLS/TOOLSTRIGGER"
			"uaxis" "[1 0 0 0] 0.25"
			"vaxis" "[0 0 -1 0] 0.25"
			"rotation" "0"
			"lightmapscale" "128"
			"smoothing_groups" "0"
		}
		side
		{
			"id" "183"
			"plane" "(-14239 -998 -5904) (-14239 -998 -6208) (-14146 -970 -6208)"
			"material" "TOOLS/TOOLSTRIGGER"
			"uaxis" "[1 0 0 0] 0.25"
			"vaxis" "[0 0 -1 0] 0.25"
			"rotation" "0"
			"lightmapscale" "128"
			"smoothing_groups" "0"
		}
		editor
		{
			"color" "220 30 220"
			"visgroupshown" "1"
			"visgroupautoshown" "1"
		}
	}
	solid
	{
		"id" "15"
		side
		{
			"id" "194"
			"plane" "(-14060 -924 -6208) (-14146 -970 -6208) (-14140 -985 -6208)"
			"material" "TOOLS/TOOLSTRIGGER"
			"uaxis" "[0 -1 0 0] 0.25"
			"vaxis" "[-1 0 0 0] 0.25"
			"rotation" "0"
			"lightmapscale" "128"
			"smoothing_groups" "0"
		}
		side
		{
			"id" "193"
			"plane" "(-14052 -938 -5904) (-14140 -985 -5904) (-14146 -970 -5904)"
			"material" "TOOLS/TOOLSTRIGGER"
			"uaxis" "[0 -1 0 0] 0.25"
			"vaxis" "[-1 0 0 0] 0.25"
			"rotation" "0"
			"lightmapscale" "128"
			"smoothing_groups" "0"
		}
		side
		{
			"id" "192"
			"plane" "(-14052 -938 -6208) (-14140 -985 -6208) (-14140 -985 -5904)"
			"material" "TOOLS/TOOLSTRIGGER"
			"uaxis" "[1 0 0 0] 0.25"
			"vaxis" "[0 0 -1 0] 0.25"
			"rotation" "0"
			"lightmapscale" "128"
			"smoothing_groups" "0"
		}
		side
		{
			"id" "191"
			"plane" "(-14146 -970 -6208) (-14060 -924 -6208) (-14060 -924 -5904)"
			"material" "TOOLS/TOOLSTRIGGER"
			"uaxis" "[1 0 0 0] 0.25"
			"vaxis" "[0 0 -1 0] 0.25"
			"rotation" "0"
			"lightmapscale" "128"
			"smoothing_groups" "0"
		}
		side
		{
			"id" "190"
			"plane" "(-14140 -985 -6208) (-14146 -970 -6208) (-14146 -970 -5904)"
			"material" "TOOLS/TOOLSTRIGGER"
			"uaxis" "[0 -1 0 0] 0.25"
			"vaxis" "[0 0 -1 0] 0.25"
			"rotation" "0"
			"lightmapscale" "128"
			"smoothing_groups" "0"
		}
		side
		{
			"id" "189"
			"plane" "(-14060 -924 -6208) (-14052 -938 -6208) (-14052 -938 -5904)"
			"material" "TOOLS/TOOLSTRIGGER"
			"uaxis" "[0 -1 0 0] 0.25"
			"vaxis" "[0 0 -1 0] 0.25"
			"rotation" "0"
			"lightmapscale" "128"
			"smoothing_groups" "0"
		}
		editor
		{
			"color" "220 30 220"
			"visgroupshown" "1"
			"visgroupautoshown" "1"
		}
	}
	solid
	{
		"id" "16"
		side
		{
			"id" "200"
			"plane" "(-14052 -938 -6208) (-13974 -874 -6208) (-13985 -863 -6208)"
			"material" "TOOLS/TOOLSTRIGGER"
			"uaxis" "[0 -1 0 0] 0.25"
			"vaxis" "[-1 0 0 0] 0.25"
			"rotation" "0"
			"lightmapscale" "128"
			"smoothing_groups" "0"
		}
		side
		{
			"id" "199"
			"plane" "(-14060 -924 -5904) (-13985 -863 -5904) (-13974 -874 -5904)"
			"material" "TOOLS/TOOLSTRIGGER"
			"uaxis" "[0 -1 0 0] 0.25"
			"vaxis" "[-1 0 0 0] 0.25"
			"rotation" "0"
			"lightmapscale" "128"
			"smoothing_groups" "0"
		}
		side
		{
			"id" "198"
			"plane" "(-13974 -874 -6208) (-14052 -938 -6208) (-14052 -938 -5904)"
			"material" "TOOLS/TOOLSTRIGGER"
			"uaxis" "[1 0 0 0] 0.25"
			"vaxis" "[0 0 -1 0] 0.25"
			"rotation" "0"
			"lightmapscale" "128"
			"smoothing_groups" "0"
		}
		side
		{
			"id" "197"
			"plane" "(-14060 -924 -6208) (-13985 -863 -6208) (-13985 -863 -5904)"
			"material" "TOOLS/TOOLSTRIGGER"
			"uaxis" "[1 0 0 0] 0.25"
			"vaxis" "[0 0 -1 0] 0.25"
			"rotation" "0"
			"lightmapscale" "128"
			"smoothing_groups" "0"
		}
		side
		{
			"id" "196"
			"plane" "(-14052 -938 -6208) (-14060 -924 -6208) (-14060 -924 -5904)"
			"material" "TOOLS/TOOLSTRIGGER"
			"uaxis" "[0 -1 0 0] 0.25"
			"vaxis" "[0 0 -1 0] 0.25"
			"rotation" "0"
			"lightmapscale" "128"
			"smoothing_groups" "0"
		}
		side
		{
			"id" "195"
			"plane" "(-13985 -863 -6208) (-13974 -874 -6208) (-13974 -874 -5904)"
			"material" "TOOLS/TOOLSTRIGGER"
			"uaxis" "[1 0 0 0] 0.25"
			"vaxis" "[0 0 -1 0] 0.25"
			"rotation" "0"
			"lightmapscale" "128"
			"smoothing_groups" "0"
		}
		editor
		{
			"color" "220 30 220"
			"visgroupshown" "1"
			"visgroupautoshown" "1"
		}
	}
	solid
	{
		"id" "17"
		side
		{
			"id" "206"
			"plane" "(-13924 -788 -6208) (-13985 -863 -6208) (-13974 -874 -6208)"
			"material" "TOOLS/TOOLSTRIGGER"
			"uaxis" "[0 -1 0 0] 0.25"
			"vaxis" "[-1 0 0 0] 0.25"
			"rotation" "0"
			"lightmapscale" "128"
			"smoothing_groups" "0"
		}
		side
		{
			"id" "205"
			"plane" "(-13910 -796 -5904) (-13974 -874 -5904) (-13985 -863 -5904)"
			"material" "TOOLS/TOOLSTRIGGER"
			"uaxis" "[0 -1 0 0] 0.25"
			"vaxis" "[-1 0 0 0] 0.25"
			"rotation" "0"
			"lightmapscale" "128"
			"smoothing_groups" "0"
		}
		side
		{
			"id" "204"
			"plane" "(-13910 -796 -6208) (-13974 -874 -6208) (-13974 -874 -5904)"
			"material" "TOOLS/TOOLSTRIGGER"
			"uaxis" "[0 -1 0 0] 0.25"
			"vaxis" "[0 0 -1 0] 0.25"
			"rotation" "0"
			"lightmapscale" "128"
			"smoothing_groups" "0"
		}
		side
		{
			"id" "203"
			"plane" "(-13985 -863 -6208) (-13924 -788 -6208) (-13924 -788 -5904)"
			"material" "TOOLS/TOOLSTRIGGER"
			"uaxis" "[0 -1 0 0] 0.25"
			"vaxis" "[0 0 -1 0] 0.25"
			"rotation" "0"
			"lightmapscale" "128"
			"smoothing_groups" "0"
		}
		side
		{
			"id" "202"
			"plane" "(-13974 -874 -6208) (-13985 -863 -6208) (-13985 -863 -5904)"
			"material" "TOOLS/TOOLSTRIGGER"
			"uaxis" "[1 0 0 0] 0.25"
			"vaxis" "[0 0 -1 0] 0.25"
			"rotation" "0"
			"lightmapscale" "128"
			"smoothing_groups" "0"
		}
		side
		{
			"id" "201"
			"plane" "(-13924 -788 -6208) (-13910 -796 -6208) (-13910 -796 -5904)"
			"material" "TOOLS/TOOLSTRIGGER"
			"uaxis" "[1 0 0 0] 0.25"
			"vaxis" "[0 0 -1 0] 0.25"
			"rotation" "0"
			"lightmapscale" "128"
			"smoothing_groups" "0"
		}
		editor
		{
			"color" "220 30 220"
			"visgroupshown" "1"
			"visgroupautoshown" "1"
		}
	}
	solid
	{
		"id" "18"
		side
		{
			"id" "212"
			"plane" "(-13863 -708 -5904) (-13863 -708 -6208) (-13910 -796 -6208)"
			"material" "TOOLS/TOOLSTRIGGER"
			"uaxis" "[0 -1 0 0] 0.25"
			"vaxis" "[0 0 -1 0] 0.25"
			"rotation" "0"
			"lightmapscale" "128"
			"smoothing_groups" "0"
		}
		side
		{
			"id" "211"
			"plane" "(-13924 -788 -5904) (-13924 -788 -6208) (-13878 -702 -6208)"
			"material" "TOOLS/TOOLSTRIGGER"
			"uaxis" "[0 -1 0 0] 0.25"
			"vaxis" "[0 0 -1 0] 0.25"
			"rotation" "0"
			"lightmapscale" "128"
			"smoothing_groups" "0"
		}
		side
		{
			"id" "210"
			"plane" "(-13910 -796 -5904) (-13910 -796 -6208) (-13924 -788 -6208)"
			"material" "TOOLS/TOOLSTRIGGER"
			"uaxis" "[1 0 0 0] 0.25"
			"vaxis" "[0 0 -1 0] 0.25"
			"rotation" "0"
			"lightmapscale" "128"
			"smoothing_groups" "0"
		}
		side
		{
			"id" "209"
			"plane" "(-13878 -702 -5904) (-13878 -702 -6208) (-13863 -708 -6208)"
			"material" "TOOLS/TOOLSTRIGGER"
			"uaxis" "[1 0 0 0] 0.25"
			"vaxis" "[0 0 -1 0] 0.25"
			"rotation" "0"
			"lightmapscale" "128"
			"smoothing_groups" "0"
		}
		side
		{
			"id" "208"
			"plane" "(-13910 -796 -6208) (-13863 -708 -6208) (-13878 -702 -6208)"
			"material" "TOOLS/TOOLSTRIGGER"
			"uaxis" "[0 -1 0 0] 0.25"
			"vaxis" "[-1 0 0 0] 0.25"
			"rotation" "0"
			"lightmapscale" "128"
			"smoothing_groups" "0"
		}
		side
		{
			"id" "207"
			"plane" "(-13924 -788 -5904) (-13878 -702 -5904) (-13863 -708 -5904)"
			"material" "TOOLS/TOOLSTRIGGER"
			"uaxis" "[0 -1 0 0] 0.25"
			"vaxis" "[-1 0 0 0] 0.25"
			"rotation" "0"
			"lightmapscale" "128"
			"smoothing_groups" "0"
		}
		editor
		{
			"color" "220 30 220"
			"visgroupshown" "1"
			"visgroupautoshown" "1"
		}
	}
	solid
	{
		"id" "19"
		side
		{
			"id" "218"
			"plane" "(-13850 -609 -6208) (-13834 -612 -6208) (-13834 -612 -5904)"
			"material" "TOOLS/TOOLSTRIGGER"
			"uaxis" "[1 0 0 0] 0.25"
			"vaxis" "[0 0 -1 0] 0.25"
			"rotation" "0"
			"lightmapscale" "128"
			"smoothing_groups" "0"
		}
		side
		{
			"id" "217"
			"plane" "(-13834 -612 -6208) (-13850 -609 -6208) (-13878 -702 -6208)"
			"material" "TOOLS/TOOLSTRIGGER"
			"uaxis" "[0 -1 0 0] 0.25"
			"vaxis" "[-1 0 0 0] 0.25"
			"rotation" "0"
			"lightmapscale" "128"
			"smoothing_groups" "0"
		}
		side
		{
			"id" "216"
			"plane" "(-13850 -609 -5904) (-13834 -612 -5904) (-13863 -708 -5904)"
			"material" "TOOLS/TOOLSTRIGGER"
			"uaxis" "[0 -1 0 0] 0.25"
			"vaxis" "[-1 0 0 0] 0.25"
			"rotation" "0"
			"lightmapscale" "128"
			"smoothing_groups" "0"
		}
		side
		{
			"id" "215"
			"plane" "(-13834 -612 -5904) (-13834 -612 -6208) (-13863 -708 -6208)"
			"material" "TOOLS/TOOLSTRIGGER"
			"uaxis" "[0 -1 0 0] 0.25"
			"vaxis" "[0 0 -1 0] 0.25"
			"rotation" "0"
			"lightmapscale" "128"
			"smoothing_groups" "0"
		}
		side
		{
			"id" "214"
			"plane" "(-13878 -702 -6208) (-13850 -609 -6208) (-13850 -609 -5904)"
			"material" "TOOLS/TOOLSTRIGGER"
			"uaxis" "[0 -1 0 0] 0.25"
			"vaxis" "[0 0 -1 0] 0.25"
			"rotation" "0"
			"lightmapscale" "128"
			"smoothing_groups" "0"
		}
		side
		{
			"id" "213"
			"plane" "(-13863 -708 -6208) (-13878 -702 -6208) (-13878 -702 -5904)"
			"material" "TOOLS/TOOLSTRIGGER"
			"uaxis" "[1 0 0 0] 0.25"
			"vaxis" "[0 0 -1 0] 0.25"
			"rotation" "0"
			"lightmapscale" "128"
			"smoothing_groups" "0"
		}
		editor
		{
			"color" "220 30 220"
			"visgroupshown" "1"
			"visgroupautoshown" "1"
		}
	}
	solid
	{
		"id" "20"
		side
		{
			"id" "224"
			"plane" "(-13840 -512 -6208) (-13824 -512 -6208) (-13824 -512 -5904)"
			"material" "TOOLS/TOOLSTRIGGER"
			"uaxis" "[1 0 0 0] 0.25"
			"vaxis" "[0 0 -1 0] 0.25"
			"rotation" "0"
			"lightmapscale" "128"
			"smoothing_groups" "0"
		}
		side
		{
			"id" "223"
			"plane" "(-13824 -512 -6208) (-13840 -512 -6208) (-13850 -609 -6208)"
			"material" "TOOLS/TOOLSTRIGGER"
			"uaxis" "[0 -1 0 0] 0.25"
			"vaxis" "[-1 0 0 0] 0.25"
			"rotation" "0"
			"lightmapscale" "128"
			"smoothing_groups" "0"
		}
		side
		{
			"id" "222"
			"plane" "(-13850 -609 -5904) (-13840 -512 -5904) (-13824 -512 -5904)"
			"material" "TOOLS/TOOLSTRIGGER"
			"uaxis" "[0 -1 0 0] 0.25"
			"vaxis" "[-1 0 0 0] 0.25"
			"rotation" "0"
			"lightmapscale" "128"
			"smoothing_groups" "0"
		}
		side
		{
			"id" "221"
			"plane" "(-13824 -512 -5904) (-13824 -512 -6208) (-13834 -612 -6208)"
			"material" "TOOLS/TOOLSTRIGGER"
			"uaxis" "[0 -1 0 0] 0.25"
			"vaxis" "[0 0 -1 0] 0.25"
			"rotation" "0"
			"lightmapscale" "128"
			"smoothing_groups" "0"
		}
		side
		{
			"id" "220"
			"plane" "(-13850 -609 -6208) (-13840 -512 -6208) (-13840 -512 -5904)"
			"material" "TOOLS/TOOLSTRIGGER"
			"uaxis" "[0 -1 0 0] 0.25"
			"vaxis" "[0 0 -1 0] 0.25"
			"rotation" "0"
			"lightmapscale" "128"
			"smoothing_groups" "0"
		}
		side
		{
			"id" "219"
			"plane" "(-13834 -612 -6208) (-13850 -609 -6208) (-13850 -609 -5904)"
			"material" "TOOLS/TOOLSTRIGGER"
			"uaxis" "[1 0 0 0] 0.25"
			"vaxis" "[0 0 -1 0] 0.25"
			"rotation" "0"
			"lightmapscale" "128"
			"smoothing_groups" "0"
		}
		editor
		{
			"color" "220 30 220"
			"visgroupshown" "1"
			"visgroupautoshown" "1"
		}
	}
	solid
	{
		"id" "21"
		side
		{
			"id" "230"
			"plane" "(-13840 512 -6208) (-13824 512 -6208) (-13824 512 -5904)"
			"material" "TOOLS/TOOLSTRIGGER"
			"uaxis" "[1 0 0 0] 0.25"
			"vaxis" "[0 0 -1 0] 0.25"
			"rotation" "0"
			"lightmapscale" "128"
			"smoothing_groups" "0"
		}
		side
		{
			"id" "229"
			"plane" "(-13824 512 -6208) (-13840 512 -6208) (-13840 -512 -6208)"
			"material" "TOOLS/TOOLSTRIGGER"
			"uaxis" "[1 0 0 0] 0.25"
			"vaxis" "[0 -1 0 0] 0.25"
			"rotation" "0"
			"lightmapscale" "128"
			"smoothing_groups" "0"
		}
		side
		{
			"id" "228"
			"plane" "(-13840 -512 -5904) (-13840 512 -5904) (-13824 512 -5904)"
			"material" "TOOLS/TOOLSTRIGGER"
			"uaxis" "[1 0 0 0] 0.25"
			"vaxis" "[0 -1 0 0] 0.25"
			"rotation" "0"
			"lightmapscale" "128"
			"smoothing_groups" "0"
		}
		side
		{
			"id" "227"
			"plane" "(-13840 -512 -6208) (-13840 512 -6208) (-13840 512 -5904)"
			"material" "TOOLS/TOOLSTRIGGER"
			"uaxis" "[0 1 0 0] 0.25"
			"vaxis" "[0 0 -1 0] 0.25"
			"rotation" "0"
			"lightmapscale" "128"
			"smoothing_groups" "0"
		}
		side
		{
			"id" "226"
			"plane" "(-13824 512 -5904) (-13824 512 -6208) (-13824 -512 -6208)"
			"material" "TOOLS/TOOLSTRIGGER"
			"uaxis" "[0 1 0 0] 0.25"
			"vaxis" "[0 0 -1 0] 0.25"
			"rotation" "0"
			"lightmapscale" "128"
			"smoothing_groups" "0"
		}
		side
		{
			"id" "225"
			"plane" "(-13824 -512 -6208) (-13840 -512 -6208) (-13840 -512 -5904)"
			"material" "TOOLS/TOOLSTRIGGER"
			"uaxis" "[-1 0 0 0] 0.25"
			"vaxis" "[0 0 -1 0] 0.25"
			"rotation" "0"
			"lightmapscale" "128"
			"smoothing_groups" "0"
		}
		editor
		{
			"color" "220 30 220"
			"visgroupshown" "1"
			"visgroupautoshown" "1"
		}
	}
	solid
	{
		"id" "22"
		side
		{
			"id" "236"
			"plane" "(-13824 512 -6208) (-13840 512 -6208) (-13840 512 -5904)"
			"material" "TOOLS/TOOLSTRIGGER"
			"uaxis" "[1 0 0 0] 0.25"
			"vaxis" "[0 0 -1 0] 0.25"
			"rotation" "0"
			"lightmapscale" "128"
			"smoothing_groups" "0"
		}
		side
		{
			"id" "235"
			"plane" "(-13850 609 -6208) (-13840 512 -6208) (-13824 512 -6208)"
			"material" "TOOLS/TOOLSTRIGGER"
			"uaxis" "[1 0 0 0] 0.25"
			"vaxis" "[0 -1 0 0] 0.25"
			"rotation" "0"
			"lightmapscale" "128"
			"smoothing_groups" "0"
		}
		side
		{
			"id" "234"
			"plane" "(-13824 512 -5904) (-13840 512 -5904) (-13850 609 -5904)"
			"material" "TOOLS/TOOLSTRIGGER"
			"uaxis" "[1 0 0 0] 0.25"
			"vaxis" "[0 -1 0 0] 0.25"
			"rotation" "0"
			"lightmapscale" "128"
			"smoothing_groups" "0"
		}
		side
		{
			"id" "233"
			"plane" "(-13834 612 -6208) (-13824 512 -6208) (-13824 512 -5904)"
			"material" "TOOLS/TOOLSTRIGGER"
			"uaxis" "[0 1 0 0] 0.25"
			"vaxis" "[0 0 -1 0] 0.25"
			"rotation" "0"
			"lightmapscale" "128"
			"smoothing_groups" "0"
		}
		side
		{
			"id" "232"
			"plane" "(-13840 512 -5904) (-13840 512 -6208) (-13850 609 -6208)"
			"material" "TOOLS/TOOLSTRIGGER"
			"uaxis" "[0 1 0 0] 0.25"
			"vaxis" "[0 0 -1 0] 0.25"
			"rotation" "0"
			"lightmapscale" "128"
			"smoothing_groups" "0"
		}
		side
		{
			"id" "231"
			"plane" "(-13850 609 -6208) (-13834 612 -6208) (-13834 612 -5904)"
			"material" "TOOLS/TOOLSTRIGGER"
			"uaxis" "[1 0 0 0] 0.25"
			"vaxis" "[0 0 -1 0] 0.25"
			"rotation" "0"
			"lightmapscale" "128"
			"smoothing_groups" "0"
		}
		editor
		{
			"color" "220 30 220"
			"visgroupshown" "1"
			"visgroupautoshown" "1"
		}
	}
	solid
	{
		"id" "23"
		side
		{
			"id" "242"
			"plane" "(-13834 612 -6208) (-13863 708 -6208) (-13878 702 -6208)"
			"material" "TOOLS/TOOLSTRIGGER"
			"uaxis" "[1 0 0 0] 0.25"
			"vaxis" "[0 -1 0 0] 0.25"
			"rotation" "0"
			"lightmapscale" "128"
			"smoothing_groups" "0"
		}
		side
		{
			"id" "241"
			"plane" "(-13850 609 -5904) (-13878 702 -5904) (-13863 708 -5904)"
			"material" "TOOLS/TOOLSTRIGGER"
			"uaxis" "[1 0 0 0] 0.25"
			"vaxis" "[0 -1 0 0] 0.25"
			"rotation" "0"
			"lightmapscale" "128"
			"smoothing_groups" "0"
		}
		side
		{
			"id" "240"
			"plane" "(-13863 708 -6208) (-13834 612 -6208) (-13834 612 -5904)"
			"material" "TOOLS/TOOLSTRIGGER"
			"uaxis" "[0 1 0 0] 0.25"
			"vaxis" "[0 0 -1 0] 0.25"
			"rotation" "0"
			"lightmapscale" "128"
			"smoothing_groups" "0"
		}
		side
		{
			"id" "239"
			"plane" "(-13850 609 -6208) (-13878 702 -6208) (-13878 702 -5904)"
			"material" "TOOLS/TOOLSTRIGGER"
			"uaxis" "[0 1 0 0] 0.25"
			"vaxis" "[0 0 -1 0] 0.25"
			"rotation" "0"
			"lightmapscale" "128"
			"smoothing_groups" "0"
		}
		side
		{
			"id" "238"
			"plane" "(-13834 612 -6208) (-13850 609 -6208) (-13850 609 -5904)"
			"material" "TOOLS/TOOLSTRIGGER"
			"uaxis" "[1 0 0 0] 0.25"
			"vaxis" "[0 0 -1 0] 0.25"
			"rotation" "0"
			"lightmapscale" "128"
			"smoothing_groups" "0"
		}
		side
		{
			"id" "237"
			"plane" "(-13878 702 -6208) (-13863 708 -6208) (-13863 708 -5904)"
			"material" "TOOLS/TOOLSTRIGGER"
			"uaxis" "[1 0 0 0] 0.25"
			"vaxis" "[0 0 -1 0] 0.25"
			"rotation" "0"
			"lightmapscale" "128"
			"smoothing_groups" "0"
		}
		editor
		{
			"color" "220 30 220"
			"visgroupshown" "1"
			"visgroupautoshown" "1"
		}
	}
	solid
	{
		"id" "24"
		side
		{
			"id" "248"
			"plane" "(-13910 796 -5904) (-13910 796 -6208) (-13863 708 -6208)"
			"material" "TOOLS/TOOLSTRIGGER"
			"uaxis" "[0 1 0 0] 0.25"
			"vaxis" "[0 0 -1 0] 0.25"
			"rotation" "0"
			"lightmapscale" "128"
			"smoothing_groups" "0"
		}
		side
		{
			"id" "247"
			"plane" "(-13878 702 -5904) (-13878 702 -6208) (-13924 788 -6208)"
			"material" "TOOLS/TOOLSTRIGGER"
			"uaxis" "[0 1 0 0] 0.25"
			"vaxis" "[0 0 -1 0] 0.25"
			"rotation" "0"
			"lightmapscale" "128"
			"smoothing_groups" "0"
		}
		side
		{
			"id" "246"
			"plane" "(-13863 708 -5904) (-13863 708 -6208) (-13878 702 -6208)"
			"material" "TOOLS/TOOLSTRIGGER"
			"uaxis" "[1 0 0 0] 0.25"
			"vaxis" "[0 0 -1 0] 0.25"
			"rotation" "0"
			"lightmapscale" "128"
			"smoothing_groups" "0"
		}
		side
		{
			"id" "245"
			"plane" "(-13924 788 -5904) (-13924 788 -6208) (-13910 796 -6208)"
			"material" "TOOLS/TOOLSTRIGGER"
			"uaxis" "[1 0 0 0] 0.25"
			"vaxis" "[0 0 -1 0] 0.25"
			"rotation" "0"
			"lightmapscale" "128"
			"smoothing_groups" "0"
		}
		side
		{
			"id" "244"
			"plane" "(-13924 788 -6208) (-13878 702 -6208) (-13863 708 -6208)"
			"material" "TOOLS/TOOLSTRIGGER"
			"uaxis" "[1 0 0 0] 0.25"
			"vaxis" "[0 -1 0 0] 0.25"
			"rotation" "0"
			"lightmapscale" "128"
			"smoothing_groups" "0"
		}
		side
		{
			"id" "243"
			"plane" "(-13910 796 -5904) (-13863 708 -5904) (-13878 702 -5904)"
			"material" "TOOLS/TOOLSTRIGGER"
			"uaxis" "[1 0 0 0] 0.25"
			"vaxis" "[0 -1 0 0] 0.25"
			"rotation" "0"
			"lightmapscale" "128"
			"smoothing_groups" "0"
		}
		editor
		{
			"color" "220 30 220"
			"visgroupshown" "1"
			"visgroupautoshown" "1"
		}
	}
	solid
	{
		"id" "25"
		side
		{
			"id" "254"
			"plane" "(-13910 796 -6208) (-13924 788 -6208) (-13924 788 -5904)"
			"material" "TOOLS/TOOLSTRIGGER"
			"uaxis" "[1 0 0 0] 0.25"
			"vaxis" "[0 0 -1 0] 0.25"
			"rotation" "0"
			"lightmapscale" "128"
			"smoothing_groups" "0"
		}
		side
		{
			"id" "253"
			"plane" "(-13985 863 -6208) (-13974 874 -6208) (-13974 874 -5904)"
			"material" "TOOLS/TOOLSTRIGGER"
			"uaxis" "[0 1 0 0] 0.25"
			"vaxis" "[0 0 -1 0] 0.25"
			"rotation" "0"
			"lightmapscale" "128"
			"smoothing_groups" "0"
		}
		side
		{
			"id" "252"
			"plane" "(-13974 874 -6208) (-13985 863 -6208) (-13924 788 -6208)"
			"material" "TOOLS/TOOLSTRIGGER"
			"uaxis" "[1 0 0 0] 0.25"
			"vaxis" "[0 -1 0 0] 0.25"
			"rotation" "0"
			"lightmapscale" "128"
			"smoothing_groups" "0"
		}
		side
		{
			"id" "251"
			"plane" "(-13910 796 -5904) (-13924 788 -5904) (-13985 863 -5904)"
			"material" "TOOLS/TOOLSTRIGGER"
			"uaxis" "[1 0 0 0] 0.25"
			"vaxis" "[0 -1 0 0] 0.25"
			"rotation" "0"
			"lightmapscale" "128"
			"smoothing_groups" "0"
		}
		side
		{
			"id" "250"
			"plane" "(-13974 874 -5904) (-13974 874 -6208) (-13910 796 -6208)"
			"material" "TOOLS/TOOLSTRIGGER"
			"uaxis" "[0 1 0 0] 0.25"
			"vaxis" "[0 0 -1 0] 0.25"
			"rotation" "0"
			"lightmapscale" "128"
			"smoothing_groups" "0"
		}
		side
		{
			"id" "249"
			"plane" "(-13924 788 -5904) (-13924 788 -6208) (-13985 863 -6208)"
			"material" "TOOLS/TOOLSTRIGGER"
			"uaxis" "[0 1 0 0] 0.25"
			"vaxis" "[0 0 -1 0] 0.25"
			"rotation" "0"
			"lightmapscale" "128"
			"smoothing_groups" "0"
		}
		editor
		{
			"color" "220 30 220"
			"visgroupshown" "1"
			"visgroupautoshown" "1"
		}
	}
	solid
	{
		"id" "26"
		side
		{
			"id" "260"
			"plane" "(-14060 924 -6208) (-13985 863 -6208) (-13974 874 -6208)"
			"material" "TOOLS/TOOLSTRIGGER"
			"uaxis" "[1 0 0 0] 0.25"
			"vaxis" "[0 -1 0 0] 0.25"
			"rotation" "0"
			"lightmapscale" "128"
			"smoothing_groups" "0"
		}
		side
		{
			"id" "259"
			"plane" "(-14052 938 -5904) (-13974 874 -5904) (-13985 863 -5904)"
			"material" "TOOLS/TOOLSTRIGGER"
			"uaxis" "[1 0 0 0] 0.25"
			"vaxis" "[0 -1 0 0] 0.25"
			"rotation" "0"
			"lightmapscale" "128"
			"smoothing_groups" "0"
		}
		side
		{
			"id" "258"
			"plane" "(-14052 938 -6208) (-13974 874 -6208) (-13974 874 -5904)"
			"material" "TOOLS/TOOLSTRIGGER"
			"uaxis" "[1 0 0 0] 0.25"
			"vaxis" "[0 0 -1 0] 0.25"
			"rotation" "0"
			"lightmapscale" "128"
			"smoothing_groups" "0"
		}
		side
		{
			"id" "257"
			"plane" "(-13985 863 -6208) (-14060 924 -6208) (-14060 924 -5904)"
			"material" "TOOLS/TOOLSTRIGGER"
			"uaxis" "[1 0 0 0] 0.25"
			"vaxis" "[0 0 -1 0] 0.25"
			"rotation" "0"
			"lightmapscale" "128"
			"smoothing_groups" "0"
		}
		side
		{
			"id" "256"
			"plane" "(-13974 874 -6208) (-13985 863 -6208) (-13985 863 -5904)"
			"material" "TOOLS/TOOLSTRIGGER"
			"uaxis" "[0 1 0 0] 0.25"
			"vaxis" "[0 0 -1 0] 0.25"
			"rotation" "0"
			"lightmapscale" "128"
			"smoothing_groups" "0"
		}
		side
		{
			"id" "255"
			"plane" "(-14060 924 -6208) (-14052 938 -6208) (-14052 938 -5904)"
			"material" "TOOLS/TOOLSTRIGGER"
			"uaxis" "[0 1 0 0] 0.25"
			"vaxis" "[0 0 -1 0] 0.25"
			"rotation" "0"
			"lightmapscale" "128"
			"smoothing_groups" "0"
		}
		editor
		{
			"color" "220 30 220"
			"visgroupshown" "1"
			"visgroupautoshown" "1"
		}
	}
	solid
	{
		"id" "27"
		side
		{
			"id" "266"
			"plane" "(-14052 938 -6208) (-14140 985 -6208) (-14146 970 -6208)"
			"material" "TOOLS/TOOLSTRIGGER"
			"uaxis" "[1 0 0 0] 0.25"
			"vaxis" "[0 -1 0 0] 0.25"
			"rotation" "0"
			"lightmapscale" "128"
			"smoothing_groups" "0"
		}
		side
		{
			"id" "265"
			"plane" "(-14060 924 -5904) (-14146 970 -5904) (-14140 985 -5904)"
			"material" "TOOLS/TOOLSTRIGGER"
			"uaxis" "[1 0 0 0] 0.25"
			"vaxis" "[0 -1 0 0] 0.25"
			"rotation" "0"
			"lightmapscale" "128"
			"smoothing_groups" "0"
		}
		side
		{
			"id" "264"
			"plane" "(-14140 985 -6208) (-14052 938 -6208) (-14052 938 -5904)"
			"material" "TOOLS/TOOLSTRIGGER"
			"uaxis" "[1 0 0 0] 0.25"
			"vaxis" "[0 0 -1 0] 0.25"
			"rotation" "0"
			"lightmapscale" "128"
			"smoothing_groups" "0"
		}
		side
		{
			"id" "263"
			"plane" "(-14060 924 -6208) (-14146 970 -6208) (-14146 970 -5904)"
			"material" "TOOLS/TOOLSTRIGGER"
			"uaxis" "[1 0 0 0] 0.25"
			"vaxis" "[0 0 -1 0] 0.25"
			"rotation" "0"
			"lightmapscale" "128"
			"smoothing_groups" "0"
		}
		side
		{
			"id" "262"
			"plane" "(-14052 938 -6208) (-14060 924 -6208) (-14060 924 -5904)"
			"material" "TOOLS/TOOLSTRIGGER"
			"uaxis" "[0 1 0 0] 0.25"
			"vaxis" "[0 0 -1 0] 0.25"
			"rotation" "0"
			"lightmapscale" "128"
			"smoothing_groups" "0"
		}
		side
		{
			"id" "261"
			"plane" "(-14146 970 -6208) (-14140 985 -6208) (-14140 985 -5904)"
			"material" "TOOLS/TOOLSTRIGGER"
			"uaxis" "[0 1 0 0] 0.25"
			"vaxis" "[0 0 -1 0] 0.25"
			"rotation" "0"
			"lightmapscale" "128"
			"smoothing_groups" "0"
		}
		editor
		{
			"color" "220 30 220"
			"visgroupshown" "1"
			"visgroupautoshown" "1"
		}
	}
	solid
	{
		"id" "28"
		side
		{
			"id" "272"
			"plane" "(-14140 985 -6208) (-14236 1014 -6208) (-14239 998 -6208)"
			"material" "TOOLS/TOOLSTRIGGER"
			"uaxis" "[1 0 0 0] 0.25"
			"vaxis" "[0 -1 0 0] 0.25"
			"rotation" "0"
			"lightmapscale" "128"
			"smoothing_groups" "0"
		}
		side
		{
			"id" "271"
			"plane" "(-14236 1014 -5904) (-14140 985 -5904) (-14146 970 -5904)"
			"material" "TOOLS/TOOLSTRIGGER"
			"uaxis" "[1 0 0 0] 0.25"
			"vaxis" "[0 -1 0 0] 0.25"
			"rotation" "0"
			"lightmapscale" "128"
			"smoothing_groups" "0"
		}
		side
		{
			"id" "270"
			"plane" "(-14236 1014 -6208) (-14140 985 -6208) (-14140 985 -5904)"
			"material" "TOOLS/TOOLSTRIGGER"
			"uaxis" "[1 0 0 0] 0.25"
			"vaxis" "[0 0 -1 0] 0.25"
			"rotation" "0"
			"lightmapscale" "128"
			"smoothing_groups" "0"
		}
		side
		{
			"id" "269"
			"plane" "(-14146 970 -6208) (-14239 998 -6208) (-14239 998 -5904)"
			"material" "TOOLS/TOOLSTRIGGER"
			"uaxis" "[1 0 0 0] 0.25"
			"vaxis" "[0 0 -1 0] 0.25"
			"rotation" "0"
			"lightmapscale" "128"
			"smoothing_groups" "0"
		}
		side
		{
			"id" "268"
			"plane" "(-14140 985 -6208) (-14146 970 -6208) (-14146 970 -5904)"
			"material" "TOOLS/TOOLSTRIGGER"
			"uaxis" "[0 1 0 0] 0.25"
			"vaxis" "[0 0 -1 0] 0.25"
			"rotation" "0"
			"lightmapscale" "128"
			"smoothing_groups" "0"
		}
		side
		{
			"id" "267"
			"plane" "(-14239 998 -6208) (-14236 1014 -6208) (-14236 1014 -5904)"
			"material" "TOOLS/TOOLSTRIGGER"
			"uaxis" "[0 1 0 0] 0.25"
			"vaxis" "[0 0 -1 0] 0.25"
			"rotation" "0"
			"lightmapscale" "128"
			"smoothing_groups" "0"
		}
		editor
		{
			"color" "220 30 220"
			"visgroupshown" "1"
			"visgroupautoshown" "1"
		}
	}
	solid
	{
		"id" "29"
		side
		{
			"id" "278"
			"plane" "(-14239 998 -5904) (-14336 1008 -5904) (-14336 1024 -5904)"
			"material" "TOOLS/TOOLSTRIGGER"
			"uaxis" "[1 0 0 0] 0.25"
			"vaxis" "[0 -1 0 0] 0.25"
			"rotation" "0"
			"lightmapscale" "128"
			"smoothing_groups" "0"
		}
		side
		{
			"id" "277"
			"plane" "(-14336 1008 -6208) (-14336 1008 -5904) (-14239 998 -5904)"
			"material" "TOOLS/TOOLSTRIGGER"
			"uaxis" "[1 0 0 0] 0.25"
			"vaxis" "[0 0 -1 0] 0.25"
			"rotation" "0"
			"lightmapscale" "128"
			"smoothing_groups" "0"
		}
		side
		{
			"id" "276"
			"plane" "(-14239 998 -6208) (-14239 998 -5904) (-14236 1014 -5904)"
			"material" "TOOLS/TOOLSTRIGGER"
			"uaxis" "[0 1 0 0] 0.25"
			"vaxis" "[0 0 -1 0] 0.25"
			"rotation" "0"
			"lightmapscale" "128"
			"smoothing_groups" "0"
		}
		side
		{
			"id" "275"
			"plane" "(-14236 1014 -6208) (-14236 1014 -5904) (-14336 1024 -5904)"
			"material" "TOOLS/TOOLSTRIGGER"
			"uaxis" "[1 0 0 0] 0.25"
			"vaxis" "[0 0 -1 0] 0.25"
			"rotation" "0"
			"lightmapscale" "128"
			"smoothing_groups" "0"
		}
		side
		{
			"id" "274"
			"plane" "(-14336 1024 -6208) (-14336 1024 -5904) (-14336 1008 -5904)"
			"material" "TOOLS/TOOLSTRIGGER"
			"uaxis" "[0 1 0 0] 0.25"
			"vaxis" "[0 0 -1 0] 0.25"
			"rotation" "0"
			"lightmapscale" "128"
			"smoothing_groups" "0"
		}
		side
		{
			"id" "273"
			"plane" "(-14336 1008 -6208) (-14239 998 -6208) (-14236 1014 -6208)"
			"material" "TOOLS/TOOLSTRIGGER"
			"uaxis" "[1 0 0 0] 0.25"
			"vaxis" "[0 -1 0 0] 0.25"
			"rotation" "0"
			"lightmapscale" "128"
			"smoothing_groups" "0"
		}
		editor
		{
			"color" "220 30 220"
			"visgroupshown" "1"
			"visgroupautoshown" "1"
		}
	}
	solid
	{
		"id" "30"
		side
		{
			"id" "284"
			"plane" "(-14352 512 -6208) (-13840 512 -6208) (-13840 512 -5904)"
			"material" "TOOLS/TOOLSTRIGGER"
			"uaxis" "[1 0 0 0] 0.25"
			"vaxis" "[0 0 -1 0] 0.25"
			"rotation" "0"
			"lightmapscale" "128"
			"smoothing_groups" "0"
		}
		side
		{
			"id" "283"
			"plane" "(-13840 512 -6208) (-14352 512 -6208) (-14352 -512 -6208)"
			"material" "TOOLS/TOOLSTRIGGER"
			"uaxis" "[-1 0 0 0] 0.25"
			"vaxis" "[0 -1 0 0] 0.25"
			"rotation" "0"
			"lightmapscale" "128"
			"smoothing_groups" "0"
		}
		side
		{
			"id" "282"
			"plane" "(-14352 -512 -5904) (-14352 512 -5904) (-13840 512 -5904)"
			"material" "TOOLS/TOOLSTRIGGER"
			"uaxis" "[1 0 0 0] 0.25"
			"vaxis" "[0 -1 0 0] 0.25"
			"rotation" "0"
			"lightmapscale" "128"
			"smoothing_groups" "0"
		}
		side
		{
			"id" "281"
			"plane" "(-14352 -512 -6208) (-14352 512 -6208) (-14352 512 -5904)"
			"material" "TOOLS/TOOLSTRIGGER"
			"uaxis" "[0 1 0 0] 0.25"
			"vaxis" "[0 0 -1 0] 0.25"
			"rotation" "0"
			"lightmapscale" "128"
			"smoothing_groups" "0"
		}
		side
		{
			"id" "280"
			"plane" "(-13840 512 -5904) (-13840 512 -6208) (-13840 -512 -6208)"
			"material" "TOOLS/TOOLSTRIGGER"
			"uaxis" "[0 -1 0 0] 0.25"
			"vaxis" "[0 0 -1 0] 0.25"
			"rotation" "0"
			"lightmapscale" "128"
			"smoothing_groups" "0"
		}
		side
		{
			"id" "279"
			"plane" "(-13840 -512 -6208) (-14352 -512 -6208) (-14352 -512 -5904)"
			"material" "TOOLS/TOOLSTRIGGER"
			"uaxis" "[-1 0 0 0] 0.25"
			"vaxis" "[0 0 -1 0] 0.25"
			"rotation" "0"
			"lightmapscale" "128"
			"smoothing_groups" "0"
		}
		editor
		{
			"color" "220 30 220"
			"visgroupshown" "1"
			"visgroupautoshown" "1"
		}
	}
	solid
	{
		"id" "31"
		side
		{
			"id" "297"
			"plane" "(-14336 1008 -5904) (-14336 1008 -6208) (-14239 998 -6208)"
			"material" "TOOLS/TOOLSTRIGGER"
			"uaxis" "[0.9947 -0.1025 0 0] 0.25"
			"vaxis" "[0 0 -1 0] 0.25"
			"rotation" "0"
			"lightmapscale" "128"
			"smoothing_groups" "0"
		}
		side
		{
			"id" "296"
			"plane" "(-14239 998 -5904) (-14239 998 -6208) (-14146 970 -6208)"
			"material" "TOOLS/TOOLSTRIGGER"
			"uaxis" "[0.9575 -0.2883 0 0] 0.25"
			"vaxis" "[0 0 -1 0] 0.25"
			"rotation" "0"
			"lightmapscale" "128"
			"smoothing_groups" "0"
		}
		side
		{
			"id" "295"
			"plane" "(-14060 924 -6208) (-13985 863.035 -6208) (-13985 863.035 -5904)"
			"material" "TOOLS/TOOLSTRIGGER"
			"uaxis" "[0.7758 -0.631 0 0] 0.25"
			"vaxis" "[0 0 -1 0] 0.25"
			"rotation" "0"
			"lightmapscale" "128"
			"smoothing_groups" "0"
		}
		side
		{
			"id" "294"
			"plane" "(-14352 512 -5904) (-14352 512 -6208) (-14352 1008 -6208)"
			"material" "TOOLS/TOOLSTRIGGER"
			"uaxis" "[0 1 0 0] 0.25"
			"vaxis" "[0 0 -1 0] 0.25"
			"rotation" "0"
			"lightmapscale" "128"
			"smoothing_groups" "0"
		}
		side
		{
			"id" "293"
			"plane" "(-13840 512 -6208) (-14352 512 -6208) (-14352 512 -5904)"
			"material" "TOOLS/TOOLSTRIGGER"
			"uaxis" "[-1 0 0 0] 0.25"
			"vaxis" "[0 0 -1 0] 0.25"
			"rotation" "0"
			"lightmapscale" "128"
			"smoothing_groups" "0"
		}
		side
		{
			"id" "292"
			"plane" "(-14352 1008 -5904) (-14352 1008 -6208) (-14336 1008 -6208)"
			"material" "TOOLS/TOOLSTRIGGER"
			"uaxis" "[1 0 0 0] 0.25"
			"vaxis" "[0 0 -1 0] 0.25"
			"rotation" "0"
			"lightmapscale" "128"
			"smoothing_groups" "0"
		}
		side
		{
			"id" "291"
			"plane" "(-13985 863.031 -6208) (-14060 924 -6208) (-14146 970 -6208)"
			"material" "TOOLS/TOOLSTRIGGER"
			"uaxis" "[-1 0 0 0] 0.25"
			"vaxis" "[0 -1 0 0] 0.25"
			"rotation" "0"
			"lightmapscale" "128"
			"smoothing_groups" "0"
		}
		side
		{
			"id" "290"
			"plane" "(-14352 512 -5904) (-14352 1008 -5904) (-14336 1008 -5904)"
			"material" "TOOLS/TOOLSTRIGGER"
			"uaxis" "[1 0 0 0] 0.25"
			"vaxis" "[0 -1 0 0] 0.25"
			"rotation" "0"
			"lightmapscale" "128"
			"smoothing_groups" "0"
		}
		side
		{
			"id" "289"
			"plane" "(-13985 863.038 -5904) (-13985 863.038 -6208) (-13924 787.939 -6208)"
			"material" "TOOLS/TOOLSTRIGGER"
			"uaxis" "[0.631 -0.7758 0 0] 0.25"
			"vaxis" "[0 0 -1 0] 0.25"
			"rotation" "0"
			"lightmapscale" "128"
			"smoothing_groups" "0"
		}
		side
		{
			"id" "288"
			"plane" "(-13924 787.945 -6208) (-13878 702 -6208) (-13878 702 -5904)"
			"material" "TOOLS/TOOLSTRIGGER"
			"uaxis" "[0.4717 -0.8818 0 0] 0.25"
			"vaxis" "[0 0 -1 0] 0.25"
			"rotation" "0"
			"lightmapscale" "128"
			"smoothing_groups" "0"
		}
		side
		{
			"id" "287"
			"plane" "(-13878 702 -6208) (-13850 609 -6208) (-13850 609 -5904)"
			"material" "TOOLS/TOOLSTRIGGER"
			"uaxis" "[0.2883 -0.9575 0 0] 0.25"
			"vaxis" "[0 0 -1 0] 0.25"
			"rotation" "0"
			"lightmapscale" "128"
			"smoothing_groups" "0"
		}
		side
		{
			"id" "286"
			"plane" "(-13850 609 -6208) (-13840 512 -6208) (-13840 512 -5904)"
			"material" "TOOLS/TOOLSTRIGGER"
			"uaxis" "[0.1025 -0.9947 0 0] 0.25"
			"vaxis" "[0 0 -1 0] 0.25"
			"rotation" "0"
			"lightmapscale" "128"
			"smoothing_groups" "0"
		}
		side
		{
			"id" "285"
			"plane" "(-14146 970 -5904) (-14146 970 -6208) (-14060 924 -6208)"
			"material" "TOOLS/TOOLSTRIGGER"
			"uaxis" "[0.8818 -0.4717 0 0] 0.25"
			"vaxis" "[0 0 -1 0] 0.25"
			"rotation" "0"
			"lightmapscale" "128"
			"smoothing_groups" "0"
		}
		editor
		{
			"color" "220 30 220"
			"visgroupshown" "1"
			"visgroupautoshown" "1"
		}
	}
	solid
	{
		"id" "32"
		side
		{
			"id" "310"
			"plane" "(-14352 -1008 -5904) (-14352 -1008 -6208) (-14352 -512 -6208)"
			"material" "TOOLS/TOOLSTRIGGER"
			"uaxis" "[0 1 0 0] 0.25"
			"vaxis" "[0 0 -1 0] 0.25"
			"rotation" "0"
			"lightmapscale" "128"
			"smoothing_groups" "0"
		}
		side
		{
			"id" "309"
			"plane" "(-14336 -1008 -6208) (-14352 -1008 -6208) (-14352 -1008 -5904)"
			"material" "TOOLS/TOOLSTRIGGER"
			"uaxis" "[-1 0 0 0] 0.25"
			"vaxis" "[0 0 -1 0] 0.25"
			"rotation" "0"
			"lightmapscale" "128"
			"smoothing_groups" "0"
		}
		side
		{
			"id" "308"
			"plane" "(-14352 -512 -5904) (-14352 -512 -6208) (-13840 -512 -6208)"
			"material" "TOOLS/TOOLSTRIGGER"
			"uaxis" "[1 0 0 0] 0.25"
			"vaxis" "[0 0 -1 0] 0.25"
			"rotation" "0"
			"lightmapscale" "128"
			"smoothing_groups" "0"
		}
		side
		{
			"id" "307"
			"plane" "(-13840 -512 -6208) (-14352 -512 -6208) (-14352 -1008 -6208)"
			"material" "TOOLS/TOOLSTRIGGER"
			"uaxis" "[-1 0 0 0] 0.25"
			"vaxis" "[0 -1 0 0] 0.25"
			"rotation" "0"
			"lightmapscale" "128"
			"smoothing_groups" "0"
		}
		side
		{
			"id" "306"
			"plane" "(-14336 -1008 -5904) (-14352 -1008 -5904) (-14352 -512 -5904)"
			"material" "TOOLS/TOOLSTRIGGER"
			"uaxis" "[1 0 0 0] 0.25"
			"vaxis" "[0 -1 0 0] 0.25"
			"rotation" "0"
			"lightmapscale" "128"
			"smoothing_groups" "0"
		}
		side
		{
			"id" "305"
			"plane" "(-13985 -863.037 -6208) (-14060 -924 -6208) (-14060 -924 -5904)"
			"material" "TOOLS/TOOLSTRIGGER"
			"uaxis" "[-0.7758 -0.631 0 0] 0.25"
			"vaxis" "[0 0 -1 0] 0.25"
			"rotation" "0"
			"lightmapscale" "128"
			"smoothing_groups" "0"
		}
		side
		{
			"id" "304"
			"plane" "(-14060 -924 -6208) (-14146 -970 -6208) (-14146 -970 -5904)"
			"material" "TOOLS/TOOLSTRIGGER"
			"uaxis" "[-0.8818 -0.4717 0 0] 0.25"
			"vaxis" "[0 0 -1 0] 0.25"
			"rotation" "0"
			"lightmapscale" "128"
			"smoothing_groups" "0"
		}
		side
		{
			"id" "303"
			"plane" "(-14146 -970 -6208) (-14239 -998 -6208) (-14239 -998 -5904)"
			"material" "TOOLS/TOOLSTRIGGER"
			"uaxis" "[-0.9575 -0.2883 0 0] 0.25"
			"vaxis" "[0 0 -1 0] 0.25"
			"rotation" "0"
			"lightmapscale" "128"
			"smoothing_groups" "0"
		}
		side
		{
			"id" "302"
			"plane" "(-14239 -998 -6208) (-14336 -1008 -6208) (-14336 -1008 -5904)"
			"material" "TOOLS/TOOLSTRIGGER"
			"uaxis" "[-0.9947 -0.1025 0 0] 0.25"
			"vaxis" "[0 0 -1 0] 0.25"
			"rotation" "0"
			"lightmapscale" "128"
			"smoothing_groups" "0"
		}
		side
		{
			"id" "301"
			"plane" "(-13850 -608.989 -6208) (-13878 -702.021 -6208) (-13878 -702.021 -5904)"
			"material" "TOOLS/TOOLSTRIGGER"
			"uaxis" "[-0.2883 -0.9575 0 0] 0.25"
			"vaxis" "[0 0 -1 0] 0.25"
			"rotation" "0"
			"lightmapscale" "128"
			"smoothing_groups" "0"
		}
		side
		{
			"id" "300"
			"plane" "(-13878 -702.021 -6208) (-13924 -787.934 -6208) (-13924 -787.934 -5904)"
			"material" "TOOLS/TOOLSTRIGGER"
			"uaxis" "[-0.4717 -0.8818 0 0] 0.25"
			"vaxis" "[0 0 -1 0] 0.25"
			"rotation" "0"
			"lightmapscale" "128"
			"smoothing_groups" "0"
		}
		side
		{
			"id" "299"
			"plane" "(-13840 -512 -5904) (-13840 -512 -6208) (-13850 -609 -6208)"
			"material" "TOOLS/TOOLSTRIGGER"
			"uaxis" "[-0.1026 -0.9947 0 0] 0.25"
			"vaxis" "[0 0 -1 0] 0.25"
			"rotation" "0"
			"lightmapscale" "128"
			"smoothing_groups" "0"
		}
		side
		{
			"id" "298"
			"plane" "(-13924 -787.941 -6208) (-13985 -863.027 -6208) (-13985 -863.027 -5904)"
			"material" "TOOLS/TOOLSTRIGGER"
			"uaxis" "[-0.631 -0.7758 0 0] 0.25"
			"vaxis" "[0 0 -1 0] 0.25"
			"rotation" "0"
			"lightmapscale" "128"
			"smoothing_groups" "0"
		}
		editor
		{
			"color" "220 30 220"
			"visgroupshown" "1"
			"visgroupautoshown" "1"
		}
	}
	editor
	{
		"color" "220 30 220"
		"visgroupshown" "1"
		"visgroupautoshown" "1"
		"logicalpos" "[1500 5000]"
	}
}
cameras
{
	"activecamera" "-1"
}
cordon
{
	"mins" "(-1024 -1024 -1024)"
	"maxs" "(1024 1024 1024)"
	"active" "0"
}
