versioninfo
{
	"editorversion" "400"
	"editorbuild" "7538"
	"mapversion" "1"
	"formatversion" "100"
	"prefab" "0"
}
visgroups
{
}
viewsettings
{
	"bSnapToGrid" "1"
	"bShowGrid" "1"
	"bShowLogicalGrid" "0"
	"nGridSpacing" "64"
	"bShow3DGrid" "0"
}
world
{
	"id" "1"
	"mapversion" "1"
	"classname" "worldspawn"
	"skyname" "sky_day01_01"
	"maxpropscreenwidth" "-1"
	"detailvbsp" "detail.vbsp"
	"detailmaterial" "detail/detailsprites"
}
entity
{
	"id" "2"
	"classname" "trigger_momentum_timer_stage"
	"origin" "-12864 11520 -3612"
	"spawnflags" "1"
	"stage" "3"
	"StartDisabled" "0"
	solid
	{
		"id" "3"
		side
		{
			"id" "87"
			"plane" "(-12992 11584 -3392) (-12864 11584 -3392) (-12864 11456 -3392)"
			"material" "TOOLS/TOOLSTRIGGER"
			"uaxis" "[1 0 0 0] 0.5"
			"vaxis" "[0 -1 0 0] 0.5"
			"rotation" "0"
			"lightmapscale" "128"
			"smoothing_groups" "0"
		}
		side
		{
			"id" "86"
			"plane" "(-12992 11456 -3584) (-12864 11456 -3584) (-12864 11584 -3584)"
			"material" "TOOLS/TOOLSTRIGGER"
			"uaxis" "[1 0 0 0] 0.5"
			"vaxis" "[0 -1 0 0] 0.5"
			"rotation" "0"
			"lightmapscale" "128"
			"smoothing_groups" "0"
		}
		side
		{
			"id" "85"
			"plane" "(-12992 11584 -3392) (-12992 11456 -3392) (-12992 11456 -3584)"
			"material" "TOOLS/TOOLSTRIGGER"
			"uaxis" "[0 1 0 0] 0.5"
			"vaxis" "[0 0 -1 0] 0.25"
			"rotation" "0"
			"lightmapscale" "128"
			"smoothing_groups" "0"
		}
		side
		{
			"id" "84"
			"plane" "(-12864 11584 -3584) (-12864 11456 -3584) (-12864 11456 -3392)"
			"material" "TOOLS/TOOLSTRIGGER"
			"uaxis" "[0 1 0 0] 0.5"
			"vaxis" "[0 0 -1 0] 0.25"
			"rotation" "0"
			"lightmapscale" "128"
			"smoothing_groups" "0"
		}
		side
		{
			"id" "83"
			"plane" "(-12864 11584 -3392) (-12992 11584 -3392) (-12992 11584 -3584)"
			"material" "TOOLS/TOOLSTRIGGER"
			"uaxis" "[1 0 0 0] 0.5"
			"vaxis" "[0 0 -1 0] 0.25"
			"rotation" "0"
			"lightmapscale" "128"
			"smoothing_groups" "0"
		}
		side
		{
			"id" "82"
			"plane" "(-12864 11456 -3584) (-12992 11456 -3584) (-12992 11456 -3392)"
			"material" "TOOLS/TOOLSTRIGGER"
			"uaxis" "[1 0 0 0] 0.5"
			"vaxis" "[0 0 -1 0] 0.25"
			"rotation" "0"
			"lightmapscale" "128"
			"smoothing_groups" "0"
		}
		editor
		{
			"color" "220 30 220"
			"visgroupshown" "1"
			"visgroupautoshown" "1"
		}
	}
	solid
	{
		"id" "4"
		side
		{
			"id" "93"
			"plane" "(-13056 11776 -3584) (-12672 11776 -3584) (-12672 11264 -3584)"
			"material" "TOOLS/TOOLSTRIGGER"
			"uaxis" "[1 0 0 0] 0.25"
			"vaxis" "[0 -1 0 0] 0.25"
			"rotation" "0"
			"lightmapscale" "128"
			"smoothing_groups" "0"
		}
		side
		{
			"id" "92"
			"plane" "(-13056 11264 -3832) (-12672 11264 -3832) (-12672 11776 -3832)"
			"material" "TOOLS/TOOLSTRIGGER"
			"uaxis" "[1 0 0 0] 0.25"
			"vaxis" "[0 -1 0 0] 0.25"
			"rotation" "0"
			"lightmapscale" "128"
			"smoothing_groups" "0"
		}
		side
		{
			"id" "91"
			"plane" "(-13056 11776 -3584) (-13056 11264 -3584) (-13056 11264 -3832)"
			"material" "TOOLS/TOOLSTRIGGER"
			"uaxis" "[0 1 0 0] 0.25"
			"vaxis" "[0 0 -1 0] 0.25"
			"rotation" "0"
			"lightmapscale" "128"
			"smoothing_groups" "0"
		}
		side
		{
			"id" "90"
			"plane" "(-12672 11776 -3832) (-12672 11264 -3832) (-12672 11264 -3584)"
			"material" "TOOLS/TOOLSTRIGGER"
			"uaxis" "[0 1 0 0] 0.25"
			"vaxis" "[0 0 -1 0] 0.25"
			"rotation" "0"
			"lightmapscale" "128"
			"smoothing_groups" "0"
		}
		side
		{
			"id" "89"
			"plane" "(-12672 11776 -3584) (-13056 11776 -3584) (-13056 11776 -3832)"
			"material" "TOOLS/TOOLSTRIGGER"
			"uaxis" "[1 0 0 0] 0.25"
			"vaxis" "[0 0 -1 0] 0.25"
			"rotation" "0"
			"lightmapscale" "128"
			"smoothing_groups" "0"
		}
		side
		{
			"id" "88"
			"plane" "(-12672 11264 -3832) (-13056 11264 -3832) (-13056 11264 -3584)"
			"material" "TOOLS/TOOLSTRIGGER"
			"uaxis" "[1 0 0 0] 0.25"
			"vaxis" "[0 0 -1 0] 0.25"
			"rotation" "0"
			"lightmapscale" "128"
			"smoothing_groups" "0"
		}
		editor
		{
			"color" "220 30 220"
			"visgroupshown" "1"
			"visgroupautoshown" "1"
		}
	}
	editor
	{
		"color" "220 30 220"
		"visgroupshown" "1"
		"visgroupautoshown" "1"
		"logicalpos" "[-11768 -1268]"
	}
}
entity
{
	"id" "6"
	"classname" "trigger_momentum_timer_stage"
	"origin" "15104 0 4120"
	"spawnflags" "1"
	"stage" "5"
	"StartDisabled" "0"
	solid
	{
		"id" "7"
		side
		{
			"id" "101"
			"plane" "(14848 -160 4416) (14848 160 4416) (14944 256 4416)"
			"material" "TOOLS/TOOLSTRIGGER"
			"uaxis" "[1 0 0 0] 0.25"
			"vaxis" "[0 -1 0 0] 0.25"
			"rotation" "0"
			"lightmapscale" "128"
			"smoothing_groups" "0"
		}
		side
		{
			"id" "100"
			"plane" "(14848 160 3824) (14848 -160 3824) (14944 -256 3824)"
			"material" "TOOLS/TOOLSTRIGGER"
			"uaxis" "[1 0 0 0] 0.25"
			"vaxis" "[0 -1 0 0] 0.25"
			"rotation" "0"
			"lightmapscale" "128"
			"smoothing_groups" "0"
		}
		side
		{
			"id" "99"
			"plane" "(14848 -160 3824) (14848 160 3824) (14848 160 4416)"
			"material" "TOOLS/TOOLSTRIGGER"
			"uaxis" "[0 1 0 0] 0.25"
			"vaxis" "[0 0 -1 0] 0.25"
			"rotation" "0"
			"lightmapscale" "128"
			"smoothing_groups" "0"
		}
		side
		{
			"id" "98"
			"plane" "(15360 256 3824) (15360 -256 3824) (15360 -256 4416)"
			"material" "TOOLS/TOOLSTRIGGER"
			"uaxis" "[0 1 0 0] 0.25"
			"vaxis" "[0 0 -1 0] 0.25"
			"rotation" "0"
			"lightmapscale" "128"
			"smoothing_groups" "0"
		}
		side
		{
			"id" "97"
			"plane" "(14944 256 3824) (15360 256 3824) (15360 256 4416)"
			"material" "TOOLS/TOOLSTRIGGER"
			"uaxis" "[1 0 0 0] 0.25"
			"vaxis" "[0 0 -1 0] 0.25"
			"rotation" "0"
			"lightmapscale" "128"
			"smoothing_groups" "0"
		}
		side
		{
			"id" "96"
			"plane" "(15360 -256 3824) (14944 -256 3824) (14944 -256 4416)"
			"material" "TOOLS/TOOLSTRIGGER"
			"uaxis" "[1 0 0 0] 0.25"
			"vaxis" "[0 0 -1 0] 0.25"
			"rotation" "0"
			"lightmapscale" "128"
			"smoothing_groups" "0"
		}
		side
		{
			"id" "95"
			"plane" "(14944 -256 3824) (14848 -160 3824) (14848 -160 4416)"
			"material" "TOOLS/TOOLSTRIGGER"
			"uaxis" "[0 1 0 0] 0.25"
			"vaxis" "[0 0 -1 0] 0.25"
			"rotation" "0"
			"lightmapscale" "128"
			"smoothing_groups" "0"
		}
		side
		{
			"id" "94"
			"plane" "(14848 160 3824) (14944 256 3824) (14944 256 4416)"
			"material" "TOOLS/TOOLSTRIGGER"
			"uaxis" "[0 1 0 0] 0.25"
			"vaxis" "[0 0 -1 0] 0.25"
			"rotation" "0"
			"lightmapscale" "128"
			"smoothing_groups" "0"
		}
		editor
		{
			"color" "220 30 220"
			"visgroupshown" "1"
			"visgroupautoshown" "1"
		}
	}
	solid
	{
		"id" "8"
		side
		{
			"id" "106"
			"plane" "(15104 -256 4416) (15360 -256 4416) (15360 -512 4416)"
			"material" "TOOLS/TOOLSTRIGGER"
			"uaxis" "[1 0 0 -63.9961] 0.125"
			"vaxis" "[0 -1 0 0] 0.25"
			"rotation" "0"
			"lightmapscale" "128"
			"smoothing_groups" "0"
		}
		side
		{
			"id" "105"
			"plane" "(15104 -256 3824) (15360 -512 3824) (15360 -256 3824)"
			"material" "TOOLS/TOOLSTRIGGER"
			"uaxis" "[1 0 0 -63.9961] 0.125"
			"vaxis" "[0 -1 0 0] 0.25"
			"rotation" "0"
			"lightmapscale" "128"
			"smoothing_groups" "0"
		}
		side
		{
			"id" "104"
			"plane" "(15360 -256 3824) (15360 -512 3824) (15360 -512 4416)"
			"material" "TOOLS/TOOLSTRIGGER"
			"uaxis" "[0 1 0 0] 0.25"
			"vaxis" "[0 0 -1 0] 0.25"
			"rotation" "0"
			"lightmapscale" "128"
			"smoothing_groups" "0"
		}
		side
		{
			"id" "103"
			"plane" "(15104 -256 3824) (15360 -256 3824) (15360 -256 4416)"
			"material" "TOOLS/TOOLSTRIGGER"
			"uaxis" "[1 0 0 -63.9961] 0.125"
			"vaxis" "[0 0 -1 0] 0.25"
			"rotation" "0"
			"lightmapscale" "128"
			"smoothing_groups" "0"
		}
		side
		{
			"id" "102"
			"plane" "(15360 -512 3824) (15104 -256 3824) (15104 -256 4416)"
			"material" "TOOLS/TOOLSTRIGGER"
			"uaxis" "[0 1 0 0] 0.25"
			"vaxis" "[0 0 -1 0] 0.25"
			"rotation" "0"
			"lightmapscale" "128"
			"smoothing_groups" "0"
		}
		editor
		{
			"color" "220 30 220"
			"visgroupshown" "1"
			"visgroupautoshown" "1"
		}
	}
	solid
	{
		"id" "9"
		side
		{
			"id" "111"
			"plane" "(15104 256 4416) (15360 512 4416) (15360 256 4416)"
			"material" "TOOLS/TOOLSTRIGGER"
			"uaxis" "[1 0 0 0] 0.125"
			"vaxis" "[0 -1 0 0] 0.25"
			"rotation" "0"
			"lightmapscale" "128"
			"smoothing_groups" "0"
		}
		side
		{
			"id" "110"
			"plane" "(15104 256 3824) (15360 256 3824) (15360 512 3824)"
			"material" "TOOLS/TOOLSTRIGGER"
			"uaxis" "[1 0 0 0] 0.125"
			"vaxis" "[0 -1 0 0] 0.25"
			"rotation" "0"
			"lightmapscale" "128"
			"smoothing_groups" "0"
		}
		side
		{
			"id" "109"
			"plane" "(15360 512 3824) (15360 256 3824) (15360 256 4416)"
			"material" "TOOLS/TOOLSTRIGGER"
			"uaxis" "[0 1 0 0] 0.25"
			"vaxis" "[0 0 -1 0] 0.25"
			"rotation" "0"
			"lightmapscale" "128"
			"smoothing_groups" "0"
		}
		side
		{
			"id" "108"
			"plane" "(15360 256 3824) (15104 256 3824) (15104 256 4416)"
			"material" "TOOLS/TOOLSTRIGGER"
			"uaxis" "[1 0 0 0] 0.125"
			"vaxis" "[0 0 -1 0] 0.25"
			"rotation" "0"
			"lightmapscale" "128"
			"smoothing_groups" "0"
		}
		side
		{
			"id" "107"
			"plane" "(15104 256 3824) (15360 512 3824) (15360 512 4416)"
			"material" "TOOLS/TOOLSTRIGGER"
			"uaxis" "[0 1 0 0] 0.25"
			"vaxis" "[0 0 -1 0] 0.25"
			"rotation" "0"
			"lightmapscale" "128"
			"smoothing_groups" "0"
		}
		editor
		{
			"color" "220 30 220"
			"visgroupshown" "1"
			"visgroupautoshown" "1"
		}
	}
	editor
	{
		"color" "220 30 220"
		"visgroupshown" "1"
		"visgroupautoshown" "1"
		"logicalpos" "[-11268 -11268]"
	}
}
entity
{
	"id" "11"
	"classname" "trigger_momentum_timer_stage"
	"origin" "-4784 5888 3648"
	"spawnflags" "1"
	"stage" "6"
	"StartDisabled" "0"
	solid
	{
		"id" "12"
		side
		{
			"id" "117"
			"plane" "(-4912 5952 3832) (-4784 5952 3832) (-4784 5824 3832)"
			"material" "TOOLS/TOOLSTRIGGER"
			"uaxis" "[0 1 0 -25.3281] 0.26087"
			"vaxis" "[1 0 0 8.06738] 0.234848"
			"rotation" "0"
			"lightmapscale" "64"
			"smoothing_groups" "0"
		}
		side
		{
			"id" "116"
			"plane" "(-4912 5824 3712) (-4784 5824 3712) (-4784 5952 3712)"
			"material" "TOOLS/TOOLSTRIGGER"
			"uaxis" "[0 1 0 -25.3281] 0.26087"
			"vaxis" "[-1 0 0 -59.0234] 0.234848"
			"rotation" "0"
			"lightmapscale" "64"
			"smoothing_groups" "0"
		}
		side
		{
			"id" "115"
			"plane" "(-4912 5952 3832) (-4912 5824 3832) (-4912 5824 3712)"
			"material" "TOOLS/TOOLSTRIGGER"
			"uaxis" "[0 1 0 -25.3281] 0.26087"
			"vaxis" "[0 0 -1 35.9387] 0.234848"
			"rotation" "0"
			"lightmapscale" "64"
			"smoothing_groups" "0"
		}
		side
		{
			"id" "114"
			"plane" "(-4784 5952 3712) (-4784 5824 3712) (-4784 5824 3832)"
			"material" "TOOLS/TOOLSTRIGGER"
			"uaxis" "[0 1 0 -25.3281] 0.26087"
			"vaxis" "[0 0 -1 35.9387] 0.234848"
			"rotation" "0"
			"lightmapscale" "64"
			"smoothing_groups" "0"
		}
		side
		{
			"id" "113"
			"plane" "(-4784 5952 3832) (-4912 5952 3832) (-4912 5952 3712)"
			"material" "TOOLS/TOOLSTRIGGER"
			"uaxis" "[-1 0 0 4.00293] 0.26087"
			"vaxis" "[0 0 -1 35.9386] 0.234848"
			"rotation" "0"
			"lightmapscale" "64"
			"smoothing_groups" "0"
		}
		side
		{
			"id" "112"
			"plane" "(-4784 5824 3712) (-4912 5824 3712) (-4912 5824 3832)"
			"material" "TOOLS/TOOLSTRIGGER"
			"uaxis" "[1 0 0 30.668] 0.26087"
			"vaxis" "[0 0 -1 35.9386] 0.234848"
			"rotation" "0"
			"lightmapscale" "64"
			"smoothing_groups" "0"
		}
		editor
		{
			"color" "220 30 220"
			"visgroupshown" "1"
			"visgroupautoshown" "1"
		}
	}
	solid
	{
		"id" "13"
		side
		{
			"id" "123"
			"plane" "(-4976 6144 3712) (-4592 6144 3712) (-4592 5632 3712)"
			"material" "TOOLS/TOOLSTRIGGER"
			"uaxis" "[1 0 0 -1.33264] 0.26087"
			"vaxis" "[0 -1 0 19.4219] 0.234848"
			"rotation" "0"
			"lightmapscale" "64"
			"smoothing_groups" "0"
		}
		side
		{
			"id" "122"
			"plane" "(-4976 5632 3464) (-4592 5632 3464) (-4592 6144 3464)"
			"material" "TOOLS/TOOLSTRIGGER"
			"uaxis" "[1 0 0 -1.33264] 0.26087"
			"vaxis" "[0 1 0 -39.4102] 0.234848"
			"rotation" "0"
			"lightmapscale" "64"
			"smoothing_groups" "0"
		}
		side
		{
			"id" "121"
			"plane" "(-4976 6144 3712) (-4976 5632 3712) (-4976 5632 3464)"
			"material" "TOOLS/TOOLSTRIGGER"
			"uaxis" "[0 -1 0 17.3357] 0.26087"
			"vaxis" "[0 0 -1 35.9387] 0.234848"
			"rotation" "0"
			"lightmapscale" "64"
			"smoothing_groups" "0"
		}
		side
		{
			"id" "120"
			"plane" "(-4592 6144 3464) (-4592 5632 3464) (-4592 5632 3712)"
			"material" "TOOLS/TOOLSTRIGGER"
			"uaxis" "[0 1 0 -25.3281] 0.26087"
			"vaxis" "[0 0 -1 35.9387] 0.234848"
			"rotation" "0"
			"lightmapscale" "64"
			"smoothing_groups" "0"
		}
		side
		{
			"id" "119"
			"plane" "(-4592 6144 3712) (-4976 6144 3712) (-4976 6144 3464)"
			"material" "TOOLS/TOOLSTRIGGER"
			"uaxis" "[1 0 0 -1.33264] 0.26087"
			"vaxis" "[0 0 -1 35.9387] 0.234848"
			"rotation" "0"
			"lightmapscale" "64"
			"smoothing_groups" "0"
		}
		side
		{
			"id" "118"
			"plane" "(-4592 5632 3464) (-4976 5632 3464) (-4976 5632 3712)"
			"material" "TOOLS/TOOLSTRIGGER"
			"uaxis" "[1 0 0 -1.33264] 0.26087"
			"vaxis" "[0 0 -1 35.9387] 0.234848"
			"rotation" "0"
			"lightmapscale" "64"
			"smoothing_groups" "0"
		}
		editor
		{
			"color" "220 30 220"
			"visgroupshown" "1"
			"visgroupautoshown" "1"
		}
	}
	editor
	{
		"color" "220 30 220"
		"visgroupshown" "1"
		"visgroupautoshown" "1"
		"logicalpos" "[-11268 -9768]"
	}
}
entity
{
	"id" "15"
	"classname" "trigger_momentum_timer_stage"
	"origin" "-5232 -6992 -4560"
	"spawnflags" "1"
	"stage" "4"
	"StartDisabled" "0"
	solid
	{
		"id" "16"
		side
		{
			"id" "128"
			"plane" "(-5616 -6480 -4368) (-5456 -6480 -4368) (-5456 -6736 -4368)"
			"material" "TOOLS/TOOLSTRIGGER"
			"uaxis" "[1 0 0 -13.9989] 0.258065"
			"vaxis" "[0 -1 0 0] 0.25"
			"rotation" "0"
			"lightmapscale" "128"
			"smoothing_groups" "0"
		}
		side
		{
			"id" "127"
			"plane" "(-5456 -6480 -4752) (-5616 -6480 -4752) (-5456 -6736 -4752)"
			"material" "TOOLS/TOOLSTRIGGER"
			"uaxis" "[1 0 0 -13.9989] 0.258065"
			"vaxis" "[0 -1 0 0] 0.25"
			"rotation" "0"
			"lightmapscale" "128"
			"smoothing_groups" "0"
		}
		side
		{
			"id" "126"
			"plane" "(-5616 -6480 -4752) (-5456 -6480 -4752) (-5456 -6480 -4368)"
			"material" "TOOLS/TOOLSTRIGGER"
			"uaxis" "[1 0 0 -13.9989] 0.258065"
			"vaxis" "[0 0 -1 0] 0.25"
			"rotation" "0"
			"lightmapscale" "128"
			"smoothing_groups" "0"
		}
		side
		{
			"id" "125"
			"plane" "(-5456 -6736 -4752) (-5616 -6480 -4752) (-5616 -6480 -4368)"
			"material" "TOOLS/TOOLSTRIGGER"
			"uaxis" "[0 1 0 0] 0.25"
			"vaxis" "[0 0 -1 0] 0.25"
			"rotation" "0"
			"lightmapscale" "128"
			"smoothing_groups" "0"
		}
		side
		{
			"id" "124"
			"plane" "(-5456 -6480 -4752) (-5456 -6736 -4752) (-5456 -6736 -4368)"
			"material" "TOOLS/TOOLSTRIGGER"
			"uaxis" "[0 1 0 0] 0.25"
			"vaxis" "[0 0 -1 0] 0.25"
			"rotation" "0"
			"lightmapscale" "128"
			"smoothing_groups" "0"
		}
		editor
		{
			"color" "220 30 220"
			"visgroupshown" "1"
			"visgroupautoshown" "1"
		}
	}
	solid
	{
		"id" "17"
		side
		{
			"id" "134"
			"plane" "(-5456 -6480 -4368) (-4720 -6480 -4368) (-4720 -7504 -4368)"
			"material" "TOOLS/TOOLSTRIGGER"
			"uaxis" "[1 0 0 0] 0.25"
			"vaxis" "[0 -1 0 0] 0.25"
			"rotation" "0"
			"lightmapscale" "128"
			"smoothing_groups" "0"
		}
		side
		{
			"id" "133"
			"plane" "(-5456 -7504 -4752) (-4720 -7504 -4752) (-4720 -6480 -4752)"
			"material" "TOOLS/TOOLSTRIGGER"
			"uaxis" "[1 0 0 0] 0.25"
			"vaxis" "[0 -1 0 0] 0.25"
			"rotation" "0"
			"lightmapscale" "128"
			"smoothing_groups" "0"
		}
		side
		{
			"id" "132"
			"plane" "(-5456 -6480 -4368) (-5456 -7504 -4368) (-5456 -7504 -4752)"
			"material" "TOOLS/TOOLSTRIGGER"
			"uaxis" "[0 1 0 0] 0.25"
			"vaxis" "[0 0 -1 0] 0.25"
			"rotation" "0"
			"lightmapscale" "128"
			"smoothing_groups" "0"
		}
		side
		{
			"id" "131"
			"plane" "(-4720 -6480 -4752) (-4720 -7504 -4752) (-4720 -7504 -4368)"
			"material" "TOOLS/TOOLSTRIGGER"
			"uaxis" "[0 1 0 0] 0.25"
			"vaxis" "[0 0 -1 0] 0.25"
			"rotation" "0"
			"lightmapscale" "128"
			"smoothing_groups" "0"
		}
		side
		{
			"id" "130"
			"plane" "(-4720 -6480 -4368) (-5456 -6480 -4368) (-5456 -6480 -4752)"
			"material" "TOOLS/TOOLSTRIGGER"
			"uaxis" "[1 0 0 0] 0.25"
			"vaxis" "[0 0 -1 0] 0.25"
			"rotation" "0"
			"lightmapscale" "128"
			"smoothing_groups" "0"
		}
		side
		{
			"id" "129"
			"plane" "(-4720 -7504 -4752) (-5456 -7504 -4752) (-5456 -7504 -4368)"
			"material" "TOOLS/TOOLSTRIGGER"
			"uaxis" "[1 0 0 0] 0.25"
			"vaxis" "[0 0 -1 0] 0.25"
			"rotation" "0"
			"lightmapscale" "128"
			"smoothing_groups" "0"
		}
		editor
		{
			"color" "220 30 220"
			"visgroupshown" "1"
			"visgroupautoshown" "1"
		}
	}
	solid
	{
		"id" "18"
		side
		{
			"id" "139"
			"plane" "(-5456 -7248 -4368) (-5744 -6992 -4368) (-5456 -6736 -4368)"
			"material" "TOOLS/TOOLSTRIGGER"
			"uaxis" "[1 0 0 -13.9989] 0.258065"
			"vaxis" "[0 -1 0 0] 0.25"
			"rotation" "0"
			"lightmapscale" "128"
			"smoothing_groups" "0"
		}
		side
		{
			"id" "138"
			"plane" "(-5456 -6736 -4752) (-5744 -6992 -4752) (-5456 -7248 -4752)"
			"material" "TOOLS/TOOLSTRIGGER"
			"uaxis" "[1 0 0 -13.9989] 0.258065"
			"vaxis" "[0 -1 0 0] 0.25"
			"rotation" "0"
			"lightmapscale" "128"
			"smoothing_groups" "0"
		}
		side
		{
			"id" "137"
			"plane" "(-5744 -6992 -4752) (-5456 -6736 -4752) (-5456 -6736 -4368)"
			"material" "TOOLS/TOOLSTRIGGER"
			"uaxis" "[1 0 0 0] 0.25"
			"vaxis" "[0 0 -1 0] 0.25"
			"rotation" "0"
			"lightmapscale" "128"
			"smoothing_groups" "0"
		}
		side
		{
			"id" "136"
			"plane" "(-5456 -7248 -4752) (-5744 -6992 -4752) (-5744 -6992 -4368)"
			"material" "TOOLS/TOOLSTRIGGER"
			"uaxis" "[1 0 0 0] 0.25"
			"vaxis" "[0 0 -1 0] 0.25"
			"rotation" "0"
			"lightmapscale" "128"
			"smoothing_groups" "0"
		}
		side
		{
			"id" "135"
			"plane" "(-5456 -6736 -4752) (-5456 -7248 -4752) (-5456 -7248 -4368)"
			"material" "TOOLS/TOOLSTRIGGER"
			"uaxis" "[0 1 0 0] 0.25"
			"vaxis" "[0 0 -1 0] 0.25"
			"rotation" "0"
			"lightmapscale" "128"
			"smoothing_groups" "0"
		}
		editor
		{
			"color" "220 30 220"
			"visgroupshown" "1"
			"visgroupautoshown" "1"
		}
	}
	solid
	{
		"id" "19"
		side
		{
			"id" "144"
			"plane" "(-5456 -7504 -4368) (-5616 -7504 -4368) (-5456 -7248 -4368)"
			"material" "TOOLS/TOOLSTRIGGER"
			"uaxis" "[1 0 0 -13.9989] 0.258065"
			"vaxis" "[0 -1 0 0] 0.25"
			"rotation" "0"
			"lightmapscale" "128"
			"smoothing_groups" "0"
		}
		side
		{
			"id" "143"
			"plane" "(-5616 -7504 -4752) (-5456 -7504 -4752) (-5456 -7248 -4752)"
			"material" "TOOLS/TOOLSTRIGGER"
			"uaxis" "[1 0 0 -13.9989] 0.258065"
			"vaxis" "[0 -1 0 0] 0.25"
			"rotation" "0"
			"lightmapscale" "128"
			"smoothing_groups" "0"
		}
		side
		{
			"id" "142"
			"plane" "(-5456 -7504 -4752) (-5616 -7504 -4752) (-5616 -7504 -4368)"
			"material" "TOOLS/TOOLSTRIGGER"
			"uaxis" "[1 0 0 -13.9989] 0.258065"
			"vaxis" "[0 0 -1 0] 0.25"
			"rotation" "0"
			"lightmapscale" "128"
			"smoothing_groups" "0"
		}
		side
		{
			"id" "141"
			"plane" "(-5616 -7504 -4752) (-5456 -7248 -4752) (-5456 -7248 -4368)"
			"material" "TOOLS/TOOLSTRIGGER"
			"uaxis" "[0 1 0 0] 0.25"
			"vaxis" "[0 0 -1 0] 0.25"
			"rotation" "0"
			"lightmapscale" "128"
			"smoothing_groups" "0"
		}
		side
		{
			"id" "140"
			"plane" "(-5456 -7248 -4752) (-5456 -7504 -4752) (-5456 -7504 -4368)"
			"material" "TOOLS/TOOLSTRIGGER"
			"uaxis" "[0 1 0 0] 0.25"
			"vaxis" "[0 0 -1 0] 0.25"
			"rotation" "0"
			"lightmapscale" "128"
			"smoothing_groups" "0"
		}
		editor
		{
			"color" "220 30 220"
			"visgroupshown" "1"
			"visgroupautoshown" "1"
		}
	}
	editor
	{
		"color" "220 30 220"
		"visgroupshown" "1"
		"visgroupautoshown" "1"
		"logicalpos" "[-11268 15000]"
	}
}
entity
{
	"id" "21"
	"classname" "trigger_momentum_timer_stage"
	"origin" "9512 13648 12296"
	"spawnflags" "1"
	"stage" "2"
	"StartDisabled" "0"
	solid
	{
		"id" "22"
		side
		{
			"id" "150"
			"plane" "(8872 13904 12528) (10152 13904 12528) (10152 13392 12528)"
			"material" "TOOLS/TOOLSTRIGGER"
			"uaxis" "[1 0 0 0] 0.25"
			"vaxis" "[0 -1 0 0] 0.25"
			"rotation" "0"
			"lightmapscale" "128"
			"smoothing_groups" "0"
		}
		side
		{
			"id" "149"
			"plane" "(8872 13392 12064) (10152 13392 12064) (10152 13904 12064)"
			"material" "TOOLS/TOOLSTRIGGER"
			"uaxis" "[1 0 0 0] 0.25"
			"vaxis" "[0 -1 0 0] 0.25"
			"rotation" "0"
			"lightmapscale" "128"
			"smoothing_groups" "0"
		}
		side
		{
			"id" "148"
			"plane" "(8872 13904 12528) (8872 13392 12528) (8872 13392 12064)"
			"material" "TOOLS/TOOLSTRIGGER"
			"uaxis" "[0 1 0 0] 0.25"
			"vaxis" "[0 0 -1 0] 0.25"
			"rotation" "0"
			"lightmapscale" "128"
			"smoothing_groups" "0"
		}
		side
		{
			"id" "147"
			"plane" "(10152 13904 12064) (10152 13392 12064) (10152 13392 12528)"
			"material" "TOOLS/TOOLSTRIGGER"
			"uaxis" "[0 1 0 0] 0.25"
			"vaxis" "[0 0 -1 0] 0.25"
			"rotation" "0"
			"lightmapscale" "128"
			"smoothing_groups" "0"
		}
		side
		{
			"id" "146"
			"plane" "(10152 13904 12528) (8872 13904 12528) (8872 13904 12064)"
			"material" "TOOLS/TOOLSTRIGGER"
			"uaxis" "[1 0 0 0] 0.25"
			"vaxis" "[0 0 -1 0] 0.25"
			"rotation" "0"
			"lightmapscale" "128"
			"smoothing_groups" "0"
		}
		side
		{
			"id" "145"
			"plane" "(10152 13392 12064) (8872 13392 12064) (8872 13392 12528)"
			"material" "TOOLS/TOOLSTRIGGER"
			"uaxis" "[1 0 0 0] 0.25"
			"vaxis" "[0 0 -1 0] 0.25"
			"rotation" "0"
			"lightmapscale" "128"
			"smoothing_groups" "0"
		}
		editor
		{
			"color" "220 30 220"
			"visgroupshown" "1"
			"visgroupautoshown" "1"
		}
	}
	editor
	{
		"color" "220 30 220"
		"visgroupshown" "1"
		"visgroupautoshown" "1"
		"logicalpos" "[-11768 -2768]"
	}
}
entity
{
	"id" "24"
	"classname" "trigger_momentum_timer_start"
	"bhopleavespeed" "350"
	"LimitSpeedType" "0"
	"lookangles" "0 0 0"
	"origin" "1920 10432 -5988"
	"spawnflags" "8193"
	"StartDisabled" "0"
	"StartOnJump" "1"
	"ZoneNumber" "0"
	solid
	{
		"id" "25"
		side
		{
			"id" "156"
			"plane" "(768 10688 -5760) (3072 10688 -5760) (3072 10176 -5760)"
			"material" "TOOLS/TOOLSTRIGGER"
			"uaxis" "[1 0 0 0] 0.25"
			"vaxis" "[0 -1 0 0] 0.25"
			"rotation" "0"
			"lightmapscale" "128"
			"smoothing_groups" "0"
		}
		side
		{
			"id" "155"
			"plane" "(768 10176 -6216) (3072 10176 -6216) (3072 10688 -6216)"
			"material" "TOOLS/TOOLSTRIGGER"
			"uaxis" "[1 0 0 0] 0.25"
			"vaxis" "[0 -1 0 0] 0.25"
			"rotation" "0"
			"lightmapscale" "128"
			"smoothing_groups" "0"
		}
		side
		{
			"id" "154"
			"plane" "(768 10688 -5760) (768 10176 -5760) (768 10176 -6216)"
			"material" "TOOLS/TOOLSTRIGGER"
			"uaxis" "[0 1 0 0] 0.25"
			"vaxis" "[0 0 -1 -43.788] 0.254464"
			"rotation" "0"
			"lightmapscale" "128"
			"smoothing_groups" "0"
		}
		side
		{
			"id" "153"
			"plane" "(3072 10688 -6216) (3072 10176 -6216) (3072 10176 -5760)"
			"material" "TOOLS/TOOLSTRIGGER"
			"uaxis" "[0 1 0 0] 0.25"
			"vaxis" "[0 0 -1 -43.788] 0.254464"
			"rotation" "0"
			"lightmapscale" "128"
			"smoothing_groups" "0"
		}
		side
		{
			"id" "152"
			"plane" "(3072 10688 -5760) (768 10688 -5760) (768 10688 -6216)"
			"material" "TOOLS/TOOLSTRIGGER"
			"uaxis" "[1 0 0 0] 0.25"
			"vaxis" "[0 0 -1 -43.788] 0.254464"
			"rotation" "0"
			"lightmapscale" "128"
			"smoothing_groups" "0"
		}
		side
		{
			"id" "151"
			"plane" "(3072 10176 -6216) (768 10176 -6216) (768 10176 -5760)"
			"material" "TOOLS/TOOLSTRIGGER"
			"uaxis" "[1 0 0 0] 0.25"
			"vaxis" "[0 0 -1 -43.788] 0.254464"
			"rotation" "0"
			"lightmapscale" "128"
			"smoothing_groups" "0"
		}
		editor
		{
			"color" "220 30 220"
			"visgroupshown" "1"
			"visgroupautoshown" "1"
		}
	}
	editor
	{
		"color" "220 30 220"
		"visgroupshown" "1"
		"visgroupautoshown" "1"
		"logicalpos" "[-11768 -3768]"
	}
}
entity
{
	"id" "27"
	"classname" "trigger_momentum_timer_stop"
	"origin" "-14080 5888 -960"
	"spawnflags" "1"
	"StartDisabled" "0"
	"ZoneNumber" "0"
	solid
	{
		"id" "28"
		side
		{
			"id" "162"
			"plane" "(-14592 6784 -832) (-13568 6784 -832) (-13568 4992 -832)"
			"material" "TOOLS/TOOLSTRIGGER"
			"uaxis" "[1 0 0 0] 0.25"
			"vaxis" "[0 -1 0 0] 0.25"
			"rotation" "0"
			"lightmapscale" "128"
			"smoothing_groups" "0"
		}
		side
		{
			"id" "161"
			"plane" "(-14592 4992 -1088) (-13568 4992 -1088) (-13568 6784 -1088)"
			"material" "TOOLS/TOOLSTRIGGER"
			"uaxis" "[1 0 0 0] 0.25"
			"vaxis" "[0 -1 0 0] 0.25"
			"rotation" "0"
			"lightmapscale" "128"
			"smoothing_groups" "0"
		}
		side
		{
			"id" "160"
			"plane" "(-14592 6784 -832) (-14592 4992 -832) (-14592 4992 -1088)"
			"material" "TOOLS/TOOLSTRIGGER"
			"uaxis" "[0 1 0 0] 0.25"
			"vaxis" "[0 0 -1 0] 0.125"
			"rotation" "0"
			"lightmapscale" "128"
			"smoothing_groups" "0"
		}
		side
		{
			"id" "159"
			"plane" "(-13568 6784 -1088) (-13568 4992 -1088) (-13568 4992 -832)"
			"material" "TOOLS/TOOLSTRIGGER"
			"uaxis" "[0 1 0 0] 0.25"
			"vaxis" "[0 0 -1 0] 0.125"
			"rotation" "0"
			"lightmapscale" "128"
			"smoothing_groups" "0"
		}
		side
		{
			"id" "158"
			"plane" "(-13568 6784 -832) (-14592 6784 -832) (-14592 6784 -1088)"
			"material" "TOOLS/TOOLSTRIGGER"
			"uaxis" "[1 0 0 0] 0.25"
			"vaxis" "[0 0 -1 0] 0.125"
			"rotation" "0"
			"lightmapscale" "128"
			"smoothing_groups" "0"
		}
		side
		{
			"id" "157"
			"plane" "(-13568 4992 -1088) (-14592 4992 -1088) (-14592 4992 -832)"
			"material" "TOOLS/TOOLSTRIGGER"
			"uaxis" "[1 0 0 0] 0.25"
			"vaxis" "[0 0 -1 0] 0.125"
			"rotation" "0"
			"lightmapscale" "128"
			"smoothing_groups" "0"
		}
		editor
		{
			"color" "220 30 220"
			"visgroupshown" "1"
			"visgroupautoshown" "1"
		}
	}
	editor
	{
		"color" "220 30 220"
		"visgroupshown" "1"
		"visgroupautoshown" "1"
		"logicalpos" "[-11268 -8768]"
	}
}
cameras
{
	"activecamera" "-1"
}
cordon
{
	"mins" "(-1024 -1024 -1024)"
	"maxs" "(1024 1024 1024)"
	"active" "0"
}
