versioninfo
{
	"editorversion" "400"
	"editorbuild" "7538"
	"mapversion" "1"
	"formatversion" "100"
	"prefab" "0"
}
visgroups
{
}
viewsettings
{
	"bSnapToGrid" "1"
	"bShowGrid" "1"
	"bShowLogicalGrid" "0"
	"nGridSpacing" "64"
	"bShow3DGrid" "0"
}
world
{
	"id" "1"
	"mapversion" "1"
	"classname" "worldspawn"
	"skyname" "sky_day01_01"
	"maxpropscreenwidth" "-1"
	"detailvbsp" "detail.vbsp"
	"detailmaterial" "detail/detailsprites"
}
entity
{
	"id" "2"
	"classname" "trigger_momentum_timer_stage"
	"origin" "11312 -6488 -912"
	"spawnflags" "1"
	"stage" "3"
	"StartDisabled" "0"
	solid
	{
		"id" "3"
		side
		{
			"id" "1"
			"plane" "(11056 -5720 -800) (11568 -5720 -800) (11568 -7256 -800)"
			"material" "TOOLS/TOOLSTRIGGER"
			"uaxis" "[1 0 0 0] 0.25"
			"vaxis" "[0 -1 0 0] 0.25"
			"rotation" "0"
			"lightmapscale" "128"
			"smoothing_groups" "0"
		}
		side
		{
			"id" "2"
			"plane" "(11056 -7256 -1024) (11568 -7256 -1024) (11568 -5720 -1024)"
			"material" "TOOLS/TOOLSTRIGGER"
			"uaxis" "[1 0 0 0] 0.25"
			"vaxis" "[0 -1 0 0] 0.25"
			"rotation" "0"
			"lightmapscale" "128"
			"smoothing_groups" "0"
		}
		side
		{
			"id" "3"
			"plane" "(11056 -5720 -800) (11056 -7256 -800) (11056 -7256 -1024)"
			"material" "TOOLS/TOOLSTRIGGER"
			"uaxis" "[0 1 0 0] 0.25"
			"vaxis" "[0 0 -1 0] 0.25"
			"rotation" "0"
			"lightmapscale" "128"
			"smoothing_groups" "0"
		}
		side
		{
			"id" "4"
			"plane" "(11568 -5720 -1024) (11568 -7256 -1024) (11568 -7256 -800)"
			"material" "TOOLS/TOOLSTRIGGER"
			"uaxis" "[0 1 0 0] 0.25"
			"vaxis" "[0 0 -1 0] 0.25"
			"rotation" "0"
			"lightmapscale" "128"
			"smoothing_groups" "0"
		}
		side
		{
			"id" "5"
			"plane" "(11568 -5720 -800) (11056 -5720 -800) (11056 -5720 -1024)"
			"material" "TOOLS/TOOLSTRIGGER"
			"uaxis" "[1 0 0 0] 0.25"
			"vaxis" "[0 0 -1 0] 0.25"
			"rotation" "0"
			"lightmapscale" "128"
			"smoothing_groups" "0"
		}
		side
		{
			"id" "6"
			"plane" "(11568 -7256 -1024) (11056 -7256 -1024) (11056 -7256 -800)"
			"material" "TOOLS/TOOLSTRIGGER"
			"uaxis" "[1 0 0 0] 0.25"
			"vaxis" "[0 0 -1 0] 0.25"
			"rotation" "0"
			"lightmapscale" "128"
			"smoothing_groups" "0"
		}
		editor
		{
			"color" "220 30 220"
			"visgroupshown" "1"
			"visgroupautoshown" "1"
		}
	}
	editor
	{
		"color" "220 30 220"
		"visgroupshown" "1"
		"visgroupautoshown" "1"
		"logicalpos" "[6500 -14768]"
	}
}
entity
{
	"id" "5"
	"classname" "trigger_momentum_timer_stage"
	"origin" "4536 -2168 1096"
	"spawnflags" "1"
	"stage" "4"
	"StartDisabled" "0"
	solid
	{
		"id" "6"
		side
		{
			"id" "83"
			"plane" "(4056 -1688 1248) (5016 -1688 1248) (5016 -2648 1248)"
			"material" "TOOLS/TOOLSTRIGGER"
			"uaxis" "[1 0 0 0] 0.25"
			"vaxis" "[0 -1 0 0] 0.25"
			"rotation" "0"
			"lightmapscale" "128"
			"smoothing_groups" "0"
		}
		side
		{
			"id" "82"
			"plane" "(4056 -2648 944) (5016 -2648 944) (5016 -1688 944)"
			"material" "TOOLS/TOOLSTRIGGER"
			"uaxis" "[1 0 0 0] 0.25"
			"vaxis" "[0 -1 0 0] 0.25"
			"rotation" "0"
			"lightmapscale" "128"
			"smoothing_groups" "0"
		}
		side
		{
			"id" "81"
			"plane" "(4056 -1688 1248) (4056 -2648 1248) (4056 -2648 944)"
			"material" "TOOLS/TOOLSTRIGGER"
			"uaxis" "[0 1 0 0] 0.25"
			"vaxis" "[0 0 -1 0] 0.25"
			"rotation" "0"
			"lightmapscale" "128"
			"smoothing_groups" "0"
		}
		side
		{
			"id" "80"
			"plane" "(5016 -1688 944) (5016 -2648 944) (5016 -2648 1248)"
			"material" "TOOLS/TOOLSTRIGGER"
			"uaxis" "[0 1 0 0] 0.25"
			"vaxis" "[0 0 -1 0] 0.25"
			"rotation" "0"
			"lightmapscale" "128"
			"smoothing_groups" "0"
		}
		side
		{
			"id" "79"
			"plane" "(5016 -1688 1248) (4056 -1688 1248) (4056 -1688 944)"
			"material" "TOOLS/TOOLSTRIGGER"
			"uaxis" "[1 0 0 0] 0.25"
			"vaxis" "[0 0 -1 0] 0.25"
			"rotation" "0"
			"lightmapscale" "128"
			"smoothing_groups" "0"
		}
		side
		{
			"id" "78"
			"plane" "(5016 -2648 944) (4056 -2648 944) (4056 -2648 1248)"
			"material" "TOOLS/TOOLSTRIGGER"
			"uaxis" "[1 0 0 0] 0.25"
			"vaxis" "[0 0 -1 0] 0.25"
			"rotation" "0"
			"lightmapscale" "128"
			"smoothing_groups" "0"
		}
		editor
		{
			"color" "220 30 220"
			"visgroupshown" "1"
			"visgroupautoshown" "1"
		}
	}
	editor
	{
		"color" "220 30 220"
		"visgroupshown" "1"
		"visgroupautoshown" "1"
		"logicalpos" "[6500 -13768]"
	}
}
entity
{
	"id" "8"
	"classname" "trigger_momentum_timer_stage"
	"origin" "2480 -13208 6312"
	"spawnflags" "1"
	"stage" "2"
	"StartDisabled" "0"
	solid
	{
		"id" "9"
		side
		{
			"id" "89"
			"plane" "(2080 -12344 6416) (2880 -12344 6416) (2880 -14072 6416)"
			"material" "TOOLS/TOOLSTRIGGER"
			"uaxis" "[1 0 0 0] 0.25"
			"vaxis" "[0 -1 0 0] 0.25"
			"rotation" "0"
			"lightmapscale" "128"
			"smoothing_groups" "0"
		}
		side
		{
			"id" "88"
			"plane" "(2080 -14072 6208) (2880 -14072 6208) (2880 -12344 6208)"
			"material" "TOOLS/TOOLSTRIGGER"
			"uaxis" "[1 0 0 0] 0.25"
			"vaxis" "[0 -1 0 0] 0.25"
			"rotation" "0"
			"lightmapscale" "128"
			"smoothing_groups" "0"
		}
		side
		{
			"id" "87"
			"plane" "(2080 -12344 6416) (2080 -14072 6416) (2080 -14072 6208)"
			"material" "TOOLS/TOOLSTRIGGER"
			"uaxis" "[0 1 0 0] 0.25"
			"vaxis" "[0 0 -1 0] 0.25"
			"rotation" "0"
			"lightmapscale" "128"
			"smoothing_groups" "0"
		}
		side
		{
			"id" "86"
			"plane" "(2880 -12344 6208) (2880 -14072 6208) (2880 -14072 6416)"
			"material" "TOOLS/TOOLSTRIGGER"
			"uaxis" "[0 1 0 0] 0.25"
			"vaxis" "[0 0 -1 0] 0.25"
			"rotation" "0"
			"lightmapscale" "128"
			"smoothing_groups" "0"
		}
		side
		{
			"id" "85"
			"plane" "(2880 -12344 6416) (2080 -12344 6416) (2080 -12344 6208)"
			"material" "TOOLS/TOOLSTRIGGER"
			"uaxis" "[1 0 0 0] 0.25"
			"vaxis" "[0 0 -1 0] 0.25"
			"rotation" "0"
			"lightmapscale" "128"
			"smoothing_groups" "0"
		}
		side
		{
			"id" "84"
			"plane" "(2880 -14072 6208) (2080 -14072 6208) (2080 -14072 6416)"
			"material" "TOOLS/TOOLSTRIGGER"
			"uaxis" "[1 0 0 0] 0.25"
			"vaxis" "[0 0 -1 0] 0.25"
			"rotation" "0"
			"lightmapscale" "128"
			"smoothing_groups" "0"
		}
		editor
		{
			"color" "220 30 220"
			"visgroupshown" "1"
			"visgroupautoshown" "1"
		}
	}
	editor
	{
		"color" "220 30 220"
		"visgroupshown" "1"
		"visgroupautoshown" "1"
		"logicalpos" "[6500 -15768]"
	}
}
entity
{
	"id" "11"
	"classname" "trigger_momentum_timer_start"
	"bhopleavespeed" "350"
	"LimitSpeedType" "0"
	"lookangles" "0 0 0"
	"origin" "10440 352 308"
	"spawnflags" "8193"
	"StartDisabled" "0"
	"StartOnJump" "1"
	"ZoneNumber" "2"
	solid
	{
		"id" "12"
		side
		{
			"id" "95"
			"plane" "(10248 496 400) (10632 496 400) (10632 208 400)"
			"material" "TOOLS/TOOLSTRIGGER"
			"uaxis" "[1 0 0 0] 0.25"
			"vaxis" "[0 -1 0 0] 0.25"
			"rotation" "0"
			"lightmapscale" "128"
			"smoothing_groups" "0"
		}
		side
		{
			"id" "94"
			"plane" "(10248 208 216) (10632 208 216) (10632 496 216)"
			"material" "TOOLS/TOOLSTRIGGER"
			"uaxis" "[1 0 0 0] 0.25"
			"vaxis" "[0 -1 0 0] 0.25"
			"rotation" "0"
			"lightmapscale" "128"
			"smoothing_groups" "0"
		}
		side
		{
			"id" "93"
			"plane" "(10248 496 400) (10248 208 400) (10248 208 216)"
			"material" "TOOLS/TOOLSTRIGGER"
			"uaxis" "[0 1 0 0] 0.25"
			"vaxis" "[0 0 -1 0] 0.25"
			"rotation" "0"
			"lightmapscale" "128"
			"smoothing_groups" "0"
		}
		side
		{
			"id" "92"
			"plane" "(10632 496 216) (10632 208 216) (10632 208 400)"
			"material" "TOOLS/TOOLSTRIGGER"
			"uaxis" "[0 1 0 0] 0.25"
			"vaxis" "[0 0 -1 0] 0.25"
			"rotation" "0"
			"lightmapscale" "128"
			"smoothing_groups" "0"
		}
		side
		{
			"id" "91"
			"plane" "(10632 496 400) (10248 496 400) (10248 496 216)"
			"material" "TOOLS/TOOLSTRIGGER"
			"uaxis" "[1 0 0 0] 0.25"
			"vaxis" "[0 0 -1 0] 0.25"
			"rotation" "0"
			"lightmapscale" "128"
			"smoothing_groups" "0"
		}
		side
		{
			"id" "90"
			"plane" "(10632 208 216) (10248 208 216) (10248 208 400)"
			"material" "TOOLS/TOOLSTRIGGER"
			"uaxis" "[1 0 0 0] 0.25"
			"vaxis" "[0 0 -1 0] 0.25"
			"rotation" "0"
			"lightmapscale" "128"
			"smoothing_groups" "0"
		}
		editor
		{
			"color" "220 30 220"
			"visgroupshown" "1"
			"visgroupautoshown" "1"
		}
	}
	editor
	{
		"color" "220 30 220"
		"visgroupshown" "1"
		"visgroupautoshown" "1"
		"logicalpos" "[6500 -6768]"
	}
}
entity
{
	"id" "14"
	"classname" "trigger_momentum_timer_start"
	"bhopleavespeed" "350"
	"LimitSpeedType" "0"
	"lookangles" "0 0 0"
	"origin" "-3720 7520 2344"
	"spawnflags" "8193"
	"StartDisabled" "0"
	"StartOnJump" "1"
	"ZoneNumber" "3"
	solid
	{
		"id" "15"
		side
		{
			"id" "101"
			"plane" "(-4072 8032 2520) (-3368 8032 2520) (-3368 7008 2520)"
			"material" "TOOLS/TOOLSTRIGGER"
			"uaxis" "[1 0 0 0] 0.25"
			"vaxis" "[0 -1 0 0] 0.25"
			"rotation" "0"
			"lightmapscale" "128"
			"smoothing_groups" "0"
		}
		side
		{
			"id" "100"
			"plane" "(-4072 7008 2168) (-3368 7008 2168) (-3368 8032 2168)"
			"material" "TOOLS/TOOLSTRIGGER"
			"uaxis" "[1 0 0 0] 0.25"
			"vaxis" "[0 -1 0 0] 0.25"
			"rotation" "0"
			"lightmapscale" "128"
			"smoothing_groups" "0"
		}
		side
		{
			"id" "99"
			"plane" "(-4072 8032 2520) (-4072 7008 2520) (-4072 7008 2168)"
			"material" "TOOLS/TOOLSTRIGGER"
			"uaxis" "[0 1 0 0] 0.25"
			"vaxis" "[0 0 -1 -15.2732] 0.268293"
			"rotation" "0"
			"lightmapscale" "128"
			"smoothing_groups" "0"
		}
		side
		{
			"id" "98"
			"plane" "(-3368 8032 2168) (-3368 7008 2168) (-3368 7008 2520)"
			"material" "TOOLS/TOOLSTRIGGER"
			"uaxis" "[0 1 0 0] 0.25"
			"vaxis" "[0 0 -1 -15.2732] 0.268293"
			"rotation" "0"
			"lightmapscale" "128"
			"smoothing_groups" "0"
		}
		side
		{
			"id" "97"
			"plane" "(-3368 8032 2520) (-4072 8032 2520) (-4072 8032 2168)"
			"material" "TOOLS/TOOLSTRIGGER"
			"uaxis" "[1 0 0 0] 0.25"
			"vaxis" "[0 0 -1 -15.2732] 0.268293"
			"rotation" "0"
			"lightmapscale" "128"
			"smoothing_groups" "0"
		}
		side
		{
			"id" "96"
			"plane" "(-3368 7008 2168) (-4072 7008 2168) (-4072 7008 2520)"
			"material" "TOOLS/TOOLSTRIGGER"
			"uaxis" "[1 0 0 0] 0.25"
			"vaxis" "[0 0 -1 -15.2732] 0.268293"
			"rotation" "0"
			"lightmapscale" "128"
			"smoothing_groups" "0"
		}
		editor
		{
			"color" "220 30 220"
			"visgroupshown" "1"
			"visgroupautoshown" "1"
		}
	}
	editor
	{
		"color" "220 30 220"
		"visgroupshown" "1"
		"visgroupautoshown" "1"
		"logicalpos" "[6500 -3768]"
	}
}
entity
{
	"id" "17"
	"classname" "trigger_momentum_timer_start"
	"bhopleavespeed" "350"
	"LimitSpeedType" "0"
	"lookangles" "0 0 0"
	"origin" "-3200 -10200 3520"
	"spawnflags" "8193"
	"StartDisabled" "0"
	"StartOnJump" "1"
	"ZoneNumber" "1"
	solid
	{
		"id" "18"
		side
		{
			"id" "107"
			"plane" "(-3584 -8920 3712) (-2816 -8920 3712) (-2816 -11480 3712)"
			"material" "TOOLS/TOOLSTRIGGER"
			"uaxis" "[1 0 0 0] 0.25"
			"vaxis" "[0 -1 0 0] 0.25"
			"rotation" "0"
			"lightmapscale" "128"
			"smoothing_groups" "0"
		}
		side
		{
			"id" "106"
			"plane" "(-3584 -11480 3328) (-2816 -11480 3328) (-2816 -8920 3328)"
			"material" "TOOLS/TOOLSTRIGGER"
			"uaxis" "[1 0 0 0] 0.25"
			"vaxis" "[0 -1 0 0] 0.25"
			"rotation" "0"
			"lightmapscale" "128"
			"smoothing_groups" "0"
		}
		side
		{
			"id" "105"
			"plane" "(-3584 -8920 3712) (-3584 -11480 3712) (-3584 -11480 3328)"
			"material" "TOOLS/TOOLSTRIGGER"
			"uaxis" "[0 1 0 0] 0.25"
			"vaxis" "[0 0 -1 0] 0.25"
			"rotation" "0"
			"lightmapscale" "128"
			"smoothing_groups" "0"
		}
		side
		{
			"id" "104"
			"plane" "(-2816 -8920 3328) (-2816 -11480 3328) (-2816 -11480 3712)"
			"material" "TOOLS/TOOLSTRIGGER"
			"uaxis" "[0 1 0 0] 0.25"
			"vaxis" "[0 0 -1 0] 0.25"
			"rotation" "0"
			"lightmapscale" "128"
			"smoothing_groups" "0"
		}
		side
		{
			"id" "103"
			"plane" "(-2816 -8920 3712) (-3584 -8920 3712) (-3584 -8920 3328)"
			"material" "TOOLS/TOOLSTRIGGER"
			"uaxis" "[1 0 0 0] 0.25"
			"vaxis" "[0 0 -1 0] 0.25"
			"rotation" "0"
			"lightmapscale" "128"
			"smoothing_groups" "0"
		}
		side
		{
			"id" "102"
			"plane" "(-2816 -11480 3328) (-3584 -11480 3328) (-3584 -11480 3712)"
			"material" "TOOLS/TOOLSTRIGGER"
			"uaxis" "[1 0 0 0] 0.25"
			"vaxis" "[0 0 -1 0] 0.25"
			"rotation" "0"
			"lightmapscale" "128"
			"smoothing_groups" "0"
		}
		editor
		{
			"color" "220 30 220"
			"visgroupshown" "1"
			"visgroupautoshown" "1"
		}
	}
	editor
	{
		"color" "220 30 220"
		"visgroupshown" "1"
		"visgroupautoshown" "1"
		"logicalpos" "[6500 -11268]"
	}
}
entity
{
	"id" "20"
	"classname" "trigger_momentum_timer_start"
	"bhopleavespeed" "350"
	"LimitSpeedType" "0"
	"lookangles" "0 0 0"
	"origin" "832 -8712 2448"
	"spawnflags" "8193"
	"StartDisabled" "0"
	"StartOnJump" "1"
	"ZoneNumber" "0"
	solid
	{
		"id" "21"
		side
		{
			"id" "113"
			"plane" "(592 -7560 2560) (1072 -7560 2560) (1072 -9864 2560)"
			"material" "TOOLS/TOOLSTRIGGER"
			"uaxis" "[1 0 0 0] 0.25"
			"vaxis" "[0 -1 0 0] 0.25"
			"rotation" "0"
			"lightmapscale" "128"
			"smoothing_groups" "0"
		}
		side
		{
			"id" "112"
			"plane" "(592 -9864 2336) (1072 -9864 2336) (1072 -7560 2336)"
			"material" "TOOLS/TOOLSTRIGGER"
			"uaxis" "[1 0 0 0] 0.25"
			"vaxis" "[0 -1 0 0] 0.25"
			"rotation" "0"
			"lightmapscale" "128"
			"smoothing_groups" "0"
		}
		side
		{
			"id" "111"
			"plane" "(592 -7560 2560) (592 -9864 2560) (592 -9864 2336)"
			"material" "TOOLS/TOOLSTRIGGER"
			"uaxis" "[0 1 0 0] 0.25"
			"vaxis" "[0 0 -1 0] 0.25"
			"rotation" "0"
			"lightmapscale" "128"
			"smoothing_groups" "0"
		}
		side
		{
			"id" "110"
			"plane" "(1072 -7560 2336) (1072 -9864 2336) (1072 -9864 2560)"
			"material" "TOOLS/TOOLSTRIGGER"
			"uaxis" "[0 1 0 0] 0.25"
			"vaxis" "[0 0 -1 0] 0.25"
			"rotation" "0"
			"lightmapscale" "128"
			"smoothing_groups" "0"
		}
		side
		{
			"id" "109"
			"plane" "(1072 -7560 2560) (592 -7560 2560) (592 -7560 2336)"
			"material" "TOOLS/TOOLSTRIGGER"
			"uaxis" "[1 0 0 0] 0.25"
			"vaxis" "[0 0 -1 0] 0.25"
			"rotation" "0"
			"lightmapscale" "128"
			"smoothing_groups" "0"
		}
		side
		{
			"id" "108"
			"plane" "(1072 -9864 2336) (592 -9864 2336) (592 -9864 2560)"
			"material" "TOOLS/TOOLSTRIGGER"
			"uaxis" "[1 0 0 0] 0.25"
			"vaxis" "[0 0 -1 0] 0.25"
			"rotation" "0"
			"lightmapscale" "128"
			"smoothing_groups" "0"
		}
		editor
		{
			"color" "220 30 220"
			"visgroupshown" "1"
			"visgroupautoshown" "1"
		}
	}
	editor
	{
		"color" "220 30 220"
		"visgroupshown" "1"
		"visgroupautoshown" "1"
		"logicalpos" "[6500 16000]"
	}
}
entity
{
	"id" "23"
	"classname" "trigger_momentum_timer_stop"
	"origin" "-11592 7520 -180"
	"spawnflags" "1"
	"StartDisabled" "0"
	"ZoneNumber" "3"
	solid
	{
		"id" "24"
		side
		{
			"id" "119"
			"plane" "(-12008 1760 96) (-11176 1760 96) (-11176 -672 96)"
			"material" "TOOLS/TOOLSTRIGGER"
			"uaxis" "[1 0 0 0] 0.25"
			"vaxis" "[0 -1 0 0] 0.25"
			"rotation" "0"
			"lightmapscale" "128"
			"smoothing_groups" "0"
		}
		side
		{
			"id" "118"
			"plane" "(-12008 -672 -456) (-11176 -672 -456) (-11176 1760 -456)"
			"material" "TOOLS/TOOLSTRIGGER"
			"uaxis" "[1 0 0 0] 0.25"
			"vaxis" "[0 -1 0 0] 0.25"
			"rotation" "0"
			"lightmapscale" "128"
			"smoothing_groups" "0"
		}
		side
		{
			"id" "117"
			"plane" "(-12008 1760 96) (-12008 -672 96) (-12008 -672 -456)"
			"material" "TOOLS/TOOLSTRIGGER"
			"uaxis" "[0 1 0 0] 0.25"
			"vaxis" "[0 0 -1 0] 0.25"
			"rotation" "0"
			"lightmapscale" "128"
			"smoothing_groups" "0"
		}
		side
		{
			"id" "116"
			"plane" "(-11176 1760 -456) (-11176 -672 -456) (-11176 -672 96)"
			"material" "TOOLS/TOOLSTRIGGER"
			"uaxis" "[0 1 0 0] 0.25"
			"vaxis" "[0 0 -1 0] 0.25"
			"rotation" "0"
			"lightmapscale" "128"
			"smoothing_groups" "0"
		}
		side
		{
			"id" "115"
			"plane" "(-11176 1760 96) (-12008 1760 96) (-12008 1760 -456)"
			"material" "TOOLS/TOOLSTRIGGER"
			"uaxis" "[1 0 0 0] 0.25"
			"vaxis" "[0 0 -1 0] 0.25"
			"rotation" "0"
			"lightmapscale" "128"
			"smoothing_groups" "0"
		}
		side
		{
			"id" "114"
			"plane" "(-11176 -672 -456) (-12008 -672 -456) (-12008 -672 96)"
			"material" "TOOLS/TOOLSTRIGGER"
			"uaxis" "[1 0 0 0] 0.25"
			"vaxis" "[0 0 -1 0] 0.25"
			"rotation" "0"
			"lightmapscale" "128"
			"smoothing_groups" "0"
		}
		editor
		{
			"color" "220 30 220"
			"visgroupshown" "1"
			"visgroupautoshown" "1"
		}
	}
	solid
	{
		"id" "25"
		side
		{
			"id" "125"
			"plane" "(-12008 15712 96) (-11176 15712 96) (-11176 13280 96)"
			"material" "TOOLS/TOOLSTRIGGER"
			"uaxis" "[1 0 0 0] 0.25"
			"vaxis" "[0 -1 0 0] 0.25"
			"rotation" "0"
			"lightmapscale" "128"
			"smoothing_groups" "0"
		}
		side
		{
			"id" "124"
			"plane" "(-12008 13280 -456) (-11176 13280 -456) (-11176 15712 -456)"
			"material" "TOOLS/TOOLSTRIGGER"
			"uaxis" "[1 0 0 0] 0.25"
			"vaxis" "[0 -1 0 0] 0.25"
			"rotation" "0"
			"lightmapscale" "128"
			"smoothing_groups" "0"
		}
		side
		{
			"id" "123"
			"plane" "(-12008 15712 96) (-12008 13280 96) (-12008 13280 -456)"
			"material" "TOOLS/TOOLSTRIGGER"
			"uaxis" "[0 1 0 0] 0.25"
			"vaxis" "[0 0 -1 0] 0.25"
			"rotation" "0"
			"lightmapscale" "128"
			"smoothing_groups" "0"
		}
		side
		{
			"id" "122"
			"plane" "(-11176 15712 -456) (-11176 13280 -456) (-11176 13280 96)"
			"material" "TOOLS/TOOLSTRIGGER"
			"uaxis" "[0 1 0 0] 0.25"
			"vaxis" "[0 0 -1 0] 0.25"
			"rotation" "0"
			"lightmapscale" "128"
			"smoothing_groups" "0"
		}
		side
		{
			"id" "121"
			"plane" "(-11176 15712 96) (-12008 15712 96) (-12008 15712 -456)"
			"material" "TOOLS/TOOLSTRIGGER"
			"uaxis" "[1 0 0 0] 0.25"
			"vaxis" "[0 0 -1 0] 0.25"
			"rotation" "0"
			"lightmapscale" "128"
			"smoothing_groups" "0"
		}
		side
		{
			"id" "120"
			"plane" "(-11176 13280 -456) (-12008 13280 -456) (-12008 13280 96)"
			"material" "TOOLS/TOOLSTRIGGER"
			"uaxis" "[1 0 0 0] 0.25"
			"vaxis" "[0 0 -1 0] 0.25"
			"rotation" "0"
			"lightmapscale" "128"
			"smoothing_groups" "0"
		}
		editor
		{
			"color" "220 30 220"
			"visgroupshown" "1"
			"visgroupautoshown" "1"
		}
	}
	editor
	{
		"color" "220 30 220"
		"visgroupshown" "1"
		"visgroupautoshown" "1"
		"logicalpos" "[6500 -2268]"
	}
}
entity
{
	"id" "27"
	"classname" "trigger_momentum_timer_stop"
	"origin" "10440 2096 -280"
	"spawnflags" "1"
	"StartDisabled" "0"
	"ZoneNumber" "2"
	solid
	{
		"id" "28"
		side
		{
			"id" "130"
			"plane" "(11016 1808 -56) (9864 1808 -56) (10440 2384 -56)"
			"material" "TOOLS/TOOLSTRIGGER"
			"uaxis" "[1 0 0 0] 0.25"
			"vaxis" "[0 -1 0 0] 0.25"
			"rotation" "0"
			"lightmapscale" "128"
			"smoothing_groups" "0"
		}
		side
		{
			"id" "129"
			"plane" "(10440 2384 -504) (9864 1808 -504) (11016 1808 -504)"
			"material" "TOOLS/TOOLSTRIGGER"
			"uaxis" "[1 0 0 0] 0.25"
			"vaxis" "[0 -1 0 0] 0.25"
			"rotation" "0"
			"lightmapscale" "128"
			"smoothing_groups" "0"
		}
		side
		{
			"id" "128"
			"plane" "(11016 1808 -504) (9864 1808 -504) (9864 1808 -56)"
			"material" "TOOLS/TOOLSTRIGGER"
			"uaxis" "[1 0 0 0] 0.25"
			"vaxis" "[0 0 -1 0] 0.25"
			"rotation" "0"
			"lightmapscale" "128"
			"smoothing_groups" "0"
		}
		side
		{
			"id" "127"
			"plane" "(10440 2384 -504) (11016 1808 -504) (11016 1808 -56)"
			"material" "TOOLS/TOOLSTRIGGER"
			"uaxis" "[0 1 0 0] 0.25"
			"vaxis" "[0 0 -1 0] 0.25"
			"rotation" "0"
			"lightmapscale" "128"
			"smoothing_groups" "0"
		}
		side
		{
			"id" "126"
			"plane" "(9864 1808 -504) (10440 2384 -504) (10440 2384 -56)"
			"material" "TOOLS/TOOLSTRIGGER"
			"uaxis" "[0 1 0 0] 0.25"
			"vaxis" "[0 0 -1 0] 0.25"
			"rotation" "0"
			"lightmapscale" "128"
			"smoothing_groups" "0"
		}
		editor
		{
			"color" "220 30 220"
			"visgroupshown" "1"
			"visgroupautoshown" "1"
		}
	}
	editor
	{
		"color" "220 30 220"
		"visgroupshown" "1"
		"visgroupautoshown" "1"
		"logicalpos" "[6500 -4768]"
	}
}
entity
{
	"id" "30"
	"classname" "trigger_momentum_timer_stop"
	"origin" "-9312 -9976 160"
	"spawnflags" "1"
	"StartDisabled" "0"
	"ZoneNumber" "1"
	solid
	{
		"id" "31"
		side
		{
			"id" "136"
			"plane" "(-10112 -8760 512) (-8512 -8760 512) (-8512 -11192 512)"
			"material" "TOOLS/TOOLSTRIGGER"
			"uaxis" "[1 0 0 0] 0.25"
			"vaxis" "[0 -1 0 0] 0.25"
			"rotation" "0"
			"lightmapscale" "128"
			"smoothing_groups" "0"
		}
		side
		{
			"id" "135"
			"plane" "(-10112 -11192 -192) (-8512 -11192 -192) (-8512 -8760 -192)"
			"material" "TOOLS/TOOLSTRIGGER"
			"uaxis" "[1 0 0 0] 0.25"
			"vaxis" "[0 -1 0 0] 0.25"
			"rotation" "0"
			"lightmapscale" "128"
			"smoothing_groups" "0"
		}
		side
		{
			"id" "134"
			"plane" "(-10112 -8760 512) (-10112 -11192 512) (-10112 -11192 -192)"
			"material" "TOOLS/TOOLSTRIGGER"
			"uaxis" "[0 1 0 0] 0.25"
			"vaxis" "[0 0 -1 0] 0.25"
			"rotation" "0"
			"lightmapscale" "128"
			"smoothing_groups" "0"
		}
		side
		{
			"id" "133"
			"plane" "(-8512 -8760 -192) (-8512 -11192 -192) (-8512 -11192 512)"
			"material" "TOOLS/TOOLSTRIGGER"
			"uaxis" "[0 1 0 0] 0.25"
			"vaxis" "[0 0 -1 0] 0.25"
			"rotation" "0"
			"lightmapscale" "128"
			"smoothing_groups" "0"
		}
		side
		{
			"id" "132"
			"plane" "(-8512 -8760 512) (-10112 -8760 512) (-10112 -8760 -192)"
			"material" "TOOLS/TOOLSTRIGGER"
			"uaxis" "[1 0 0 0] 0.25"
			"vaxis" "[0 0 -1 0] 0.25"
			"rotation" "0"
			"lightmapscale" "128"
			"smoothing_groups" "0"
		}
		side
		{
			"id" "131"
			"plane" "(-8512 -11192 -192) (-10112 -11192 -192) (-10112 -11192 512)"
			"material" "TOOLS/TOOLSTRIGGER"
			"uaxis" "[1 0 0 0] 0.25"
			"vaxis" "[0 0 -1 0] 0.25"
			"rotation" "0"
			"lightmapscale" "128"
			"smoothing_groups" "0"
		}
		editor
		{
			"color" "220 30 220"
			"visgroupshown" "1"
			"visgroupautoshown" "1"
		}
	}
	editor
	{
		"color" "220 30 220"
		"visgroupshown" "1"
		"visgroupautoshown" "1"
		"logicalpos" "[6500 -10268]"
	}
}
entity
{
	"id" "33"
	"classname" "trigger_momentum_timer_stop"
	"origin" "4536 -2168 -1056"
	"spawnflags" "1"
	"StartDisabled" "0"
	"ZoneNumber" "0"
	solid
	{
		"id" "34"
		side
		{
			"id" "142"
			"plane" "(-7032 -1080 -864) (-5992 -1080 -864) (-5992 -3256 -864)"
			"material" "TOOLS/TOOLSTRIGGER"
			"uaxis" "[1 0 0 0] 0.25"
			"vaxis" "[0 -1 0 0] 0.25"
			"rotation" "0"
			"lightmapscale" "128"
			"smoothing_groups" "0"
		}
		side
		{
			"id" "141"
			"plane" "(-7032 -3256 -1248) (-5992 -3256 -1248) (-5992 -1080 -1248)"
			"material" "TOOLS/TOOLSTRIGGER"
			"uaxis" "[1 0 0 0] 0.25"
			"vaxis" "[0 -1 0 0] 0.25"
			"rotation" "0"
			"lightmapscale" "128"
			"smoothing_groups" "0"
		}
		side
		{
			"id" "140"
			"plane" "(-7032 -1080 -864) (-7032 -3256 -864) (-7032 -3256 -1248)"
			"material" "TOOLS/TOOLSTRIGGER"
			"uaxis" "[0 1 0 0] 0.25"
			"vaxis" "[0 0 -1 48] 0.352941"
			"rotation" "0"
			"lightmapscale" "128"
			"smoothing_groups" "0"
		}
		side
		{
			"id" "139"
			"plane" "(-5992 -1080 -1248) (-5992 -3256 -1248) (-5992 -3256 -864)"
			"material" "TOOLS/TOOLSTRIGGER"
			"uaxis" "[0 1 0 0] 0.25"
			"vaxis" "[0 0 -1 48] 0.352941"
			"rotation" "0"
			"lightmapscale" "128"
			"smoothing_groups" "0"
		}
		side
		{
			"id" "138"
			"plane" "(-5992 -1080 -864) (-7032 -1080 -864) (-7032 -1080 -1248)"
			"material" "TOOLS/TOOLSTRIGGER"
			"uaxis" "[1 0 0 0] 0.25"
			"vaxis" "[0 0 -1 48] 0.352941"
			"rotation" "0"
			"lightmapscale" "128"
			"smoothing_groups" "0"
		}
		side
		{
			"id" "137"
			"plane" "(-5992 -3256 -1248) (-7032 -3256 -1248) (-7032 -3256 -864)"
			"material" "TOOLS/TOOLSTRIGGER"
			"uaxis" "[1 0 0 0] 0.25"
			"vaxis" "[0 0 -1 48] 0.352941"
			"rotation" "0"
			"lightmapscale" "128"
			"smoothing_groups" "0"
		}
		editor
		{
			"color" "220 30 220"
			"visgroupshown" "1"
			"visgroupautoshown" "1"
		}
	}
	solid
	{
		"id" "35"
		side
		{
			"id" "148"
			"plane" "(15064 -1080 -864) (16104 -1080 -864) (16104 -3256 -864)"
			"material" "TOOLS/TOOLSTRIGGER"
			"uaxis" "[1 0 0 0] 0.25"
			"vaxis" "[0 -1 0 0] 0.25"
			"rotation" "0"
			"lightmapscale" "128"
			"smoothing_groups" "0"
		}
		side
		{
			"id" "147"
			"plane" "(15064 -3256 -1248) (16104 -3256 -1248) (16104 -1080 -1248)"
			"material" "TOOLS/TOOLSTRIGGER"
			"uaxis" "[1 0 0 0] 0.25"
			"vaxis" "[0 -1 0 0] 0.25"
			"rotation" "0"
			"lightmapscale" "128"
			"smoothing_groups" "0"
		}
		side
		{
			"id" "146"
			"plane" "(15064 -1080 -864) (15064 -3256 -864) (15064 -3256 -1248)"
			"material" "TOOLS/TOOLSTRIGGER"
			"uaxis" "[0 1 0 0] 0.25"
			"vaxis" "[0 0 -1 48] 0.352941"
			"rotation" "0"
			"lightmapscale" "128"
			"smoothing_groups" "0"
		}
		side
		{
			"id" "145"
			"plane" "(16104 -1080 -1248) (16104 -3256 -1248) (16104 -3256 -864)"
			"material" "TOOLS/TOOLSTRIGGER"
			"uaxis" "[0 1 0 0] 0.25"
			"vaxis" "[0 0 -1 48] 0.352941"
			"rotation" "0"
			"lightmapscale" "128"
			"smoothing_groups" "0"
		}
		side
		{
			"id" "144"
			"plane" "(16104 -1080 -864) (15064 -1080 -864) (15064 -1080 -1248)"
			"material" "TOOLS/TOOLSTRIGGER"
			"uaxis" "[1 0 0 0] 0.25"
			"vaxis" "[0 0 -1 48] 0.352941"
			"rotation" "0"
			"lightmapscale" "128"
			"smoothing_groups" "0"
		}
		side
		{
			"id" "143"
			"plane" "(16104 -3256 -1248) (15064 -3256 -1248) (15064 -3256 -864)"
			"material" "TOOLS/TOOLSTRIGGER"
			"uaxis" "[1 0 0 0] 0.25"
			"vaxis" "[0 0 -1 48] 0.352941"
			"rotation" "0"
			"lightmapscale" "128"
			"smoothing_groups" "0"
		}
		editor
		{
			"color" "220 30 220"
			"visgroupshown" "1"
			"visgroupautoshown" "1"
		}
	}
	editor
	{
		"color" "220 30 220"
		"visgroupshown" "1"
		"visgroupautoshown" "1"
		"logicalpos" "[6500 -12268]"
	}
}
cameras
{
	"activecamera" "-1"
}
cordon
{
	"mins" "(-1024 -1024 -1024)"
	"maxs" "(1024 1024 1024)"
	"active" "0"
}
