versioninfo
{
	"editorversion" "400"
	"editorbuild" "7538"
	"mapversion" "1"
	"formatversion" "100"
	"prefab" "0"
}
visgroups
{
}
viewsettings
{
	"bSnapToGrid" "1"
	"bShowGrid" "1"
	"bShowLogicalGrid" "0"
	"nGridSpacing" "64"
	"bShow3DGrid" "0"
}
world
{
	"id" "1"
	"mapversion" "1"
	"classname" "worldspawn"
	"skyname" "sky_day01_01"
	"maxpropscreenwidth" "-1"
	"detailvbsp" "detail.vbsp"
	"detailmaterial" "detail/detailsprites"
}
entity
{
	"id" "2"
	"classname" "trigger_momentum_timer_stage"
	"origin" "-1920 11568 -3248"
	"spawnflags" "1"
	"stage" "3"
	"StartDisabled" "0"
	solid
	{
		"id" "3"
		side
		{
			"id" "1"
			"plane" "(-2112 11680 -3104) (-1728 11680 -3104) (-1728 11456 -3104)"
			"material" "TOOLS/TOOLSTRIGGER"
			"uaxis" "[1 0 0 0] 0.25"
			"vaxis" "[0 -1 0 0] 0.25"
			"rotation" "0"
			"lightmapscale" "128"
			"smoothing_groups" "0"
		}
		side
		{
			"id" "2"
			"plane" "(-2112 11456 -3392) (-1728 11456 -3392) (-1728 11680 -3392)"
			"material" "TOOLS/TOOLSTRIGGER"
			"uaxis" "[1 0 0 0] 0.25"
			"vaxis" "[0 -1 0 0] 0.25"
			"rotation" "0"
			"lightmapscale" "128"
			"smoothing_groups" "0"
		}
		side
		{
			"id" "3"
			"plane" "(-2112 11680 -3104) (-2112 11456 -3104) (-2112 11456 -3392)"
			"material" "TOOLS/TOOLSTRIGGER"
			"uaxis" "[0 1 0 0] 0.25"
			"vaxis" "[0 0 -1 0] 0.25"
			"rotation" "0"
			"lightmapscale" "128"
			"smoothing_groups" "0"
		}
		side
		{
			"id" "4"
			"plane" "(-1728 11680 -3392) (-1728 11456 -3392) (-1728 11456 -3104)"
			"material" "TOOLS/TOOLSTRIGGER"
			"uaxis" "[0 1 0 0] 0.25"
			"vaxis" "[0 0 -1 0] 0.25"
			"rotation" "0"
			"lightmapscale" "128"
			"smoothing_groups" "0"
		}
		side
		{
			"id" "5"
			"plane" "(-1728 11680 -3104) (-2112 11680 -3104) (-2112 11680 -3392)"
			"material" "TOOLS/TOOLSTRIGGER"
			"uaxis" "[1 0 0 0] 0.25"
			"vaxis" "[0 0 -1 0] 0.25"
			"rotation" "0"
			"lightmapscale" "128"
			"smoothing_groups" "0"
		}
		side
		{
			"id" "6"
			"plane" "(-1728 11456 -3392) (-2112 11456 -3392) (-2112 11456 -3104)"
			"material" "TOOLS/TOOLSTRIGGER"
			"uaxis" "[1 0 0 0] 0.25"
			"vaxis" "[0 0 -1 0] 0.25"
			"rotation" "0"
			"lightmapscale" "128"
			"smoothing_groups" "0"
		}
		editor
		{
			"color" "220 30 220"
			"visgroupshown" "1"
			"visgroupautoshown" "1"
		}
	}
	editor
	{
		"color" "220 30 220"
		"visgroupshown" "1"
		"visgroupautoshown" "1"
		"logicalpos" "[6000 7500]"
	}
}
entity
{
	"id" "5"
	"classname" "trigger_momentum_timer_stage"
	"origin" "-1728 -11584 5352"
	"spawnflags" "1"
	"stage" "5"
	"StartDisabled" "0"
	solid
	{
		"id" "6"
		side
		{
			"id" "48"
			"plane" "(-1888 -11776 5520) (-1888 -11392 5520) (-1824 -11328 5520)"
			"material" "TOOLS/TOOLSTRIGGER"
			"uaxis" "[0 1 0 0] 0.25"
			"vaxis" "[-1 0 0 -63.9961] 0.25"
			"rotation" "0"
			"lightmapscale" "128"
			"smoothing_groups" "0"
		}
		side
		{
			"id" "47"
			"plane" "(-1888 -11392 5184) (-1888 -11776 5184) (-1824 -11840 5184)"
			"material" "TOOLS/TOOLSTRIGGER"
			"uaxis" "[0 1 0 0] 0.25"
			"vaxis" "[1 0 0 -63.9971] 0.25"
			"rotation" "0"
			"lightmapscale" "128"
			"smoothing_groups" "0"
		}
		side
		{
			"id" "46"
			"plane" "(-1888 -11776 5184) (-1888 -11392 5184) (-1888 -11392 5520)"
			"material" "TOOLS/TOOLSTRIGGER"
			"uaxis" "[0 1 0 0] 0.25"
			"vaxis" "[0 0 -1 0] 0.25"
			"rotation" "0"
			"lightmapscale" "128"
			"smoothing_groups" "0"
		}
		side
		{
			"id" "45"
			"plane" "(-1568 -11328 5184) (-1568 -11840 5184) (-1568 -11840 5520)"
			"material" "TOOLS/TOOLSTRIGGER"
			"uaxis" "[0 1 0 0] 0.25"
			"vaxis" "[0 0 -1 0] 0.25"
			"rotation" "0"
			"lightmapscale" "128"
			"smoothing_groups" "0"
		}
		side
		{
			"id" "44"
			"plane" "(-1824 -11328 5184) (-1568 -11328 5184) (-1568 -11328 5520)"
			"material" "TOOLS/TOOLSTRIGGER"
			"uaxis" "[1 0 0 -63.9922] 0.25"
			"vaxis" "[0 0 -1 0] 0.25"
			"rotation" "0"
			"lightmapscale" "128"
			"smoothing_groups" "0"
		}
		side
		{
			"id" "43"
			"plane" "(-1568 -11840 5184) (-1824 -11840 5184) (-1824 -11840 5520)"
			"material" "TOOLS/TOOLSTRIGGER"
			"uaxis" "[-1 0 0 -63.9922] 0.25"
			"vaxis" "[0 0 -1 0] 0.25"
			"rotation" "0"
			"lightmapscale" "128"
			"smoothing_groups" "0"
		}
		side
		{
			"id" "42"
			"plane" "(-1888 -11392 5184) (-1824 -11328 5184) (-1824 -11328 5520)"
			"material" "TOOLS/TOOLSTRIGGER"
			"uaxis" "[0 1 0 0] 0.25"
			"vaxis" "[0 0 -1 0] 0.25"
			"rotation" "0"
			"lightmapscale" "128"
			"smoothing_groups" "0"
		}
		side
		{
			"id" "41"
			"plane" "(-1824 -11840 5184) (-1888 -11776 5184) (-1888 -11776 5520)"
			"material" "TOOLS/TOOLSTRIGGER"
			"uaxis" "[0 1 0 0] 0.25"
			"vaxis" "[0 0 -1 0] 0.25"
			"rotation" "0"
			"lightmapscale" "128"
			"smoothing_groups" "0"
		}
		editor
		{
			"color" "220 30 220"
			"visgroupshown" "1"
			"visgroupautoshown" "1"
		}
	}
	editor
	{
		"color" "220 30 220"
		"visgroupshown" "1"
		"visgroupautoshown" "1"
		"logicalpos" "[6000 11500]"
	}
}
entity
{
	"id" "8"
	"classname" "trigger_momentum_timer_stage"
	"origin" "-3552 7088 -2308"
	"spawnflags" "1"
	"stage" "4"
	"StartDisabled" "0"
	solid
	{
		"id" "9"
		side
		{
			"id" "56"
			"plane" "(-3712 6896 -2176) (-3712 7280 -2176) (-3648 7344 -2176)"
			"material" "TOOLS/TOOLSTRIGGER"
			"uaxis" "[0 1 0 0] 0.25"
			"vaxis" "[-1 0 0 -21] 0.25"
			"rotation" "0"
			"lightmapscale" "128"
			"smoothing_groups" "0"
		}
		side
		{
			"id" "55"
			"plane" "(-3712 7280 -2440) (-3712 6896 -2440) (-3648 6832 -2440)"
			"material" "TOOLS/TOOLSTRIGGER"
			"uaxis" "[0 1 0 0] 0.25"
			"vaxis" "[1 0 0 10.998] 0.25"
			"rotation" "0"
			"lightmapscale" "128"
			"smoothing_groups" "0"
		}
		side
		{
			"id" "54"
			"plane" "(-3712 6896 -2440) (-3712 7280 -2440) (-3712 7280 -2176)"
			"material" "TOOLS/TOOLSTRIGGER"
			"uaxis" "[0 1 0 0] 0.25"
			"vaxis" "[0 0 -1 43] 0.25"
			"rotation" "0"
			"lightmapscale" "128"
			"smoothing_groups" "0"
		}
		side
		{
			"id" "53"
			"plane" "(-3392 7344 -2440) (-3392 6832 -2440) (-3392 6832 -2176)"
			"material" "TOOLS/TOOLSTRIGGER"
			"uaxis" "[0 1 0 0] 0.25"
			"vaxis" "[0 0 -1 43] 0.25"
			"rotation" "0"
			"lightmapscale" "128"
			"smoothing_groups" "0"
		}
		side
		{
			"id" "52"
			"plane" "(-3648 7344 -2440) (-3392 7344 -2440) (-3392 7344 -2176)"
			"material" "TOOLS/TOOLSTRIGGER"
			"uaxis" "[1 0 0 63.9961] 0.25"
			"vaxis" "[0 0 -1 43] 0.25"
			"rotation" "0"
			"lightmapscale" "128"
			"smoothing_groups" "0"
		}
		side
		{
			"id" "51"
			"plane" "(-3392 6832 -2440) (-3648 6832 -2440) (-3648 6832 -2176)"
			"material" "TOOLS/TOOLSTRIGGER"
			"uaxis" "[-1 0 0 0] 0.25"
			"vaxis" "[0 0 -1 43] 0.25"
			"rotation" "0"
			"lightmapscale" "128"
			"smoothing_groups" "0"
		}
		side
		{
			"id" "50"
			"plane" "(-3712 7280 -2440) (-3648 7344 -2440) (-3648 7344 -2176)"
			"material" "TOOLS/TOOLSTRIGGER"
			"uaxis" "[0.707107 0.707107 0 20.1758] 0.25"
			"vaxis" "[0 0 -1 43] 0.25"
			"rotation" "0"
			"lightmapscale" "128"
			"smoothing_groups" "0"
		}
		side
		{
			"id" "49"
			"plane" "(-3648 6832 -2440) (-3712 6896 -2440) (-3712 6896 -2176)"
			"material" "TOOLS/TOOLSTRIGGER"
			"uaxis" "[-0.707107 0.707107 0 -51.9521] 0.25"
			"vaxis" "[0 0 -1 43] 0.25"
			"rotation" "0"
			"lightmapscale" "128"
			"smoothing_groups" "0"
		}
		editor
		{
			"color" "220 30 220"
			"visgroupshown" "1"
			"visgroupautoshown" "1"
		}
	}
	editor
	{
		"color" "220 30 220"
		"visgroupshown" "1"
		"visgroupautoshown" "1"
		"logicalpos" "[6000 9500]"
	}
}
entity
{
	"id" "11"
	"classname" "trigger_momentum_timer_stage"
	"origin" "1024 6496 -3104"
	"spawnflags" "1"
	"stage" "2"
	"StartDisabled" "0"
	solid
	{
		"id" "12"
		side
		{
			"id" "62"
			"plane" "(832 6608 -2957) (1216 6608 -2957) (1216 6384 -2957)"
			"material" "TOOLS/TOOLSTRIGGER"
			"uaxis" "[1 0 0 0] 0.25"
			"vaxis" "[0 -1 0 0] 0.25"
			"rotation" "0"
			"lightmapscale" "128"
			"smoothing_groups" "0"
		}
		side
		{
			"id" "61"
			"plane" "(832 6384 -3251) (1216 6384 -3251) (1216 6608 -3251)"
			"material" "TOOLS/TOOLSTRIGGER"
			"uaxis" "[1 0 0 0] 0.25"
			"vaxis" "[0 -1 0 0] 0.25"
			"rotation" "0"
			"lightmapscale" "128"
			"smoothing_groups" "0"
		}
		side
		{
			"id" "60"
			"plane" "(832 6608 -2957) (832 6384 -2957) (832 6384 -3251)"
			"material" "TOOLS/TOOLSTRIGGER"
			"uaxis" "[0 1 0 0] 0.25"
			"vaxis" "[0 0 -1 5.68708] 0.241776"
			"rotation" "0"
			"lightmapscale" "128"
			"smoothing_groups" "0"
		}
		side
		{
			"id" "59"
			"plane" "(1216 6608 -3251) (1216 6384 -3251) (1216 6384 -2957)"
			"material" "TOOLS/TOOLSTRIGGER"
			"uaxis" "[0 1 0 0] 0.25"
			"vaxis" "[0 0 -1 5.68708] 0.241776"
			"rotation" "0"
			"lightmapscale" "128"
			"smoothing_groups" "0"
		}
		side
		{
			"id" "58"
			"plane" "(1216 6608 -2957) (832 6608 -2957) (832 6608 -3251)"
			"material" "TOOLS/TOOLSTRIGGER"
			"uaxis" "[1 0 0 0] 0.25"
			"vaxis" "[0 0 -1 5.68708] 0.241776"
			"rotation" "0"
			"lightmapscale" "128"
			"smoothing_groups" "0"
		}
		side
		{
			"id" "57"
			"plane" "(1216 6384 -3251) (832 6384 -3251) (832 6384 -2957)"
			"material" "TOOLS/TOOLSTRIGGER"
			"uaxis" "[1 0 0 0] 0.25"
			"vaxis" "[0 0 -1 5.68708] 0.241776"
			"rotation" "0"
			"lightmapscale" "128"
			"smoothing_groups" "0"
		}
		editor
		{
			"color" "220 30 220"
			"visgroupshown" "1"
			"visgroupautoshown" "1"
		}
	}
	editor
	{
		"color" "220 30 220"
		"visgroupshown" "1"
		"visgroupautoshown" "1"
		"logicalpos" "[6000 6500]"
	}
}
entity
{
	"id" "14"
	"classname" "trigger_momentum_timer_start"
	"bhopleavespeed" "350"
	"LimitSpeedType" "0"
	"lookangles" "0 0 0"
	"origin" "-268 10352 -3456"
	"spawnflags" "8193"
	"StartDisabled" "0"
	"StartOnJump" "1"
	"ZoneNumber" "0"
	solid
	{
		"id" "15"
		side
		{
			"id" "68"
			"plane" "(-460 10464 -3312) (-76 10464 -3312) (-76 10240 -3312)"
			"material" "TOOLS/TOOLSTRIGGER"
			"uaxis" "[1 0 0 0] 0.25"
			"vaxis" "[0 -1 0 0] 0.25"
			"rotation" "0"
			"lightmapscale" "128"
			"smoothing_groups" "0"
		}
		side
		{
			"id" "67"
			"plane" "(-460 10240 -3600) (-76 10240 -3600) (-76 10464 -3600)"
			"material" "TOOLS/TOOLSTRIGGER"
			"uaxis" "[1 0 0 0] 0.25"
			"vaxis" "[0 -1 0 0] 0.25"
			"rotation" "0"
			"lightmapscale" "128"
			"smoothing_groups" "0"
		}
		side
		{
			"id" "66"
			"plane" "(-460 10464 -3312) (-460 10240 -3312) (-460 10240 -3600)"
			"material" "TOOLS/TOOLSTRIGGER"
			"uaxis" "[0 1 0 0] 0.25"
			"vaxis" "[0 0 -1 0] 0.225"
			"rotation" "0"
			"lightmapscale" "128"
			"smoothing_groups" "0"
		}
		side
		{
			"id" "65"
			"plane" "(-76 10464 -3600) (-76 10240 -3600) (-76 10240 -3312)"
			"material" "TOOLS/TOOLSTRIGGER"
			"uaxis" "[0 1 0 0] 0.25"
			"vaxis" "[0 0 -1 0] 0.225"
			"rotation" "0"
			"lightmapscale" "128"
			"smoothing_groups" "0"
		}
		side
		{
			"id" "64"
			"plane" "(-76 10464 -3312) (-460 10464 -3312) (-460 10464 -3600)"
			"material" "TOOLS/TOOLSTRIGGER"
			"uaxis" "[1 0 0 0] 0.25"
			"vaxis" "[0 0 -1 0] 0.225"
			"rotation" "0"
			"lightmapscale" "128"
			"smoothing_groups" "0"
		}
		side
		{
			"id" "63"
			"plane" "(-76 10240 -3600) (-460 10240 -3600) (-460 10240 -3312)"
			"material" "TOOLS/TOOLSTRIGGER"
			"uaxis" "[1 0 0 0] 0.25"
			"vaxis" "[0 0 -1 0] 0.225"
			"rotation" "0"
			"lightmapscale" "128"
			"smoothing_groups" "0"
		}
		editor
		{
			"color" "220 30 220"
			"visgroupshown" "1"
			"visgroupautoshown" "1"
		}
	}
	editor
	{
		"color" "220 30 220"
		"visgroupshown" "1"
		"visgroupautoshown" "1"
		"logicalpos" "[6000 5500]"
	}
}
entity
{
	"id" "17"
	"classname" "trigger_momentum_timer_stop"
	"origin" "-13528 -11584 -64"
	"spawnflags" "1"
	"StartDisabled" "0"
	"ZoneNumber" "0"
	solid
	{
		"id" "18"
		side
		{
			"id" "74"
			"plane" "(-13760 -10912 0) (-13296 -10912 0) (-13296 -12256 0)"
			"material" "TOOLS/TOOLSTRIGGER"
			"uaxis" "[1 0 0 0] 0.25"
			"vaxis" "[0 -1 0 0] 0.25"
			"rotation" "0"
			"lightmapscale" "128"
			"smoothing_groups" "0"
		}
		side
		{
			"id" "73"
			"plane" "(-13760 -12256 -128) (-13296 -12256 -128) (-13296 -10912 -128)"
			"material" "TOOLS/TOOLSTRIGGER"
			"uaxis" "[1 0 0 0] 0.25"
			"vaxis" "[0 -1 0 0] 0.25"
			"rotation" "0"
			"lightmapscale" "128"
			"smoothing_groups" "0"
		}
		side
		{
			"id" "72"
			"plane" "(-13760 -10912 0) (-13760 -12256 0) (-13760 -12256 -128)"
			"material" "TOOLS/TOOLSTRIGGER"
			"uaxis" "[0 1 0 0] 0.25"
			"vaxis" "[0 0 -1 0] 0.25"
			"rotation" "0"
			"lightmapscale" "128"
			"smoothing_groups" "0"
		}
		side
		{
			"id" "71"
			"plane" "(-13296 -10912 -128) (-13296 -12256 -128) (-13296 -12256 0)"
			"material" "TOOLS/TOOLSTRIGGER"
			"uaxis" "[0 1 0 0] 0.25"
			"vaxis" "[0 0 -1 0] 0.25"
			"rotation" "0"
			"lightmapscale" "128"
			"smoothing_groups" "0"
		}
		side
		{
			"id" "70"
			"plane" "(-13296 -10912 0) (-13760 -10912 0) (-13760 -10912 -128)"
			"material" "TOOLS/TOOLSTRIGGER"
			"uaxis" "[1 0 0 0] 0.25"
			"vaxis" "[0 0 -1 0] 0.25"
			"rotation" "0"
			"lightmapscale" "128"
			"smoothing_groups" "0"
		}
		side
		{
			"id" "69"
			"plane" "(-13296 -12256 -128) (-13760 -12256 -128) (-13760 -12256 0)"
			"material" "TOOLS/TOOLSTRIGGER"
			"uaxis" "[1 0 0 0] 0.25"
			"vaxis" "[0 0 -1 0] 0.25"
			"rotation" "0"
			"lightmapscale" "128"
			"smoothing_groups" "0"
		}
		editor
		{
			"color" "220 30 220"
			"visgroupshown" "1"
			"visgroupautoshown" "1"
		}
	}
	editor
	{
		"color" "220 30 220"
		"visgroupshown" "1"
		"visgroupautoshown" "1"
		"logicalpos" "[6000 12500]"
	}
}
cameras
{
	"activecamera" "-1"
}
cordon
{
	"mins" "(-1024 -1024 -1024)"
	"maxs" "(1024 1024 1024)"
	"active" "0"
}
