versioninfo
{
	"editorversion" "400"
	"editorbuild" "7538"
	"mapversion" "4"
	"formatversion" "100"
	"prefab" "0"
}
visgroups
{
}
viewsettings
{
	"bSnapToGrid" "1"
	"bShowGrid" "1"
	"bShowLogicalGrid" "0"
	"nGridSpacing" "64"
	"bShow3DGrid" "0"
}
world
{
	"id" "1"
	"mapversion" "4"
	"classname" "worldspawn"
	"detailmaterial" "detail/detailsprites"
	"detailvbsp" "detail.vbsp"
	"maxpropscreenwidth" "-1"
	"skyname" "sky_day01_01"
}
entity
{
	"id" "2"
	"classname" "trigger_momentum_timer_stage"
	"origin" "6176 -128 2352"
	"spawnflags" "1"
	"stage" "3"
	"StartDisabled" "0"
	"targetname" "3z"
	solid
	{
		"id" "3"
		side
		{
			"id" "1"
			"plane" "(5952 640 2048) (5952 -896 2048) (6400 -896 2048)"
			"material" "TOOLS/TOOLSTRIGGER"
			"uaxis" "[-1 0 0 0] 0.25"
			"vaxis" "[0 -1 0 0] 0.25"
			"rotation" "0"
			"lightmapscale" "64"
			"smoothing_groups" "0"
		}
		side
		{
			"id" "2"
			"plane" "(5952 -896 2656) (5952 640 2656) (6400 640 2656)"
			"material" "TOOLS/TOOLSTRIGGER"
			"uaxis" "[1 0 0 0] 0.25"
			"vaxis" "[0 -1 0 0] 0.25"
			"rotation" "0"
			"lightmapscale" "64"
			"smoothing_groups" "0"
		}
		side
		{
			"id" "3"
			"plane" "(5952 -896 2656) (5952 -896 2048) (5952 640 2048)"
			"material" "TOOLS/TOOLSTRIGGER"
			"uaxis" "[0 -1 0 0] 0.25"
			"vaxis" "[0 0 -1 0] 0.25"
			"rotation" "0"
			"lightmapscale" "64"
			"smoothing_groups" "0"
		}
		side
		{
			"id" "4"
			"plane" "(6400 640 2656) (6400 640 2048) (6400 -896 2048)"
			"material" "TOOLS/TOOLSTRIGGER"
			"uaxis" "[0 1 0 0] 0.25"
			"vaxis" "[0 0 -1 0] 0.25"
			"rotation" "0"
			"lightmapscale" "64"
			"smoothing_groups" "0"
		}
		side
		{
			"id" "5"
			"plane" "(6400 -896 2656) (6400 -896 2048) (5952 -896 2048)"
			"material" "TOOLS/TOOLSTRIGGER"
			"uaxis" "[1 0 0 0] 0.25"
			"vaxis" "[0 0 -1 0] 0.25"
			"rotation" "0"
			"lightmapscale" "64"
			"smoothing_groups" "0"
		}
		side
		{
			"id" "6"
			"plane" "(5952 640 2656) (5952 640 2048) (6400 640 2048)"
			"material" "TOOLS/TOOLSTRIGGER"
			"uaxis" "[-1 0 0 0] 0.25"
			"vaxis" "[0 0 -1 0] 0.25"
			"rotation" "0"
			"lightmapscale" "64"
			"smoothing_groups" "0"
		}
		editor
		{
			"color" "220 30 220"
			"visgroupshown" "1"
			"visgroupautoshown" "1"
		}
	}
	editor
	{
		"color" "220 30 220"
		"visgroupshown" "1"
		"visgroupautoshown" "1"
		"logicalpos" "[5500 16000]"
	}
}
entity
{
	"id" "5"
	"classname" "trigger_momentum_timer_stage"
	"origin" "-2272 -128 -624"
	"spawnflags" "1"
	"stage" "5"
	"StartDisabled" "0"
	"targetname" "5z"
	solid
	{
		"id" "6"
		side
		{
			"id" "78"
			"plane" "(-2496 -896 -320) (-2496 -896 -928) (-2496 640 -928)"
			"material" "TOOLS/TOOLSTRIGGER"
			"uaxis" "[0 -1 0 0] 0.25"
			"vaxis" "[0 0 -1 0] 0.25"
			"rotation" "0"
			"lightmapscale" "64"
			"smoothing_groups" "0"
		}
		side
		{
			"id" "77"
			"plane" "(-2048 640 -320) (-2048 640 -928) (-2048 -896 -928)"
			"material" "TOOLS/TOOLSTRIGGER"
			"uaxis" "[0 1 0 0] 0.25"
			"vaxis" "[0 0 -1 0] 0.25"
			"rotation" "0"
			"lightmapscale" "64"
			"smoothing_groups" "0"
		}
		side
		{
			"id" "76"
			"plane" "(-2048 -896 -320) (-2048 -896 -928) (-2496 -896 -928)"
			"material" "TOOLS/TOOLSTRIGGER"
			"uaxis" "[1 0 0 0] 0.25"
			"vaxis" "[0 0 -1 0] 0.25"
			"rotation" "0"
			"lightmapscale" "64"
			"smoothing_groups" "0"
		}
		side
		{
			"id" "75"
			"plane" "(-2496 640 -320) (-2496 640 -928) (-2048 640 -928)"
			"material" "TOOLS/TOOLSTRIGGER"
			"uaxis" "[-1 0 0 0] 0.25"
			"vaxis" "[0 0 -1 0] 0.25"
			"rotation" "0"
			"lightmapscale" "64"
			"smoothing_groups" "0"
		}
		side
		{
			"id" "74"
			"plane" "(-2496 640 -928) (-2496 -896 -928) (-2048 -896 -928)"
			"material" "TOOLS/TOOLSTRIGGER"
			"uaxis" "[-1 0 0 0] 0.25"
			"vaxis" "[0 -1 0 0] 0.25"
			"rotation" "0"
			"lightmapscale" "64"
			"smoothing_groups" "0"
		}
		side
		{
			"id" "73"
			"plane" "(-2496 -896 -320) (-2496 640 -320) (-2048 640 -320)"
			"material" "TOOLS/TOOLSTRIGGER"
			"uaxis" "[1 0 0 0] 0.25"
			"vaxis" "[0 -1 0 0] 0.25"
			"rotation" "0"
			"lightmapscale" "64"
			"smoothing_groups" "0"
		}
		editor
		{
			"color" "220 30 220"
			"visgroupshown" "1"
			"visgroupautoshown" "1"
		}
	}
	editor
	{
		"color" "220 30 220"
		"visgroupshown" "1"
		"visgroupautoshown" "1"
		"logicalpos" "[5500 -15768]"
	}
}
entity
{
	"id" "8"
	"classname" "trigger_momentum_timer_stage"
	"origin" "2208 -128 -4624"
	"spawnflags" "1"
	"stage" "7"
	"StartDisabled" "0"
	"targetname" "7z"
	solid
	{
		"id" "9"
		side
		{
			"id" "84"
			"plane" "(1984 -896 -4320) (1984 -896 -4928) (1984 640 -4928)"
			"material" "TOOLS/TOOLSTRIGGER"
			"uaxis" "[0 -1 0 0] 0.25"
			"vaxis" "[0 0 -1 0] 0.25"
			"rotation" "0"
			"lightmapscale" "64"
			"smoothing_groups" "0"
		}
		side
		{
			"id" "83"
			"plane" "(2432 640 -4320) (2432 640 -4928) (2432 -896 -4928)"
			"material" "TOOLS/TOOLSTRIGGER"
			"uaxis" "[0 1 0 0] 0.25"
			"vaxis" "[0 0 -1 0] 0.25"
			"rotation" "0"
			"lightmapscale" "64"
			"smoothing_groups" "0"
		}
		side
		{
			"id" "82"
			"plane" "(2432 -896 -4320) (2432 -896 -4928) (1984 -896 -4928)"
			"material" "TOOLS/TOOLSTRIGGER"
			"uaxis" "[1 0 0 0] 0.25"
			"vaxis" "[0 0 -1 0] 0.25"
			"rotation" "0"
			"lightmapscale" "64"
			"smoothing_groups" "0"
		}
		side
		{
			"id" "81"
			"plane" "(1984 640 -4320) (1984 640 -4928) (2432 640 -4928)"
			"material" "TOOLS/TOOLSTRIGGER"
			"uaxis" "[-1 0 0 0] 0.25"
			"vaxis" "[0 0 -1 0] 0.25"
			"rotation" "0"
			"lightmapscale" "64"
			"smoothing_groups" "0"
		}
		side
		{
			"id" "80"
			"plane" "(1984 640 -4928) (1984 -896 -4928) (2432 -896 -4928)"
			"material" "TOOLS/TOOLSTRIGGER"
			"uaxis" "[-1 0 0 0] 0.25"
			"vaxis" "[0 -1 0 0] 0.25"
			"rotation" "0"
			"lightmapscale" "64"
			"smoothing_groups" "0"
		}
		side
		{
			"id" "79"
			"plane" "(1984 -896 -4320) (1984 640 -4320) (2432 640 -4320)"
			"material" "TOOLS/TOOLSTRIGGER"
			"uaxis" "[1 0 0 0] 0.25"
			"vaxis" "[0 -1 0 0] 0.25"
			"rotation" "0"
			"lightmapscale" "64"
			"smoothing_groups" "0"
		}
		editor
		{
			"color" "220 30 220"
			"visgroupshown" "1"
			"visgroupautoshown" "1"
		}
	}
	editor
	{
		"color" "220 30 220"
		"visgroupshown" "1"
		"visgroupautoshown" "1"
		"logicalpos" "[5500 -14768]"
	}
}
entity
{
	"id" "11"
	"classname" "trigger_momentum_timer_stage"
	"origin" "-3744 -128 -6576"
	"spawnflags" "1"
	"stage" "8"
	"StartDisabled" "0"
	"targetname" "8z"
	solid
	{
		"id" "12"
		side
		{
			"id" "90"
			"plane" "(-3968 -896 -6272) (-3968 -896 -6880) (-3968 640 -6880)"
			"material" "TOOLS/TOOLSTRIGGER"
			"uaxis" "[0 -1 0 0] 0.25"
			"vaxis" "[0 0 -1 0] 0.25"
			"rotation" "0"
			"lightmapscale" "64"
			"smoothing_groups" "0"
		}
		side
		{
			"id" "89"
			"plane" "(-3520 640 -6272) (-3520 640 -6880) (-3520 -896 -6880)"
			"material" "TOOLS/TOOLSTRIGGER"
			"uaxis" "[0 1 0 0] 0.25"
			"vaxis" "[0 0 -1 0] 0.25"
			"rotation" "0"
			"lightmapscale" "64"
			"smoothing_groups" "0"
		}
		side
		{
			"id" "88"
			"plane" "(-3520 -896 -6272) (-3520 -896 -6880) (-3968 -896 -6880)"
			"material" "TOOLS/TOOLSTRIGGER"
			"uaxis" "[1 0 0 0] 0.25"
			"vaxis" "[0 0 -1 0] 0.25"
			"rotation" "0"
			"lightmapscale" "64"
			"smoothing_groups" "0"
		}
		side
		{
			"id" "87"
			"plane" "(-3968 640 -6272) (-3968 640 -6880) (-3520 640 -6880)"
			"material" "TOOLS/TOOLSTRIGGER"
			"uaxis" "[-1 0 0 0] 0.25"
			"vaxis" "[0 0 -1 0] 0.25"
			"rotation" "0"
			"lightmapscale" "64"
			"smoothing_groups" "0"
		}
		side
		{
			"id" "86"
			"plane" "(-3968 640 -6880) (-3968 -896 -6880) (-3520 -896 -6880)"
			"material" "TOOLS/TOOLSTRIGGER"
			"uaxis" "[-1 0 0 0] 0.25"
			"vaxis" "[0 -1 0 0] 0.25"
			"rotation" "0"
			"lightmapscale" "64"
			"smoothing_groups" "0"
		}
		side
		{
			"id" "85"
			"plane" "(-3968 -896 -6272) (-3968 640 -6272) (-3520 640 -6272)"
			"material" "TOOLS/TOOLSTRIGGER"
			"uaxis" "[1 0 0 0] 0.25"
			"vaxis" "[0 -1 0 0] 0.25"
			"rotation" "0"
			"lightmapscale" "64"
			"smoothing_groups" "0"
		}
		editor
		{
			"color" "220 30 220"
			"visgroupshown" "1"
			"visgroupautoshown" "1"
		}
	}
	editor
	{
		"color" "220 30 220"
		"visgroupshown" "1"
		"visgroupautoshown" "1"
		"logicalpos" "[5500 -14268]"
	}
}
entity
{
	"id" "14"
	"classname" "trigger_momentum_timer_stage"
	"origin" "-11744 -128 -2032"
	"spawnflags" "1"
	"stage" "6"
	"StartDisabled" "0"
	"targetname" "6z"
	solid
	{
		"id" "15"
		side
		{
			"id" "96"
			"plane" "(-11520 -896 -1728) (-11520 -896 -2336) (-11968 -896 -2336)"
			"material" "TOOLS/TOOLSTRIGGER"
			"uaxis" "[1 0 0 0] 0.25"
			"vaxis" "[0 0 -1 0] 0.25"
			"rotation" "0"
			"lightmapscale" "64"
			"smoothing_groups" "0"
		}
		side
		{
			"id" "95"
			"plane" "(-11968 640 -1728) (-11968 640 -2336) (-11520 640 -2336)"
			"material" "TOOLS/TOOLSTRIGGER"
			"uaxis" "[-1 0 0 0] 0.25"
			"vaxis" "[0 0 -1 0] 0.25"
			"rotation" "0"
			"lightmapscale" "64"
			"smoothing_groups" "0"
		}
		side
		{
			"id" "94"
			"plane" "(-11968 640 -2336) (-11968 -896 -2336) (-11520 -896 -2336)"
			"material" "TOOLS/TOOLSTRIGGER"
			"uaxis" "[-1 0 0 0] 0.25"
			"vaxis" "[0 -1 0 0] 0.25"
			"rotation" "0"
			"lightmapscale" "64"
			"smoothing_groups" "0"
		}
		side
		{
			"id" "93"
			"plane" "(-11968 -896 -1728) (-11968 640 -1728) (-11520 640 -1728)"
			"material" "TOOLS/TOOLSTRIGGER"
			"uaxis" "[1 0 0 0] 0.25"
			"vaxis" "[0 -1 0 0] 0.25"
			"rotation" "0"
			"lightmapscale" "64"
			"smoothing_groups" "0"
		}
		side
		{
			"id" "92"
			"plane" "(-11968 -896 -1728) (-11968 -896 -2336) (-11968 640 -2336)"
			"material" "TOOLS/TOOLSTRIGGER"
			"uaxis" "[0 -1 0 0] 0.25"
			"vaxis" "[0 0 -1 0] 0.25"
			"rotation" "0"
			"lightmapscale" "64"
			"smoothing_groups" "0"
		}
		side
		{
			"id" "91"
			"plane" "(-11520 640 -1728) (-11520 640 -2336) (-11520 -896 -2336)"
			"material" "TOOLS/TOOLSTRIGGER"
			"uaxis" "[0 1 0 0] 0.25"
			"vaxis" "[0 0 -1 0] 0.25"
			"rotation" "0"
			"lightmapscale" "64"
			"smoothing_groups" "0"
		}
		editor
		{
			"color" "220 30 220"
			"visgroupshown" "1"
			"visgroupautoshown" "1"
		}
	}
	editor
	{
		"color" "220 30 220"
		"visgroupshown" "1"
		"visgroupautoshown" "1"
		"logicalpos" "[5500 -15268]"
	}
}
entity
{
	"id" "17"
	"classname" "trigger_momentum_timer_stage"
	"origin" "5024 -128 816"
	"spawnflags" "1"
	"stage" "4"
	"StartDisabled" "0"
	"targetname" "4z"
	solid
	{
		"id" "18"
		side
		{
			"id" "102"
			"plane" "(4800 -896 1120) (4800 -896 512) (4800 640 512)"
			"material" "TOOLS/TOOLSTRIGGER"
			"uaxis" "[0 -1 0 0] 0.25"
			"vaxis" "[0 0 -1 0] 0.25"
			"rotation" "0"
			"lightmapscale" "64"
			"smoothing_groups" "0"
		}
		side
		{
			"id" "101"
			"plane" "(5248 640 1120) (5248 640 512) (5248 -896 512)"
			"material" "TOOLS/TOOLSTRIGGER"
			"uaxis" "[0 1 0 0] 0.25"
			"vaxis" "[0 0 -1 0] 0.25"
			"rotation" "0"
			"lightmapscale" "64"
			"smoothing_groups" "0"
		}
		side
		{
			"id" "100"
			"plane" "(5248 -896 1120) (5248 -896 512) (4800 -896 512)"
			"material" "TOOLS/TOOLSTRIGGER"
			"uaxis" "[1 0 0 0] 0.25"
			"vaxis" "[0 0 -1 0] 0.25"
			"rotation" "0"
			"lightmapscale" "64"
			"smoothing_groups" "0"
		}
		side
		{
			"id" "99"
			"plane" "(4800 640 1120) (4800 640 512) (5248 640 512)"
			"material" "TOOLS/TOOLSTRIGGER"
			"uaxis" "[-1 0 0 0] 0.25"
			"vaxis" "[0 0 -1 0] 0.25"
			"rotation" "0"
			"lightmapscale" "64"
			"smoothing_groups" "0"
		}
		side
		{
			"id" "98"
			"plane" "(4800 640 512) (4800 -896 512) (5248 -896 512)"
			"material" "TOOLS/TOOLSTRIGGER"
			"uaxis" "[-1 0 0 0] 0.25"
			"vaxis" "[0 -1 0 0] 0.25"
			"rotation" "0"
			"lightmapscale" "64"
			"smoothing_groups" "0"
		}
		side
		{
			"id" "97"
			"plane" "(4800 -896 1120) (4800 640 1120) (5248 640 1120)"
			"material" "TOOLS/TOOLSTRIGGER"
			"uaxis" "[1 0 0 0] 0.25"
			"vaxis" "[0 -1 0 0] 0.25"
			"rotation" "0"
			"lightmapscale" "64"
			"smoothing_groups" "0"
		}
		editor
		{
			"color" "220 30 220"
			"visgroupshown" "1"
			"visgroupautoshown" "1"
		}
	}
	editor
	{
		"color" "220 30 220"
		"visgroupshown" "1"
		"visgroupautoshown" "1"
		"logicalpos" "[5500 -16268]"
	}
}
entity
{
	"id" "20"
	"classname" "trigger_momentum_timer_stage"
	"origin" "1696 -128 2864"
	"spawnflags" "1"
	"stage" "2"
	"StartDisabled" "0"
	"targetname" "2z"
	solid
	{
		"id" "21"
		side
		{
			"id" "108"
			"plane" "(1472 -896 3168) (1472 -896 2560) (1472 640 2560)"
			"material" "TOOLS/TOOLSTRIGGER"
			"uaxis" "[0 -1 0 0] 0.25"
			"vaxis" "[0 0 -1 0] 0.25"
			"rotation" "0"
			"lightmapscale" "64"
			"smoothing_groups" "0"
		}
		side
		{
			"id" "107"
			"plane" "(1920 640 3168) (1920 640 2560) (1920 -896 2560)"
			"material" "TOOLS/TOOLSTRIGGER"
			"uaxis" "[0 1 0 0] 0.25"
			"vaxis" "[0 0 -1 0] 0.25"
			"rotation" "0"
			"lightmapscale" "64"
			"smoothing_groups" "0"
		}
		side
		{
			"id" "106"
			"plane" "(1920 -896 3168) (1920 -896 2560) (1472 -896 2560)"
			"material" "TOOLS/TOOLSTRIGGER"
			"uaxis" "[1 0 0 0] 0.25"
			"vaxis" "[0 0 -1 0] 0.25"
			"rotation" "0"
			"lightmapscale" "64"
			"smoothing_groups" "0"
		}
		side
		{
			"id" "105"
			"plane" "(1472 640 3168) (1472 640 2560) (1920 640 2560)"
			"material" "TOOLS/TOOLSTRIGGER"
			"uaxis" "[-1 0 0 0] 0.25"
			"vaxis" "[0 0 -1 0] 0.25"
			"rotation" "0"
			"lightmapscale" "64"
			"smoothing_groups" "0"
		}
		side
		{
			"id" "104"
			"plane" "(1472 640 2560) (1472 -896 2560) (1920 -896 2560)"
			"material" "TOOLS/TOOLSTRIGGER"
			"uaxis" "[-1 0 0 0] 0.25"
			"vaxis" "[0 -1 0 0] 0.25"
			"rotation" "0"
			"lightmapscale" "64"
			"smoothing_groups" "0"
		}
		side
		{
			"id" "103"
			"plane" "(1472 -896 3168) (1472 640 3168) (1920 640 3168)"
			"material" "TOOLS/TOOLSTRIGGER"
			"uaxis" "[1 0 0 0] 0.25"
			"vaxis" "[0 -1 0 0] 0.25"
			"rotation" "0"
			"lightmapscale" "64"
			"smoothing_groups" "0"
		}
		editor
		{
			"color" "220 30 220"
			"visgroupshown" "1"
			"visgroupautoshown" "1"
		}
	}
	editor
	{
		"color" "220 30 220"
		"visgroupshown" "1"
		"visgroupautoshown" "1"
		"logicalpos" "[5500 15500]"
	}
}
entity
{
	"id" "26"
	"classname" "trigger_momentum_timer_start"
	"bhopleavespeed" "350"
	"LimitSpeedType" "0"
	"lookangles" "0 0 0"
	"origin" "-10496 7680 8368"
	"spawnflags" "8193"
	"StartDisabled" "0"
	"StartOnJump" "1"
	"ZoneNumber" "1"
	solid
	{
		"id" "27"
		side
		{
			"id" "120"
			"plane" "(-11360 7488 8576) (-11360 7488 8160) (-11360 7872 8160)"
			"material" "TOOLS/TOOLSTRIGGER"
			"uaxis" "[0 1 0 0] 0.25"
			"vaxis" "[0 0 -1 0] 0.25"
			"rotation" "0"
			"lightmapscale" "64"
			"smoothing_groups" "0"
		}
		side
		{
			"id" "119"
			"plane" "(-9632 7872 8576) (-9632 7872 8160) (-9632 7488 8160)"
			"material" "TOOLS/TOOLSTRIGGER"
			"uaxis" "[0 1 0 0] 0.25"
			"vaxis" "[0 0 -1 0] 0.25"
			"rotation" "0"
			"lightmapscale" "64"
			"smoothing_groups" "0"
		}
		side
		{
			"id" "118"
			"plane" "(-9632 7488 8576) (-9632 7488 8160) (-11360 7488 8160)"
			"material" "TOOLS/TOOLSTRIGGER"
			"uaxis" "[1 0 0 0] 0.25"
			"vaxis" "[0 0 -1 0] 0.25"
			"rotation" "0"
			"lightmapscale" "64"
			"smoothing_groups" "0"
		}
		side
		{
			"id" "117"
			"plane" "(-11360 7872 8576) (-11360 7872 8160) (-9632 7872 8160)"
			"material" "TOOLS/TOOLSTRIGGER"
			"uaxis" "[1 0 0 0] 0.25"
			"vaxis" "[0 0 -1 0] 0.25"
			"rotation" "0"
			"lightmapscale" "64"
			"smoothing_groups" "0"
		}
		side
		{
			"id" "116"
			"plane" "(-11360 7872 8160) (-11360 7488 8160) (-9632 7488 8160)"
			"material" "TOOLS/TOOLSTRIGGER"
			"uaxis" "[1 0 0 0] 0.25"
			"vaxis" "[0 -1 0 0] 0.25"
			"rotation" "0"
			"lightmapscale" "64"
			"smoothing_groups" "0"
		}
		side
		{
			"id" "115"
			"plane" "(-11360 7488 8576) (-11360 7872 8576) (-9632 7872 8576)"
			"material" "TOOLS/TOOLSTRIGGER"
			"uaxis" "[1 0 0 0] 0.25"
			"vaxis" "[0 -1 0 0] 0.25"
			"rotation" "0"
			"lightmapscale" "64"
			"smoothing_groups" "0"
		}
		editor
		{
			"color" "220 30 220"
			"visgroupshown" "1"
			"visgroupautoshown" "1"
		}
	}
	editor
	{
		"color" "220 30 220"
		"visgroupshown" "1"
		"visgroupautoshown" "1"
		"logicalpos" "[6000 2000]"
	}
}
entity
{
	"id" "29"
	"classname" "trigger_momentum_timer_start"
	"bhopleavespeed" "350"
	"LimitSpeedType" "0"
	"lookangles" "0 0 0"
	"origin" "-1568 -128 3408"
	"spawnflags" "8193"
	"StartDisabled" "0"
	"StartOnJump" "1"
	"targetname" "1z"
	"ZoneNumber" "0"
	solid
	{
		"id" "30"
		side
		{
			"id" "126"
			"plane" "(-1792 -896 3584) (-1792 -896 3232) (-1792 640 3232)"
			"material" "TOOLS/TOOLSTRIGGER"
			"uaxis" "[0 -1 0 0] 0.25"
			"vaxis" "[0 0 -1 0] 0.25"
			"rotation" "0"
			"lightmapscale" "64"
			"smoothing_groups" "0"
		}
		side
		{
			"id" "125"
			"plane" "(-1344 640 3584) (-1344 640 3232) (-1344 -896 3232)"
			"material" "TOOLS/TOOLSTRIGGER"
			"uaxis" "[0 1 0 0] 0.25"
			"vaxis" "[0 0 -1 0] 0.25"
			"rotation" "0"
			"lightmapscale" "64"
			"smoothing_groups" "0"
		}
		side
		{
			"id" "124"
			"plane" "(-1344 -896 3584) (-1344 -896 3232) (-1792 -896 3232)"
			"material" "TOOLS/TOOLSTRIGGER"
			"uaxis" "[1 0 0 0] 0.25"
			"vaxis" "[0 0 -1 0] 0.25"
			"rotation" "0"
			"lightmapscale" "64"
			"smoothing_groups" "0"
		}
		side
		{
			"id" "123"
			"plane" "(-1792 640 3584) (-1792 640 3232) (-1344 640 3232)"
			"material" "TOOLS/TOOLSTRIGGER"
			"uaxis" "[-1 0 0 0] 0.25"
			"vaxis" "[0 0 -1 0] 0.25"
			"rotation" "0"
			"lightmapscale" "64"
			"smoothing_groups" "0"
		}
		side
		{
			"id" "122"
			"plane" "(-1792 640 3232) (-1792 -896 3232) (-1344 -896 3232)"
			"material" "TOOLS/TOOLSTRIGGER"
			"uaxis" "[-1 0 0 0] 0.25"
			"vaxis" "[0 -1 0 0] 0.25"
			"rotation" "0"
			"lightmapscale" "64"
			"smoothing_groups" "0"
		}
		side
		{
			"id" "121"
			"plane" "(-1792 -896 3584) (-1792 640 3584) (-1344 640 3584)"
			"material" "TOOLS/TOOLSTRIGGER"
			"uaxis" "[1 0 0 0] 0.25"
			"vaxis" "[0 -1 0 0] 0.25"
			"rotation" "0"
			"lightmapscale" "64"
			"smoothing_groups" "0"
		}
		editor
		{
			"color" "220 30 220"
			"visgroupshown" "1"
			"visgroupautoshown" "1"
		}
	}
	editor
	{
		"color" "220 30 220"
		"visgroupshown" "1"
		"visgroupautoshown" "1"
		"logicalpos" "[5500 15000]"
	}
}
entity
{
	"id" "32"
	"classname" "trigger_momentum_timer_stop"
	"origin" "8576.5 10128.5 7779.69"
	"spawnflags" "1"
	"StartDisabled" "0"
	"targetname" "endb"
	"ZoneNumber" "1"
	solid
	{
		"id" "33"
		side
		{
			"id" "132"
			"plane" "(8321 8801 8128) (8321 8801 7424) (8321 11456 7424)"
			"material" "TOOLS/TOOLSTRIGGER"
			"uaxis" "[0 -1 0 0] 0.25"
			"vaxis" "[0 0 -1 0] 0.25"
			"rotation" "0"
			"lightmapscale" "64"
			"smoothing_groups" "0"
		}
		side
		{
			"id" "131"
			"plane" "(8832 11456 8128) (8832 11456 7424) (8832 8801 7424)"
			"material" "TOOLS/TOOLSTRIGGER"
			"uaxis" "[0 1 0 0] 0.25"
			"vaxis" "[0 0 -1 0] 0.25"
			"rotation" "0"
			"lightmapscale" "64"
			"smoothing_groups" "0"
		}
		side
		{
			"id" "130"
			"plane" "(8832 8801 8128) (8832 8801 7424) (8321 8801 7424)"
			"material" "TOOLS/TOOLSTRIGGER"
			"uaxis" "[1 0 0 0] 0.25"
			"vaxis" "[0 0 -1 0] 0.25"
			"rotation" "0"
			"lightmapscale" "64"
			"smoothing_groups" "0"
		}
		side
		{
			"id" "129"
			"plane" "(8321 11456 8128) (8321 11456 7424) (8832 11456 7424)"
			"material" "TOOLS/TOOLSTRIGGER"
			"uaxis" "[-1 0 0 0] 0.25"
			"vaxis" "[0 0 -1 0] 0.25"
			"rotation" "0"
			"lightmapscale" "64"
			"smoothing_groups" "0"
		}
		side
		{
			"id" "128"
			"plane" "(8321 11456 7424) (8321 8801 7424) (8832 8801 7424)"
			"material" "TOOLS/TOOLSTRIGGER"
			"uaxis" "[-1 0 0 0] 0.25"
			"vaxis" "[0 -1 0 0] 0.25"
			"rotation" "0"
			"lightmapscale" "64"
			"smoothing_groups" "0"
		}
		side
		{
			"id" "127"
			"plane" "(8321 8801 8128) (8321 11456 8128) (8832 11456 8128)"
			"material" "TOOLS/TOOLSTRIGGER"
			"uaxis" "[1 0 0 0] 0.25"
			"vaxis" "[0 -1 0 0] 0.25"
			"rotation" "0"
			"lightmapscale" "64"
			"smoothing_groups" "0"
		}
		editor
		{
			"color" "220 30 220"
			"visgroupshown" "1"
			"visgroupautoshown" "1"
		}
	}
	editor
	{
		"color" "220 30 220"
		"visgroupshown" "1"
		"visgroupautoshown" "1"
		"logicalpos" "[5500 -7768]"
	}
}
entity
{
	"id" "35"
	"classname" "trigger_momentum_timer_stop"
	"origin" "-10992 2320 9248.5"
	"spawnflags" "1"
	"StartDisabled" "0"
	"targetname" "endm"
	"ZoneNumber" "0"
	solid
	{
		"id" "36"
		side
		{
			"id" "138"
			"plane" "(-11232 2080 9344) (-11232 2080 9153) (-11232 2560 9153)"
			"material" "TOOLS/TOOLSTRIGGER"
			"uaxis" "[0 -1 0 0] 0.25"
			"vaxis" "[0 0 -1 0] 0.25"
			"rotation" "0"
			"lightmapscale" "64"
			"smoothing_groups" "0"
		}
		side
		{
			"id" "137"
			"plane" "(-10752 2560 9344) (-10752 2560 9153) (-10752 2080 9153)"
			"material" "TOOLS/TOOLSTRIGGER"
			"uaxis" "[0 1 0 0] 0.25"
			"vaxis" "[0 0 -1 0] 0.25"
			"rotation" "0"
			"lightmapscale" "64"
			"smoothing_groups" "0"
		}
		side
		{
			"id" "136"
			"plane" "(-10752 2080 9344) (-10752 2080 9153) (-11232 2080 9153)"
			"material" "TOOLS/TOOLSTRIGGER"
			"uaxis" "[1 0 0 0] 0.25"
			"vaxis" "[0 0 -1 0] 0.25"
			"rotation" "0"
			"lightmapscale" "64"
			"smoothing_groups" "0"
		}
		side
		{
			"id" "135"
			"plane" "(-11232 2560 9344) (-11232 2560 9153) (-10752 2560 9153)"
			"material" "TOOLS/TOOLSTRIGGER"
			"uaxis" "[-1 0 0 0] 0.25"
			"vaxis" "[0 0 -1 0] 0.25"
			"rotation" "0"
			"lightmapscale" "64"
			"smoothing_groups" "0"
		}
		side
		{
			"id" "134"
			"plane" "(-11232 2560 9153) (-11232 2080 9153) (-10752 2080 9153)"
			"material" "TOOLS/TOOLSTRIGGER"
			"uaxis" "[-1 0 0 0] 0.25"
			"vaxis" "[0 -1 0 0] 0.25"
			"rotation" "0"
			"lightmapscale" "64"
			"smoothing_groups" "0"
		}
		side
		{
			"id" "133"
			"plane" "(-11232 2080 9344) (-11232 2560 9344) (-10752 2560 9344)"
			"material" "TOOLS/TOOLSTRIGGER"
			"uaxis" "[1 0 0 0] 0.25"
			"vaxis" "[0 -1 0 0] 0.25"
			"rotation" "0"
			"lightmapscale" "64"
			"smoothing_groups" "0"
		}
		editor
		{
			"color" "220 30 220"
			"visgroupshown" "1"
			"visgroupautoshown" "1"
		}
	}
	editor
	{
		"color" "220 30 220"
		"visgroupshown" "1"
		"visgroupautoshown" "1"
		"logicalpos" "[5500 -8268]"
	}
}
entity
{
	"id" "23"
	"classname" "trigger_momentum_timer_start"
	"bhopleavespeed" "350"
	"LimitSpeedType" "0"
	"lookangles" "0 0 0"
	"origin" "-10496 12608 8368"
	"spawnflags" "8193"
	"StartDisabled" "0"
	"StartOnJump" "1"
	"ZoneNumber" "1"
	solid
	{
		"id" "24"
		side
		{
			"id" "156"
			"plane" "(-11360 12800 8160) (-9632 12800 8160) (-9632 12800 8576)"
			"material" "TOOLS/TOOLSTRIGGER"
			"uaxis" "[1 0 0 0] 0.25"
			"vaxis" "[0 0 -1 0] 0.25"
			"rotation" "0"
			"lightmapscale" "64"
			"smoothing_groups" "0"
		}
		side
		{
			"id" "155"
			"plane" "(-9632 12800 8160) (-11360 12800 8160) (-11360 12416 8160)"
			"material" "TOOLS/TOOLSTRIGGER"
			"uaxis" "[1 0 0 0] 0.25"
			"vaxis" "[0 -1 0 0] 0.25"
			"rotation" "0"
			"lightmapscale" "64"
			"smoothing_groups" "0"
		}
		side
		{
			"id" "154"
			"plane" "(-11360 12416 8576) (-11360 12800 8576) (-9632 12800 8576)"
			"material" "TOOLS/TOOLSTRIGGER"
			"uaxis" "[1 0 0 0] 0.25"
			"vaxis" "[0 -1 0 0] 0.25"
			"rotation" "0"
			"lightmapscale" "64"
			"smoothing_groups" "0"
		}
		side
		{
			"id" "153"
			"plane" "(-11360 12416 8160) (-11360 12800 8160) (-11360 12800 8576)"
			"material" "TOOLS/TOOLSTRIGGER"
			"uaxis" "[0 1 0 0] 0.25"
			"vaxis" "[0 0 -1 0] 0.25"
			"rotation" "0"
			"lightmapscale" "64"
			"smoothing_groups" "0"
		}
		side
		{
			"id" "152"
			"plane" "(-9632 12800 8576) (-9632 12800 8160) (-9632 12416 8160)"
			"material" "TOOLS/TOOLSTRIGGER"
			"uaxis" "[0 1 0 0] 0.25"
			"vaxis" "[0 0 -1 0] 0.25"
			"rotation" "0"
			"lightmapscale" "64"
			"smoothing_groups" "0"
		}
		side
		{
			"id" "151"
			"plane" "(-9632 12416 8160) (-11360 12416 8160) (-11360 12416 8576)"
			"material" "TOOLS/TOOLSTRIGGER"
			"uaxis" "[1 0 0 0] 0.25"
			"vaxis" "[0 0 -1 0] 0.25"
			"rotation" "0"
			"lightmapscale" "64"
			"smoothing_groups" "0"
		}
		editor
		{
			"color" "220 30 220"
			"visgroupshown" "1"
			"visgroupautoshown" "1"
		}
	}
	editor
	{
		"color" "220 30 220"
		"visgroupshown" "1"
		"visgroupautoshown" "1"
		"logicalpos" "[6000 4000]"
	}
}
cameras
{
	"activecamera" "-1"
}
cordon
{
	"mins" "(-1024 -1024 -1024)"
	"maxs" "(1024 1024 1024)"
	"active" "0"
}
