LightmappedGeneric
{
	$basetexture waterfall/WaterfallFULL_1024_CLEAR
	"$translucent" 1
	"proxies"
	{
		"TextureScroll"
			{
			"Texturescrollvar" "$Basetexturetransform"
			"Texturescrollrate" "1.3"
			"texturescrollangle" "270"
			}
	}
}