versioninfo
{
	"editorversion" "400"
	"editorbuild" "7538"
	"mapversion" "7"
	"formatversion" "100"
	"prefab" "0"
}
visgroups
{
}
viewsettings
{
	"bSnapToGrid" "1"
	"bShowGrid" "1"
	"bShowLogicalGrid" "0"
	"nGridSpacing" "1"
	"bShow3DGrid" "0"
}
world
{
	"id" "1"
	"mapversion" "7"
	"classname" "worldspawn"
	"detailmaterial" "detail/detailsprites"
	"detailvbsp" "detail.vbsp"
	"maxpropscreenwidth" "-1"
	"skyname" "sky_day01_01"
}
entity
{
	"id" "97"
	"classname" "func_detail"
	solid
	{
		"id" "8"
		side
		{
			"id" "546"
			"plane" "(-13213.8 -4312.57 6519.05) (-12937.3 -4563.49 6663.48) (-12937.3 -4634.89 6663.48)"
			"material" "TOOLS/TOOLSNODRAW"
			"uaxis" "[0.598855 -0.71005 0.370269 -30.0156] 0.25"
			"vaxis" "[-0.147622 -0.552316 -0.820398 22.0352] 0.25"
			"rotation" "0"
			"lightmapscale" "16"
			"smoothing_groups" "0"
		}
		side
		{
			"id" "545"
			"plane" "(-13123.4 -4908.61 6289.75) (-12846.9 -4634.88 6434.17) (-12846.9 -4563.48 6434.18)"
			"material" "TOOLS/TOOLSNODRAW"
			"uaxis" "[-0.521799 0.786502 -0.33021 -22.3984] 0.25"
			"vaxis" "[-0.848026 -0.436527 0.300323 -17.7422] 0.25"
			"rotation" "0"
			"lightmapscale" "16"
			"smoothing_groups" "0"
		}
		side
		{
			"id" "544"
			"plane" "(-13123.4 -4312.54 6289.75) (-12846.9 -4563.47 6434.18) (-12937.3 -4563.49 6663.48)"
			"material" "TOOLS/TOOLSNODRAW"
			"uaxis" "[0.477483 0.0597087 -0.876551 -48.8716] 0.25"
			"vaxis" "[-0.667711 -0.623741 -0.40621 -46.5781] 0.25"
			"rotation" "0"
			"lightmapscale" "16"
			"smoothing_groups" "0"
		}
		side
		{
			"id" "543"
			"plane" "(-12846.9 -4634.87 6434.18) (-13123.4 -4908.6 6289.76) (-13232.1 -4926.69 6509.54)"
			"material" "DEV/DEV_MEASUREGENERIC01"
			"uaxis" "[0.499549 0.0396496 -0.865319 -25.0822] 0.25"
			"vaxis" "[-0.866062 0.00339326 -0.499822 -36.1514] 0.25"
			"rotation" "0"
			"lightmapscale" "16"
			"smoothing_groups" "0"
		}
		side
		{
			"id" "542"
			"plane" "(-12846.9 -4563.47 6434.18) (-12846.9 -4634.87 6434.18) (-12937.3 -4634.88 6663.48)"
			"material" "TOOLS/TOOLSNODRAW"
			"uaxis" "[0.259251 0.0693894 -0.963261 -21.4639] 0.25"
			"vaxis" "[0.005449 -0.997454 -0.070386 40.1162] 0.25"
			"rotation" "0"
			"lightmapscale" "16"
			"smoothing_groups" "0"
		}
		side
		{
			"id" "541"
			"plane" "(-13123.4 -4908.6 6289.75) (-13123.4 -4312.55 6289.75) (-13213.8 -4312.56 6519.05)"
			"material" "TOOLS/TOOLSNODRAW"
			"uaxis" "[0.452625 -0.292145 -0.842425 -42.7246] 0.25"
			"vaxis" "[0.126285 0.956232 -0.263761 56.6289] 0.25"
			"rotation" "0"
			"lightmapscale" "16"
			"smoothing_groups" "0"
		}
		editor
		{
			"color" "0 180 0"
			"visgroupshown" "1"
			"visgroupautoshown" "1"
		}
	}
}
cameras
{
	"activecamera" "-1"
}
cordon
{
	"mins" "(-1024 -1024 -1024)"
	"maxs" "(1024 1024 1024)"
	"active" "0"
}
