versioninfo
{
	"editorversion" "400"
	"editorbuild" "7538"
	"mapversion" "1"
	"formatversion" "100"
	"prefab" "0"
}
visgroups
{
}
viewsettings
{
	"bSnapToGrid" "1"
	"bShowGrid" "1"
	"bShowLogicalGrid" "0"
	"nGridSpacing" "64"
	"bShow3DGrid" "0"
}
world
{
	"id" "1"
	"mapversion" "1"
	"classname" "worldspawn"
	"skyname" "sky_day01_01"
	"maxpropscreenwidth" "-1"
	"detailvbsp" "detail.vbsp"
	"detailmaterial" "detail/detailsprites"
}
entity
{
	"id" "21"
	"classname" "func_detail"
	solid
	{
		"id" "15"
		side
		{
			"id" "38"
			"plane" "(-10944 -4608 4992) (-11008 -4608 5120) (-11072 -4608 4992)"
			"material" "EGYPT/WALL_STONE1_PLAIN"
			"uaxis" "[1 0 0 0] 0.25"
			"vaxis" "[0 0 -1 0] 0.25"
			"rotation" "0"
			"lightmapscale" "16"
			"smoothing_groups" "0"
		}
		side
		{
			"id" "37"
			"plane" "(-11008 -4864 5120) (-10944 -4864 4992) (-11072 -4864 4992)"
			"material" "EGYPT/WALL_STONE1_PLAIN"
			"uaxis" "[1 0 0 0] 0.25"
			"vaxis" "[0 0 -1 0] 0.25"
			"rotation" "0"
			"lightmapscale" "16"
			"smoothing_groups" "0"
		}
		side
		{
			"id" "36"
			"plane" "(-11008 -4608 5120) (-10944 -4608 4992) (-10944 -4864 4992)"
			"material" "EGYPT/WALL_STONE1_PLAIN"
			"uaxis" "[0 1 0 0] 0.25"
			"vaxis" "[0 0 -1 0] 0.25"
			"rotation" "0"
			"lightmapscale" "16"
			"smoothing_groups" "0"
		}
		side
		{
			"id" "35"
			"plane" "(-11008 -4864 5120) (-11072 -4864 4992) (-11072 -4608 4992)"
			"material" "EGYPT/WALL_STONE1_PLAIN"
			"uaxis" "[0 1 0 0] 0.25"
			"vaxis" "[0 0 -1 0] 0.25"
			"rotation" "0"
			"lightmapscale" "16"
			"smoothing_groups" "0"
		}
		side
		{
			"id" "34"
			"plane" "(-10944 -4608 4992) (-11072 -4608 4992) (-11072 -4864 4992)"
			"material" "EGYPT/WALL_STONE1_PLAIN"
			"uaxis" "[1 0 0 0] 0.25"
			"vaxis" "[0 -1 0 0] 0.25"
			"rotation" "0"
			"lightmapscale" "16"
			"smoothing_groups" "0"
		}
		editor
		{
			"color" "0 180 0"
			"visgroupshown" "1"
			"visgroupautoshown" "1"
		}
	}
	solid
	{
		"id" "16"
		side
		{
			"id" "44"
			"plane" "(-10784 -4608 4672) (-10944 -4608 4992) (-11072 -4608 4992)"
			"material" "EGYPT/WALL_STONE1_PLAIN"
			"uaxis" "[1 0 0 0] 0.25"
			"vaxis" "[0 0 -1 0] 0.25"
			"rotation" "0"
			"lightmapscale" "16"
			"smoothing_groups" "0"
		}
		side
		{
			"id" "43"
			"plane" "(-10944 -4864 4992) (-10784 -4864 4672) (-11232 -4864 4672)"
			"material" "EGYPT/WALL_STONE1_PLAIN"
			"uaxis" "[1 0 0 0] 0.25"
			"vaxis" "[0 0 -1 0] 0.25"
			"rotation" "0"
			"lightmapscale" "16"
			"smoothing_groups" "0"
		}
		side
		{
			"id" "42"
			"plane" "(-10944 -4608 4992) (-10784 -4608 4672) (-10784 -4864 4672)"
			"material" "EGYPT/WALL_STONE1_PLAIN"
			"uaxis" "[0 1 0 0] 0.25"
			"vaxis" "[0 0 -1 0] 0.25"
			"rotation" "0"
			"lightmapscale" "16"
			"smoothing_groups" "0"
		}
		side
		{
			"id" "41"
			"plane" "(-11072 -4864 4992) (-11232 -4864 4672) (-11232 -4608 4672)"
			"material" "EGYPT/WALL_STONE1_PLAIN"
			"uaxis" "[0 1 0 0] 0.25"
			"vaxis" "[0 0 -1 0] 0.25"
			"rotation" "0"
			"lightmapscale" "16"
			"smoothing_groups" "0"
		}
		side
		{
			"id" "40"
			"plane" "(-10784 -4608 4672) (-11232 -4608 4672) (-11232 -4864 4672)"
			"material" "EGYPT/WALL_STONE1_PLAIN"
			"uaxis" "[1 0 0 0] 0.25"
			"vaxis" "[0 -1 0 0] 0.25"
			"rotation" "0"
			"lightmapscale" "16"
			"smoothing_groups" "0"
		}
		side
		{
			"id" "39"
			"plane" "(-10944 -4864 4992) (-11072 -4864 4992) (-11072 -4608 4992)"
			"material" "EGYPT/WALL_STONE1_PLAIN"
			"uaxis" "[1 0 0 0] 0.25"
			"vaxis" "[0 -1 0 0] 0.25"
			"rotation" "0"
			"lightmapscale" "16"
			"smoothing_groups" "0"
		}
		editor
		{
			"color" "0 180 0"
			"visgroupshown" "1"
			"visgroupautoshown" "1"
		}
	}
	solid
	{
		"id" "17"
		side
		{
			"id" "50"
			"plane" "(-10752 -4608 4608) (-11264 -4608 4608) (-11264 -4864 4608)"
			"material" "EGYPT/WALL_STONE1_PLAIN"
			"uaxis" "[1 0 0 0] 0.25"
			"vaxis" "[0 -1 0 0] 0.25"
			"rotation" "0"
			"lightmapscale" "16"
			"smoothing_groups" "0"
		}
		side
		{
			"id" "49"
			"plane" "(-11264 -4608 4608) (-10752 -4608 4608) (-10784 -4608 4672)"
			"material" "EGYPT/WALL_STONE1_PLAIN"
			"uaxis" "[1 0 0 0] 0.25"
			"vaxis" "[0 0 -1 0] 0.25"
			"rotation" "0"
			"lightmapscale" "16"
			"smoothing_groups" "0"
		}
		side
		{
			"id" "48"
			"plane" "(-10784 -4864 4672) (-10752 -4864 4608) (-11264 -4864 4608)"
			"material" "EGYPT/WALL_STONE1_PLAIN"
			"uaxis" "[1 0 0 0] 0.25"
			"vaxis" "[0 0 -1 0] 0.25"
			"rotation" "0"
			"lightmapscale" "16"
			"smoothing_groups" "0"
		}
		side
		{
			"id" "47"
			"plane" "(-10784 -4608 4672) (-10752 -4608 4608) (-10752 -4864 4608)"
			"material" "EGYPT/WALL_STONE1_PLAIN"
			"uaxis" "[0 1 0 0] 0.25"
			"vaxis" "[0 0 -1 0] 0.25"
			"rotation" "0"
			"lightmapscale" "16"
			"smoothing_groups" "0"
		}
		side
		{
			"id" "46"
			"plane" "(-11232 -4864 4672) (-11264 -4864 4608) (-11264 -4608 4608)"
			"material" "EGYPT/WALL_STONE1_PLAIN"
			"uaxis" "[0 1 0 0] 0.25"
			"vaxis" "[0 0 -1 0] 0.25"
			"rotation" "0"
			"lightmapscale" "16"
			"smoothing_groups" "0"
		}
		side
		{
			"id" "45"
			"plane" "(-10784 -4864 4672) (-11232 -4864 4672) (-11232 -4608 4672)"
			"material" "EGYPT/WALL_STONE1_PLAIN"
			"uaxis" "[1 0 0 0] 0.25"
			"vaxis" "[0 -1 0 0] 0.25"
			"rotation" "0"
			"lightmapscale" "16"
			"smoothing_groups" "0"
		}
		editor
		{
			"color" "0 180 0"
			"visgroupshown" "1"
			"visgroupautoshown" "1"
		}
	}
	editor
	{
		"color" "0 180 0"
		"visgroupshown" "1"
		"visgroupautoshown" "1"
		"logicalpos" "[0 3000]"
	}
}
cameras
{
	"activecamera" "-1"
}
cordon
{
	"mins" "(-1024 -1024 -1024)"
	"maxs" "(1024 1024 1024)"
	"active" "0"
}
