"vertexlitgeneric" {
    "$basetexture" "customs\gold01"
    "$bumpmap" "customs\gold01_normal"
    "$envmapmask" "customs\gold01_spec"
    "$envmap" "env_cubemap"
    "$envmaptint" "[ 0.3 0.3 0.3 ]"
    "$surfaceprop" "metal"
    "$normalmapalphaenvmapmask" "1"
}
