"patch"
{
	"include"		"materials/GLASS/PRODWNDWA.vmt"
	"replace"
	{
		"$envmap"		"maps/surf_palette_v2/c-987_2776_1744"
		"$crackmaterial"		"maps/surf_palette_v2/glass/glasswindowbreak070b_-987_2776_1744"
	}
}
