"lightmappedgeneric"
{
	"$basetexture" "custom/river_flat_01"
	"$bumpmap" "custom/river_flat_nrm"
	"$translucent" "1"
	"$envmap" "env_cubemap"
	"$envmapsaturation" ".3"
	"$envmaptint" "[.8 .8 .8]"
	"$nocull" "1"
	Proxies
	{
		TextureScroll
		{
			texturescrollvar $Basetexturetransform
			texturescrollrate 1.25
			texturescrollangle 0.00
		}
	}
}