"lightmappedGeneric"
{
	"$baseTexture" "ChaoZ/intbrickk_red"
	"$surfaceprop" "rock"
 	"$envmap" "env_cubemap"
	"$envmapcontrast" "1"
	"$envmapmask" "ChaoZ/specular/intbrickk_spec"
	"%keywords" "cstrike"
}
