//SintaxError's Invisible water texture
"UnlitGeneric"
{
	//Make sure to change this if you move the texture
	"$basetexture" "invisiwater/water_invisible"
	
	
	"$surfaceprop" "water"
	"%compilewater" 1
	"%keywords" "invisible, water, tools"
	"%compileNodraw" 1
	"$alpha" 0.5
}