versioninfo
{
	"editorversion" "400"
	"editorbuild" "7538"
	"mapversion" "14"
	"formatversion" "100"
	"prefab" "0"
}
visgroups
{
	visgroup
	{
		"name" "original"
		"visgroupid" "4"
		"color" "179 208 225"
	}
}
viewsettings
{
	"bSnapToGrid" "1"
	"bShowGrid" "1"
	"bShowLogicalGrid" "0"
	"nGridSpacing" "1"
	"bShow3DGrid" "0"
}
world
{
	"id" "1"
	"mapversion" "14"
	"classname" "worldspawn"
	"skyname" "sky_day01_01"
	"maxpropscreenwidth" "-1"
	"detailvbsp" "detail.vbsp"
	"detailmaterial" "detail/detailsprites"
	hidden
	{
		solid
		{
			"id" "4"
			side
			{
				"id" "90"
				"plane" "(865.555 3254 -3040.2) (865.557 3254 -2592.48) (895.556 3254 -2592.49)"
				"material" "METAL/CITADEL_TILEFLOOR016A_CHEAP"
				"uaxis" "[-0.819152 0 0.573576 406.29] 0.25"
				"vaxis" "[-0.573576 0 -0.819152 266.457] 0.25"
				"rotation" "0"
				"lightmapscale" "16"
				"smoothing_groups" "0"
			}
			side
			{
				"id" "89"
				"plane" "(895.561 5259 -3040.2) (895.552 5259 -2592.49) (865.558 5259 -2592.48)"
				"material" "METAL/CITADEL_TILEFLOOR016A_CHEAP"
				"uaxis" "[0.819152 0 -0.573576 -406.29] 0.25"
				"vaxis" "[-0.573576 0 -0.819152 266.457] 0.25"
				"rotation" "0"
				"lightmapscale" "16"
				"smoothing_groups" "0"
			}
			side
			{
				"id" "88"
				"plane" "(865.557 3254 -2592.48) (865.558 5259 -2592.48) (895.552 5259 -2592.49)"
				"material" "METAL/CITADEL_TILEFLOOR016A_CHEAP"
				"uaxis" "[1 0 0 -118.115] 0.25"
				"vaxis" "[0 -1 0 -411.992] 0.25"
				"rotation" "0"
				"lightmapscale" "16"
				"smoothing_groups" "0"
			}
			side
			{
				"id" "87"
				"plane" "(865.551 5259 -3040.2) (865.555 3254 -3040.2) (895.556 3254 -3040.2)"
				"material" "METAL/CITADEL_TILEFLOOR016A_CHEAP"
				"uaxis" "[1 0 0 -118.115] 0.25"
				"vaxis" "[0 -1 0 -411.992] 0.25"
				"rotation" "0"
				"lightmapscale" "16"
				"smoothing_groups" "0"
			}
			side
			{
				"id" "86"
				"plane" "(895.561 5259 -3040.2) (895.556 3254 -3040.2) (895.556 3254 -2592.49)"
				"material" "METAL/CITADEL_TILEFLOOR016A_CHEAP"
				"uaxis" "[0 1 0 411.992] 0.25"
				"vaxis" "[0 0 -1 -290.169] 0.25"
				"rotation" "0"
				"lightmapscale" "16"
				"smoothing_groups" "0"
			}
			side
			{
				"id" "85"
				"plane" "(865.555 3254 -3040.2) (865.551 5259 -3040.2) (865.558 5259 -2592.48)"
				"material" "METAL/CITADEL_TILEFLOOR016A_CHEAP"
				"uaxis" "[0 1 0 411.992] 0.25"
				"vaxis" "[0 0 -1 -290.169] 0.25"
				"rotation" "0"
				"lightmapscale" "16"
				"smoothing_groups" "0"
			}
			editor
			{
				"color" "0 184 253"
				"visgroupid" "4"
				"visgroupshown" "0"
				"visgroupautoshown" "1"
			}
		}
	}
	hidden
	{
		solid
		{
			"id" "5"
			side
			{
				"id" "96"
				"plane" "(-1344.05 4249.49 -3030.1) (895.286 4249.48 -3030.43) (895.296 4241 -3038.94)"
				"material" "METAL/CITADEL_TILEFLOOR016A_CHEAP"
				"uaxis" "[1 0 0 -417.66] 0.25"
				"vaxis" "[0 -0.7058 -0.708373 -308.202] 0.25"
				"rotation" "0"
				"lightmapscale" "16"
				"smoothing_groups" "0"
			}
			side
			{
				"id" "95"
				"plane" "(-1344.02 4448.91 -3247.29) (895.338 4448.9 -3247.61) (895.329 4457.37 -3239.09)"
				"material" "METAL/CITADEL_TILEFLOOR016A_CHEAP"
				"uaxis" "[1 0 0 -417.66] 0.25"
				"vaxis" "[0 -0.7058 -0.708373 -308.202] 0.25"
				"rotation" "0"
				"lightmapscale" "16"
				"smoothing_groups" "0"
			}
			side
			{
				"id" "94"
				"plane" "(-1344.02 4457.39 -3238.77) (-1344.05 4249.49 -3030.1) (-1344.04 4241 -3038.61)"
				"material" "METAL/CITADEL_TILEFLOOR016A_CHEAP"
				"uaxis" "[0 0.7071 0.707096 269.962] 0.25"
				"vaxis" "[0 0.7071 -0.707096 -393.316] 0.25"
				"rotation" "0"
				"lightmapscale" "16"
				"smoothing_groups" "0"
			}
			side
			{
				"id" "93"
				"plane" "(895.338 4448.9 -3247.61) (895.296 4241 -3038.94) (895.286 4249.48 -3030.43)"
				"material" "METAL/CITADEL_TILEFLOOR016A_CHEAP"
				"uaxis" "[0 0.7071 0.707096 269.962] 0.25"
				"vaxis" "[0 0.7071 -0.707096 -393.316] 0.25"
				"rotation" "0"
				"lightmapscale" "16"
				"smoothing_groups" "0"
			}
			side
			{
				"id" "92"
				"plane" "(895.329 4457.37 -3239.09) (895.286 4249.48 -3030.43) (-1344.05 4249.49 -3030.1)"
				"material" "METAL/CITADEL_TILEFLOOR016A_CHEAP"
				"uaxis" "[1 0 0 -417.66] 0.25"
				"vaxis" "[0 0.7058 -0.708373 -386.556] 0.25"
				"rotation" "0"
				"lightmapscale" "16"
				"smoothing_groups" "0"
			}
			side
			{
				"id" "91"
				"plane" "(-1344.02 4448.91 -3247.29) (-1344.04 4241 -3038.61) (895.296 4241 -3038.94)"
				"material" "METAL/CITADEL_TILEFLOOR016A_CHEAP"
				"uaxis" "[1 0 0 -417.66] 0.25"
				"vaxis" "[0 0.7058 -0.708373 -386.556] 0.25"
				"rotation" "0"
				"lightmapscale" "16"
				"smoothing_groups" "0"
			}
			editor
			{
				"color" "0 128 181"
				"visgroupid" "4"
				"visgroupshown" "0"
				"visgroupautoshown" "1"
			}
		}
	}
	hidden
	{
		solid
		{
			"id" "6"
			side
			{
				"id" "102"
				"plane" "(896.03 4249.48 -3447.09) (896.02 4241 -3438.58) (895.994 4448.89 -3229.91)"
				"material" "METAL/CITADEL_TILEFLOOR016A_CHEAP"
				"uaxis" "[0 0.7071 -0.707096 -130.842] 0.25"
				"vaxis" "[0 0.7071 0.707096 7.95251] 0.25"
				"rotation" "0"
				"lightmapscale" "16"
				"smoothing_groups" "0"
			}
			side
			{
				"id" "101"
				"plane" "(-1343.35 4457.38 -3238.1) (-1343.35 4448.89 -3229.59) (-1343.32 4241 -3438.26)"
				"material" "METAL/CITADEL_TILEFLOOR016A_CHEAP"
				"uaxis" "[0 0.7071 -0.707096 -130.842] 0.25"
				"vaxis" "[0 0.7071 0.707096 7.95251] 0.25"
				"rotation" "0"
				"lightmapscale" "16"
				"smoothing_groups" "0"
			}
			side
			{
				"id" "100"
				"plane" "(-1343.32 4249.48 -3446.76) (896.03 4249.48 -3447.09) (896.005 4457.38 -3238.42)"
				"material" "METAL/CITADEL_TILEFLOOR016A_CHEAP"
				"uaxis" "[-1 0 0 -6.66089] 0.25"
				"vaxis" "[0 0.7058 0.708373 46.1892] 0.25"
				"rotation" "0"
				"lightmapscale" "16"
				"smoothing_groups" "0"
			}
			side
			{
				"id" "99"
				"plane" "(-1343.35 4448.89 -3229.59) (895.994 4448.89 -3229.91) (896.02 4241 -3438.58)"
				"material" "METAL/CITADEL_TILEFLOOR016A_CHEAP"
				"uaxis" "[-1 0 0 -6.66089] 0.25"
				"vaxis" "[0 0.7058 0.708373 46.1892] 0.25"
				"rotation" "0"
				"lightmapscale" "16"
				"smoothing_groups" "0"
			}
			side
			{
				"id" "98"
				"plane" "(-1343.32 4241 -3438.26) (896.02 4241 -3438.58) (896.03 4249.48 -3447.09)"
				"material" "METAL/CITADEL_TILEFLOOR016A_CHEAP"
				"uaxis" "[0.819152 0 -0.573576 -408.243] 0.25"
				"vaxis" "[0 -1 0 -152.078] 0.25"
				"rotation" "0"
				"lightmapscale" "16"
				"smoothing_groups" "0"
			}
			side
			{
				"id" "97"
				"plane" "(-1343.35 4457.38 -3238.1) (896.005 4457.38 -3238.42) (895.994 4448.89 -3229.91)"
				"material" "METAL/CITADEL_TILEFLOOR016A_CHEAP"
				"uaxis" "[0.819152 0 -0.573576 -408.243] 0.25"
				"vaxis" "[0 -1 0 -152.078] 0.25"
				"rotation" "0"
				"lightmapscale" "16"
				"smoothing_groups" "0"
			}
			editor
			{
				"color" "0 120 145"
				"visgroupid" "4"
				"visgroupshown" "0"
				"visgroupautoshown" "1"
			}
		}
	}
	hidden
	{
		solid
		{
			"id" "7"
			side
			{
				"id" "108"
				"plane" "(-1343.88 4249.9 -3447.59) (895.463 4249.89 -3447.91) (895.465 4258.39 -3439.39)"
				"material" "METAL/CITADEL_TILEFLOOR016A_CHEAP"
				"uaxis" "[1 0 0 -418.09] 0.25"
				"vaxis" "[0 0.7058 0.708373 195.292] 0.25"
				"rotation" "0"
				"lightmapscale" "16"
				"smoothing_groups" "0"
			}
			side
			{
				"id" "107"
				"plane" "(-1343.93 4050.49 -3230.41) (895.435 4050.5 -3230.73) (895.438 4042 -3239.24)"
				"material" "METAL/CITADEL_TILEFLOOR016A_CHEAP"
				"uaxis" "[1 0 0 -418.09] 0.25"
				"vaxis" "[0 0.7058 0.708373 195.292] 0.25"
				"rotation" "0"
				"lightmapscale" "16"
				"smoothing_groups" "0"
			}
			side
			{
				"id" "106"
				"plane" "(-1343.89 4258.38 -3439.08) (-1343.93 4050.49 -3230.41) (-1343.92 4042.01 -3238.92)"
				"material" "METAL/CITADEL_TILEFLOOR016A_CHEAP"
				"uaxis" "[0 -0.7071 -0.707096 -157.049] 0.25"
				"vaxis" "[0 -0.7071 0.707096 498.126] 0.25"
				"rotation" "0"
				"lightmapscale" "16"
				"smoothing_groups" "0"
			}
			side
			{
				"id" "105"
				"plane" "(895.463 4249.89 -3447.91) (895.438 4042 -3239.24) (895.435 4050.5 -3230.73)"
				"material" "METAL/CITADEL_TILEFLOOR016A_CHEAP"
				"uaxis" "[0 -0.7071 -0.707096 -157.049] 0.25"
				"vaxis" "[0 -0.7071 0.707096 498.126] 0.25"
				"rotation" "0"
				"lightmapscale" "16"
				"smoothing_groups" "0"
			}
			side
			{
				"id" "104"
				"plane" "(-1343.88 4249.9 -3447.59) (-1343.92 4042.01 -3238.92) (895.438 4042 -3239.24)"
				"material" "METAL/CITADEL_TILEFLOOR016A_CHEAP"
				"uaxis" "[1 0 0 -418.09] 0.25"
				"vaxis" "[0 -0.7058 0.708373 491.365] 0.25"
				"rotation" "0"
				"lightmapscale" "16"
				"smoothing_groups" "0"
			}
			side
			{
				"id" "103"
				"plane" "(895.465 4258.39 -3439.39) (895.435 4050.5 -3230.73) (-1343.93 4050.49 -3230.41)"
				"material" "METAL/CITADEL_TILEFLOOR016A_CHEAP"
				"uaxis" "[1 0 0 -418.09] 0.25"
				"vaxis" "[0 -0.7058 0.708373 491.365] 0.25"
				"rotation" "0"
				"lightmapscale" "16"
				"smoothing_groups" "0"
			}
			editor
			{
				"color" "0 182 251"
				"visgroupid" "4"
				"visgroupshown" "0"
				"visgroupautoshown" "1"
			}
		}
	}
	hidden
	{
		solid
		{
			"id" "8"
			side
			{
				"id" "114"
				"plane" "(-1344.08 4258.38 -3038.63) (895.288 4258.39 -3038.94) (895.292 4249.89 -3030.42)"
				"material" "METAL/CITADEL_TILEFLOOR016A_CHEAP"
				"uaxis" "[-1 0 0 -9.39966] 0.25"
				"vaxis" "[0 0.7058 -0.708373 -239.832] 0.25"
				"rotation" "0"
				"lightmapscale" "16"
				"smoothing_groups" "0"
			}
			side
			{
				"id" "113"
				"plane" "(-1344.03 4042.01 -3238.77) (895.317 4042 -3239.08) (895.313 4050.5 -3247.59)"
				"material" "METAL/CITADEL_TILEFLOOR016A_CHEAP"
				"uaxis" "[-1 0 0 -9.39966] 0.25"
				"vaxis" "[0 0.7058 -0.708373 -239.832] 0.25"
				"rotation" "0"
				"lightmapscale" "16"
				"smoothing_groups" "0"
			}
			side
			{
				"id" "112"
				"plane" "(895.288 4258.39 -3038.94) (895.313 4050.5 -3247.59) (895.317 4042 -3239.08)"
				"material" "METAL/CITADEL_TILEFLOOR016A_CHEAP"
				"uaxis" "[0 -0.7071 0.707096 245.594] 0.25"
				"vaxis" "[0 -0.7071 -0.707096 -416.517] 0.25"
				"rotation" "0"
				"lightmapscale" "16"
				"smoothing_groups" "0"
			}
			side
			{
				"id" "111"
				"plane" "(-1344.04 4050.5 -3247.28) (-1344.08 4258.38 -3038.63) (-1344.07 4249.89 -3030.12)"
				"material" "METAL/CITADEL_TILEFLOOR016A_CHEAP"
				"uaxis" "[0 -0.7071 0.707096 245.594] 0.25"
				"vaxis" "[0 -0.7071 -0.707096 -416.517] 0.25"
				"rotation" "0"
				"lightmapscale" "16"
				"smoothing_groups" "0"
			}
			side
			{
				"id" "110"
				"plane" "(-1344.03 4042.01 -3238.77) (-1344.07 4249.89 -3030.12) (895.292 4249.89 -3030.42)"
				"material" "METAL/CITADEL_TILEFLOOR016A_CHEAP"
				"uaxis" "[-1 0 0 -9.39966] 0.25"
				"vaxis" "[0 -0.7058 -0.708373 -454.759] 0.25"
				"rotation" "0"
				"lightmapscale" "16"
				"smoothing_groups" "0"
			}
			side
			{
				"id" "109"
				"plane" "(-1344.08 4258.38 -3038.63) (-1344.04 4050.5 -3247.28) (895.313 4050.5 -3247.59)"
				"material" "METAL/CITADEL_TILEFLOOR016A_CHEAP"
				"uaxis" "[-1 0 0 -9.39966] 0.25"
				"vaxis" "[0 -0.7058 -0.708373 -454.759] 0.25"
				"rotation" "0"
				"lightmapscale" "16"
				"smoothing_groups" "0"
			}
			editor
			{
				"color" "0 170 119"
				"visgroupid" "4"
				"visgroupshown" "0"
				"visgroupautoshown" "1"
			}
		}
	}
	hidden
	{
		solid
		{
			"id" "9"
			side
			{
				"id" "120"
				"plane" "(47.3085 4148.5 -3152.8) (63.3053 4148.5 -3152.8) (63.3083 4348.61 -3352.91)"
				"material" "GLASS/GLASSWINDOW007A"
				"uaxis" "[1 0 0 -101.021] 0.25"
				"vaxis" "[0 0.7071 -0.707096 -487.686] 0.25"
				"rotation" "0"
				"lightmapscale" "16"
				"smoothing_groups" "0"
			}
			side
			{
				"id" "119"
				"plane" "(47.3042 4359.45 -3342.07) (63.3014 4359.45 -3342.06) (63.3038 4159.34 -3141.96)"
				"material" "GLASS/GLASSWINDOW007A"
				"uaxis" "[1 0 0 -101.021] 0.25"
				"vaxis" "[0 0.7071 -0.707096 -487.686] 0.25"
				"rotation" "0"
				"lightmapscale" "16"
				"smoothing_groups" "0"
			}
			side
			{
				"id" "118"
				"plane" "(47.3085 4348.61 -3352.91) (47.3042 4359.45 -3342.07) (47.3042 4159.34 -3141.96)"
				"material" "GLASS/GLASSWINDOW007A"
				"uaxis" "[0 -0.7071 0.707096 487.686] 0.25"
				"vaxis" "[0 0.7071 0.707096 479.686] 0.25"
				"rotation" "0"
				"lightmapscale" "16"
				"smoothing_groups" "0"
			}
			side
			{
				"id" "117"
				"plane" "(63.3014 4359.45 -3342.06) (63.3083 4348.61 -3352.91) (63.3053 4148.5 -3152.8)"
				"material" "GLASS/GLASSWINDOW007A"
				"uaxis" "[0 -0.7071 0.707096 487.686] 0.25"
				"vaxis" "[0 0.7071 0.707096 479.686] 0.25"
				"rotation" "0"
				"lightmapscale" "16"
				"smoothing_groups" "0"
			}
			side
			{
				"id" "116"
				"plane" "(47.3085 4148.5 -3152.8) (47.3042 4159.34 -3141.96) (63.3038 4159.34 -3141.96)"
				"material" "GLASS/GLASSWINDOW007A"
				"uaxis" "[1 0 0 -101.021] 0.25"
				"vaxis" "[0 0.7071 0.707096 479.686] 0.25"
				"rotation" "0"
				"lightmapscale" "16"
				"smoothing_groups" "0"
			}
			side
			{
				"id" "115"
				"plane" "(47.3042 4359.45 -3342.07) (47.3085 4348.61 -3352.91) (63.3083 4348.61 -3352.91)"
				"material" "GLASS/GLASSWINDOW007A"
				"uaxis" "[1 0 0 -101.021] 0.25"
				"vaxis" "[0 0.7071 0.707096 479.686] 0.25"
				"rotation" "0"
				"lightmapscale" "16"
				"smoothing_groups" "0"
			}
			editor
			{
				"color" "0 128 237"
				"visgroupid" "4"
				"visgroupshown" "0"
				"visgroupautoshown" "1"
			}
		}
	}
	hidden
	{
		solid
		{
			"id" "10"
			side
			{
				"id" "126"
				"plane" "(46.4912 4017.5 -3277.28) (62.4885 4017.5 -3277.28) (62.4873 4217.62 -3477.38)"
				"material" "METAL/CITADEL_TILEFLOOR016A_CHEAP"
				"uaxis" "[1 0 0 -98.0208] 0.25"
				"vaxis" "[0 0.7071 -0.707096 -468.686] 0.25"
				"rotation" "0"
				"lightmapscale" "16"
				"smoothing_groups" "0"
			}
			side
			{
				"id" "125"
				"plane" "(46.4941 4349.84 -3345.15) (62.4922 4349.84 -3345.15) (62.4941 4149.73 -3145.05)"
				"material" "METAL/CITADEL_TILEFLOOR016A_CHEAP"
				"uaxis" "[1 0 0 -98.0208] 0.25"
				"vaxis" "[0 0.7071 -0.707096 -468.686] 0.25"
				"rotation" "0"
				"lightmapscale" "16"
				"smoothing_groups" "0"
			}
			side
			{
				"id" "124"
				"plane" "(46.4939 4217.61 -3477.39) (46.4941 4349.84 -3345.15) (46.488 4149.74 -3145.05)"
				"material" "METAL/CITADEL_TILEFLOOR016A_CHEAP"
				"uaxis" "[0 -0.7071 0.707096 468.686] 0.25"
				"vaxis" "[0 0.7071 0.707096 178.686] 0.25"
				"rotation" "0"
				"lightmapscale" "16"
				"smoothing_groups" "0"
			}
			side
			{
				"id" "123"
				"plane" "(62.4922 4349.84 -3345.15) (62.4873 4217.62 -3477.38) (62.4885 4017.5 -3277.28)"
				"material" "METAL/CITADEL_TILEFLOOR016A_CHEAP"
				"uaxis" "[0 -0.7071 0.707096 468.686] 0.25"
				"vaxis" "[0 0.7071 0.707096 178.686] 0.25"
				"rotation" "0"
				"lightmapscale" "16"
				"smoothing_groups" "0"
			}
			side
			{
				"id" "122"
				"plane" "(46.4912 4017.5 -3277.28) (46.488 4149.74 -3145.05) (62.4941 4149.73 -3145.05)"
				"material" "METAL/CITADEL_TILEFLOOR016A_CHEAP"
				"uaxis" "[1 0 0 -98.0208] 0.25"
				"vaxis" "[0 0.7071 0.707096 178.686] 0.25"
				"rotation" "0"
				"lightmapscale" "16"
				"smoothing_groups" "0"
			}
			side
			{
				"id" "121"
				"plane" "(46.4941 4349.84 -3345.15) (46.4939 4217.61 -3477.39) (62.4873 4217.62 -3477.38)"
				"material" "METAL/CITADEL_TILEFLOOR016A_CHEAP"
				"uaxis" "[1 0 0 -98.0208] 0.25"
				"vaxis" "[0 0.7071 0.707096 178.686] 0.25"
				"rotation" "0"
				"lightmapscale" "16"
				"smoothing_groups" "0"
			}
			editor
			{
				"color" "0 194 119"
				"visgroupid" "4"
				"visgroupshown" "0"
				"visgroupautoshown" "1"
			}
		}
	}
	hidden
	{
		solid
		{
			"id" "11"
			side
			{
				"id" "132"
				"plane" "(-372.628 4160.5 -3128.54) (-356.626 4160.5 -3128.54) (-356.625 4360.61 -3328.66)"
				"material" "GLASS/GLASSWINDOW007A"
				"uaxis" "[1 0 0 42.9792] 0.25"
				"vaxis" "[0 0.7071 -0.707096 -452.686] 0.25"
				"rotation" "0"
				"lightmapscale" "16"
				"smoothing_groups" "0"
			}
			side
			{
				"id" "131"
				"plane" "(-372.622 4371.45 -3317.82) (-356.625 4371.45 -3317.82) (-356.626 4171.33 -3117.7)"
				"material" "GLASS/GLASSWINDOW007A"
				"uaxis" "[1 0 0 42.9792] 0.25"
				"vaxis" "[0 0.7071 -0.707096 -452.686] 0.25"
				"rotation" "0"
				"lightmapscale" "16"
				"smoothing_groups" "0"
			}
			side
			{
				"id" "130"
				"plane" "(-372.624 4360.62 -3328.66) (-372.622 4371.45 -3317.82) (-372.625 4171.34 -3117.71)"
				"material" "GLASS/GLASSWINDOW007A"
				"uaxis" "[0 -0.7071 0.707096 452.686] 0.25"
				"vaxis" "[0 0.7071 0.707096 377.686] 0.25"
				"rotation" "0"
				"lightmapscale" "16"
				"smoothing_groups" "0"
			}
			side
			{
				"id" "129"
				"plane" "(-356.625 4371.45 -3317.82) (-356.625 4360.61 -3328.66) (-356.626 4160.5 -3128.54)"
				"material" "GLASS/GLASSWINDOW007A"
				"uaxis" "[0 -0.7071 0.707096 452.686] 0.25"
				"vaxis" "[0 0.7071 0.707096 377.686] 0.25"
				"rotation" "0"
				"lightmapscale" "16"
				"smoothing_groups" "0"
			}
			side
			{
				"id" "128"
				"plane" "(-372.628 4160.5 -3128.54) (-372.625 4171.34 -3117.71) (-356.626 4171.33 -3117.7)"
				"material" "GLASS/GLASSWINDOW007A"
				"uaxis" "[0.819152 0 -0.573576 -284.555] 0.25"
				"vaxis" "[-0.573576 0 -0.819152 159.972] 0.25"
				"rotation" "0"
				"lightmapscale" "16"
				"smoothing_groups" "0"
			}
			side
			{
				"id" "127"
				"plane" "(-372.622 4371.45 -3317.82) (-372.624 4360.62 -3328.66) (-356.625 4360.61 -3328.66)"
				"material" "GLASS/GLASSWINDOW007A"
				"uaxis" "[0.819152 0 -0.573576 -284.555] 0.25"
				"vaxis" "[-0.573576 0 -0.819152 159.972] 0.25"
				"rotation" "0"
				"lightmapscale" "16"
				"smoothing_groups" "0"
			}
			editor
			{
				"color" "0 114 115"
				"visgroupid" "4"
				"visgroupshown" "0"
				"visgroupautoshown" "1"
			}
		}
	}
	hidden
	{
		solid
		{
			"id" "12"
			side
			{
				"id" "138"
				"plane" "(-374.74 4163.16 -3123.93) (-374.737 4295.39 -2991.71) (-358.737 4295.39 -2991.71)"
				"material" "METAL/CITADEL_TILEFLOOR016A_CHEAP"
				"uaxis" "[1 0 0 50.9792] 0.25"
				"vaxis" "[0 0.7071 0.707096 356.686] 0.25"
				"rotation" "0"
				"lightmapscale" "16"
				"smoothing_groups" "0"
			}
			side
			{
				"id" "137"
				"plane" "(-374.742 4495.5 -3191.82) (-374.735 4363.27 -3324.04) (-358.739 4363.26 -3324.05)"
				"material" "METAL/CITADEL_TILEFLOOR016A_CHEAP"
				"uaxis" "[1 0 0 50.9792] 0.25"
				"vaxis" "[0 0.7071 0.707096 356.686] 0.25"
				"rotation" "0"
				"lightmapscale" "16"
				"smoothing_groups" "0"
			}
			side
			{
				"id" "136"
				"plane" "(-374.735 4363.27 -3324.04) (-374.74 4163.16 -3123.93) (-358.74 4163.16 -3123.93)"
				"material" "METAL/CITADEL_TILEFLOOR016A_CHEAP"
				"uaxis" "[1 0 0 50.9792] 0.25"
				"vaxis" "[0 0.7071 -0.707096 -447.686] 0.25"
				"rotation" "0"
				"lightmapscale" "16"
				"smoothing_groups" "0"
			}
			side
			{
				"id" "135"
				"plane" "(-358.738 4495.5 -3191.82) (-358.737 4295.39 -2991.71) (-374.737 4295.39 -2991.71)"
				"material" "METAL/CITADEL_TILEFLOOR016A_CHEAP"
				"uaxis" "[1 0 0 50.9792] 0.25"
				"vaxis" "[0 0.7071 -0.707096 -447.686] 0.25"
				"rotation" "0"
				"lightmapscale" "16"
				"smoothing_groups" "0"
			}
			side
			{
				"id" "134"
				"plane" "(-374.742 4495.5 -3191.82) (-374.737 4295.39 -2991.71) (-374.74 4163.16 -3123.93)"
				"material" "METAL/CITADEL_TILEFLOOR016A_CHEAP"
				"uaxis" "[0 -0.7071 0.707096 447.686] 0.25"
				"vaxis" "[0 0.7071 0.707096 356.686] 0.25"
				"rotation" "0"
				"lightmapscale" "16"
				"smoothing_groups" "0"
			}
			side
			{
				"id" "133"
				"plane" "(-358.739 4363.26 -3324.05) (-358.74 4163.16 -3123.93) (-358.737 4295.39 -2991.71)"
				"material" "METAL/CITADEL_TILEFLOOR016A_CHEAP"
				"uaxis" "[0 -0.7071 0.707096 447.686] 0.25"
				"vaxis" "[0 0.7071 0.707096 356.686] 0.25"
				"rotation" "0"
				"lightmapscale" "16"
				"smoothing_groups" "0"
			}
			editor
			{
				"color" "0 242 243"
				"visgroupid" "4"
				"visgroupshown" "0"
				"visgroupautoshown" "1"
			}
		}
	}
	hidden
	{
		solid
		{
			"id" "13"
			side
			{
				"id" "144"
				"plane" "(896.138 4044 -3487.43) (896.137 4044 -3039.72) (866.134 4044 -3039.72)"
				"material" "METAL/CITADEL_TILEFLOOR016A_CHEAP"
				"uaxis" "[1 0 0 -120.208] 0.25"
				"vaxis" "[0 0 -1 -31.084] 0.25"
				"rotation" "0"
				"lightmapscale" "16"
				"smoothing_groups" "0"
			}
			side
			{
				"id" "143"
				"plane" "(866.134 4044 -3039.72) (896.137 4044 -3039.72) (896.137 3251 -3039.72)"
				"material" "METAL/CITADEL_TILEFLOOR016A_CHEAP"
				"uaxis" "[1 0 0 -120.208] 0.25"
				"vaxis" "[0 -1 0 -424] 0.25"
				"rotation" "0"
				"lightmapscale" "16"
				"smoothing_groups" "0"
			}
			side
			{
				"id" "142"
				"plane" "(866.152 4044 -3487.42) (866.146 3251 -3487.42) (896.14 3251 -3487.42)"
				"material" "METAL/CITADEL_TILEFLOOR016A_CHEAP"
				"uaxis" "[1 0 0 -120.208] 0.25"
				"vaxis" "[0 -1 0 -424] 0.25"
				"rotation" "0"
				"lightmapscale" "16"
				"smoothing_groups" "0"
			}
			side
			{
				"id" "141"
				"plane" "(896.138 4044 -3487.43) (896.14 3251 -3487.42) (896.137 3251 -3039.72)"
				"material" "METAL/CITADEL_TILEFLOOR016A_CHEAP"
				"uaxis" "[0 1 0 424] 0.25"
				"vaxis" "[0 0 -1 -31.084] 0.25"
				"rotation" "0"
				"lightmapscale" "16"
				"smoothing_groups" "0"
			}
			side
			{
				"id" "140"
				"plane" "(866.152 4044 -3487.42) (866.134 4044 -3039.72) (866.138 3251 -3039.72)"
				"material" "METAL/CITADEL_TILEFLOOR016A_CHEAP"
				"uaxis" "[0 1 0 424] 0.25"
				"vaxis" "[0 0 -1 -31.084] 0.25"
				"rotation" "0"
				"lightmapscale" "16"
				"smoothing_groups" "0"
			}
			side
			{
				"id" "139"
				"plane" "(866.146 3251 -3487.42) (866.138 3251 -3039.72) (896.137 3251 -3039.72)"
				"material" "METAL/CITADEL_TILEFLOOR016A_CHEAP"
				"uaxis" "[1 0 0 -120.208] 0.25"
				"vaxis" "[0 0 -1 -31.084] 0.25"
				"rotation" "0"
				"lightmapscale" "16"
				"smoothing_groups" "0"
			}
			editor
			{
				"color" "0 110 107"
				"visgroupid" "4"
				"visgroupshown" "0"
				"visgroupautoshown" "1"
			}
		}
	}
	hidden
	{
		solid
		{
			"id" "14"
			side
			{
				"id" "150"
				"plane" "(866.672 3254 -5119.96) (895.997 3254 -5120) (896 5259 -5120)"
				"material" "METAL/CITADEL_TILEFLOOR016A_CHEAP"
				"uaxis" "[1 0 -0.00131077 -135.873] 0.25"
				"vaxis" "[0 -1 0 -411.998] 0.25"
				"rotation" "0"
				"lightmapscale" "16"
				"smoothing_groups" "0"
			}
			side
			{
				"id" "149"
				"plane" "(896 5259 -5120) (895.997 3254 -5120) (893.748 3254 -3437.95)"
				"material" "METAL/CITADEL_TILEFLOOR016A_CHEAP"
				"uaxis" "[0 1 0 411.998] 0.25"
				"vaxis" "[0.00135171 0 -1 -441.737] 0.25"
				"rotation" "0"
				"lightmapscale" "16"
				"smoothing_groups" "0"
			}
			side
			{
				"id" "148"
				"plane" "(866.672 3254 -5119.96) (866.672 5259 -5119.96) (864.427 5259 -3437.92)"
				"material" "METAL/CITADEL_TILEFLOOR016A_CHEAP"
				"uaxis" "[0 1 0 411.998] 0.25"
				"vaxis" "[0.00135171 0 -1 -441.737] 0.25"
				"rotation" "0"
				"lightmapscale" "16"
				"smoothing_groups" "0"
			}
			side
			{
				"id" "147"
				"plane" "(895.997 3254 -5120) (866.672 3254 -5119.96) (864.428 3254 -3437.92)"
				"material" "METAL/CITADEL_TILEFLOOR016A_CHEAP"
				"uaxis" "[-0.819152 0 0.573576 407.555] 0.25"
				"vaxis" "[-0.573576 0 -0.819152 267.382] 0.25"
				"rotation" "0"
				"lightmapscale" "16"
				"smoothing_groups" "0"
			}
			side
			{
				"id" "146"
				"plane" "(866.672 5259 -5119.96) (896 5259 -5120) (893.75 5259 -3437.95)"
				"material" "METAL/CITADEL_TILEFLOOR016A_CHEAP"
				"uaxis" "[0.819152 0 -0.573576 -407.555] 0.25"
				"vaxis" "[-0.573576 0 -0.819152 267.382] 0.25"
				"rotation" "0"
				"lightmapscale" "16"
				"smoothing_groups" "0"
			}
			side
			{
				"id" "145"
				"plane" "(864.427 5259 -3437.92) (893.75 5259 -3437.95) (893.748 3254 -3437.95)"
				"material" "METAL/CITADEL_TILEFLOOR016A_CHEAP"
				"uaxis" "[1 0 -0.00131077 -135.873] 0.25"
				"vaxis" "[0 -1 0 -411.998] 0.25"
				"rotation" "0"
				"lightmapscale" "16"
				"smoothing_groups" "0"
			}
			editor
			{
				"color" "0 162 235"
				"visgroupid" "4"
				"visgroupshown" "0"
				"visgroupautoshown" "1"
			}
		}
	}
	solid
	{
		"id" "163"
		side
		{
			"id" "151"
			"plane" "(897 5252 -3454) (927 5252 -3454) (927 3248 -3454)"
			"material" "TOOLS/TOOLSNODRAW"
			"uaxis" "[1 0 0 0] 0.25"
			"vaxis" "[0 -1 0 -20.0098] 0.25"
			"rotation" "0"
			"lightmapscale" "128"
			"smoothing_groups" "0"
		}
		side
		{
			"id" "152"
			"plane" "(897 3248 -5136) (927 3248 -5136) (927 5252 -5136)"
			"material" "TOOLS/TOOLSNODRAW"
			"uaxis" "[1 0 0 0] 0.25"
			"vaxis" "[0 1 0 36.0056] 0.25"
			"rotation" "0"
			"lightmapscale" "128"
			"smoothing_groups" "0"
		}
		side
		{
			"id" "153"
			"plane" "(897 5252 -3454) (897 3248 -3454) (897 3248 -5136)"
			"material" "TOOLS/TOOLSNODRAW"
			"uaxis" "[0 -1 0 11.9902] 0.25"
			"vaxis" "[0 0 -1 -20] 0.25"
			"rotation" "0"
			"lightmapscale" "128"
			"smoothing_groups" "0"
		}
		side
		{
			"id" "154"
			"plane" "(927 5252 -5136) (927 3248 -5136) (927 3248 -3454)"
			"material" "TOOLS/TOOLSNODRAW"
			"uaxis" "[0 1 0 -11.9922] 0.25"
			"vaxis" "[0 0 -1 -20] 0.25"
			"rotation" "0"
			"lightmapscale" "128"
			"smoothing_groups" "0"
		}
		side
		{
			"id" "155"
			"plane" "(927 5252 -3454) (897 5252 -3454) (897 5252 -5136)"
			"material" "TOOLS/TOOLSNODRAW"
			"uaxis" "[1 0 0 0] 0.25"
			"vaxis" "[0 0 -1 -20] 0.25"
			"rotation" "0"
			"lightmapscale" "128"
			"smoothing_groups" "0"
		}
		side
		{
			"id" "156"
			"plane" "(927 3248 -5136) (897 3248 -5136) (897 3248 -3454)"
			"material" "TOOLS/TOOLSNODRAW"
			"uaxis" "[1 0 0 0] 0.25"
			"vaxis" "[0 0 -1 -20] 0.25"
			"rotation" "0"
			"lightmapscale" "128"
			"smoothing_groups" "0"
		}
		editor
		{
			"color" "0 157 198"
			"visgroupshown" "1"
			"visgroupautoshown" "1"
		}
	}
	solid
	{
		"id" "164"
		side
		{
			"id" "168"
			"plane" "(899 5252 -2590) (929 5252 -2590) (929 3248 -2590)"
			"material" "TOOLS/TOOLSNODRAW"
			"uaxis" "[1 0 0 0] 0.25"
			"vaxis" "[0 -1 0 -12.0098] 0.25"
			"rotation" "0"
			"lightmapscale" "128"
			"smoothing_groups" "0"
		}
		side
		{
			"id" "167"
			"plane" "(899 3248 -3036) (929 3248 -3036) (929 5252 -3036)"
			"material" "TOOLS/TOOLSNODRAW"
			"uaxis" "[1 0 0 0] 0.25"
			"vaxis" "[0 1 0 -27.9922] 0.25"
			"rotation" "0"
			"lightmapscale" "128"
			"smoothing_groups" "0"
		}
		side
		{
			"id" "166"
			"plane" "(899 5252 -2590) (899 3248 -2590) (899 3248 -3036)"
			"material" "TOOLS/TOOLSNODRAW"
			"uaxis" "[0 -1 0 19.9902] 0.25"
			"vaxis" "[0 0 -1 -12] 0.25"
			"rotation" "0"
			"lightmapscale" "128"
			"smoothing_groups" "0"
		}
		side
		{
			"id" "165"
			"plane" "(929 5252 -3036) (929 3248 -3036) (929 3248 -2590)"
			"material" "TOOLS/TOOLSNODRAW"
			"uaxis" "[0 1 0 -4] 0.25"
			"vaxis" "[0 0 -1 -12] 0.25"
			"rotation" "0"
			"lightmapscale" "128"
			"smoothing_groups" "0"
		}
		side
		{
			"id" "164"
			"plane" "(929 5252 -2590) (899 5252 -2590) (899 5252 -3036)"
			"material" "TOOLS/TOOLSNODRAW"
			"uaxis" "[1 0 0 0] 0.25"
			"vaxis" "[0 0 -1 -12] 0.25"
			"rotation" "0"
			"lightmapscale" "128"
			"smoothing_groups" "0"
		}
		side
		{
			"id" "163"
			"plane" "(929 3248 -3036) (899 3248 -3036) (899 3248 -2590)"
			"material" "TOOLS/TOOLSNODRAW"
			"uaxis" "[1 0 0 0] 0.25"
			"vaxis" "[0 0 -1 -12] 0.25"
			"rotation" "0"
			"lightmapscale" "128"
			"smoothing_groups" "0"
		}
		editor
		{
			"color" "0 157 198"
			"visgroupshown" "1"
			"visgroupautoshown" "1"
		}
	}
	solid
	{
		"id" "169"
		side
		{
			"id" "169"
			"plane" "(899 4041 -3036) (929 4041 -3036) (929 3248 -3036)"
			"material" "TOOLS/TOOLSNODRAW"
			"uaxis" "[1 0 0 0] 0.25"
			"vaxis" "[0 -1 0 -12.002] 0.25"
			"rotation" "0"
			"lightmapscale" "128"
			"smoothing_groups" "0"
		}
		side
		{
			"id" "170"
			"plane" "(899 3248 -3454) (929 3248 -3454) (929 4041 -3454)"
			"material" "TOOLS/TOOLSNODRAW"
			"uaxis" "[1 0 0 0] 0.25"
			"vaxis" "[0 1 0 -36] 0.25"
			"rotation" "0"
			"lightmapscale" "128"
			"smoothing_groups" "0"
		}
		side
		{
			"id" "171"
			"plane" "(899 4041 -3036) (899 3248 -3036) (899 3248 -3454)"
			"material" "TOOLS/TOOLSNODRAW"
			"uaxis" "[0 -1 0 19.998] 0.25"
			"vaxis" "[0 0 -1 -12] 0.25"
			"rotation" "0"
			"lightmapscale" "128"
			"smoothing_groups" "0"
		}
		side
		{
			"id" "172"
			"plane" "(929 4041 -3454) (929 3248 -3454) (929 3248 -3036)"
			"material" "TOOLS/TOOLSNODRAW"
			"uaxis" "[0 1 0 -4] 0.25"
			"vaxis" "[0 0 -1 -12] 0.25"
			"rotation" "0"
			"lightmapscale" "128"
			"smoothing_groups" "0"
		}
		side
		{
			"id" "173"
			"plane" "(929 4041 -3036) (899 4041 -3036) (899 4041 -3454)"
			"material" "TOOLS/TOOLSNODRAW"
			"uaxis" "[1 0 0 0] 0.25"
			"vaxis" "[0 0 -1 -12] 0.25"
			"rotation" "0"
			"lightmapscale" "128"
			"smoothing_groups" "0"
		}
		side
		{
			"id" "174"
			"plane" "(929 3248 -3454) (899 3248 -3454) (899 3248 -3036)"
			"material" "TOOLS/TOOLSNODRAW"
			"uaxis" "[1 0 0 0] 0.25"
			"vaxis" "[0 0 -1 -12] 0.25"
			"rotation" "0"
			"lightmapscale" "128"
			"smoothing_groups" "0"
		}
		editor
		{
			"color" "0 213 222"
			"visgroupshown" "1"
			"visgroupautoshown" "1"
		}
	}
	solid
	{
		"id" "170"
		side
		{
			"id" "186"
			"plane" "(899 5252 -3036) (929 5252 -3036) (929 4459 -3036)"
			"material" "TOOLS/TOOLSNODRAW"
			"uaxis" "[1 0 0 0] 0.25"
			"vaxis" "[0 -1 0 -8.00195] 0.25"
			"rotation" "0"
			"lightmapscale" "128"
			"smoothing_groups" "0"
		}
		side
		{
			"id" "185"
			"plane" "(899 4459 -3454) (929 4459 -3454) (929 5252 -3454)"
			"material" "TOOLS/TOOLSNODRAW"
			"uaxis" "[1 0 0 0] 0.25"
			"vaxis" "[0 1 0 0] 0.25"
			"rotation" "0"
			"lightmapscale" "128"
			"smoothing_groups" "0"
		}
		side
		{
			"id" "184"
			"plane" "(899 5252 -3036) (899 4459 -3036) (899 4459 -3454)"
			"material" "TOOLS/TOOLSNODRAW"
			"uaxis" "[0 -1 0 3.99805] 0.25"
			"vaxis" "[0 0 -1 8] 0.25"
			"rotation" "0"
			"lightmapscale" "128"
			"smoothing_groups" "0"
		}
		side
		{
			"id" "183"
			"plane" "(929 5252 -3454) (929 4459 -3454) (929 4459 -3036)"
			"material" "TOOLS/TOOLSNODRAW"
			"uaxis" "[0 1 0 -4] 0.25"
			"vaxis" "[0 0 -1 -12] 0.25"
			"rotation" "0"
			"lightmapscale" "128"
			"smoothing_groups" "0"
		}
		side
		{
			"id" "182"
			"plane" "(929 5252 -3036) (899 5252 -3036) (899 5252 -3454)"
			"material" "TOOLS/TOOLSNODRAW"
			"uaxis" "[1 0 0 0] 0.25"
			"vaxis" "[0 0 -1 8] 0.25"
			"rotation" "0"
			"lightmapscale" "128"
			"smoothing_groups" "0"
		}
		side
		{
			"id" "181"
			"plane" "(929 4459 -3454) (899 4459 -3454) (899 4459 -3036)"
			"material" "TOOLS/TOOLSNODRAW"
			"uaxis" "[1 0 0 0] 0.25"
			"vaxis" "[0 0 -1 8] 0.25"
			"rotation" "0"
			"lightmapscale" "128"
			"smoothing_groups" "0"
		}
		editor
		{
			"color" "0 213 222"
			"visgroupshown" "1"
			"visgroupautoshown" "1"
		}
	}
	hidden
	{
		solid
		{
			"id" "2"
			side
			{
				"id" "192"
				"plane" "(866.148 4461 -3487.42) (866.147 5283 -3487.42) (866.137 5283 -3039.72)"
				"material" "METAL/CITADEL_TILEFLOOR016A_CHEAP"
				"uaxis" "[0 1 0 75.9961] 0.25"
				"vaxis" "[0 0 -1 -31.0974] 0.25"
				"rotation" "0"
				"lightmapscale" "16"
				"smoothing_groups" "0"
			}
			side
			{
				"id" "191"
				"plane" "(866.148 4461 -3487.42) (866.141 4461 -3039.72) (896.139 4461 -3039.72)"
				"material" "METAL/CITADEL_TILEFLOOR016A_CHEAP"
				"uaxis" "[1 0 0 -120.227] 0.25"
				"vaxis" "[0 0 -1 -31.0974] 0.25"
				"rotation" "0"
				"lightmapscale" "16"
				"smoothing_groups" "0"
			}
			side
			{
				"id" "190"
				"plane" "(866.147 5283 -3487.42) (896.143 5283 -3487.43) (896.139 5283 -3039.72)"
				"material" "METAL/CITADEL_TILEFLOOR016A_CHEAP"
				"uaxis" "[1 0 0 -120.227] 0.25"
				"vaxis" "[0 0 -1 -31.0974] 0.25"
				"rotation" "0"
				"lightmapscale" "16"
				"smoothing_groups" "0"
			}
			side
			{
				"id" "189"
				"plane" "(866.141 4461 -3039.72) (866.137 5283 -3039.72) (896.139 5283 -3039.72)"
				"material" "METAL/CITADEL_TILEFLOOR016A_CHEAP"
				"uaxis" "[1 0 0 -120.227] 0.25"
				"vaxis" "[0 -1 0 -75.9961] 0.25"
				"rotation" "0"
				"lightmapscale" "16"
				"smoothing_groups" "0"
			}
			side
			{
				"id" "188"
				"plane" "(866.147 5283 -3487.42) (866.148 4461 -3487.42) (896.139 4461 -3487.42)"
				"material" "METAL/CITADEL_TILEFLOOR016A_CHEAP"
				"uaxis" "[1 0 0 -120.227] 0.25"
				"vaxis" "[0 -1 0 -75.9961] 0.25"
				"rotation" "0"
				"lightmapscale" "16"
				"smoothing_groups" "0"
			}
			side
			{
				"id" "187"
				"plane" "(896.143 5283 -3487.43) (896.139 4461 -3487.42) (896.139 4461 -3039.72)"
				"material" "METAL/CITADEL_TILEFLOOR016A_CHEAP"
				"uaxis" "[0 1 0 75.9961] 0.25"
				"vaxis" "[0 0 -1 -31.0974] 0.25"
				"rotation" "0"
				"lightmapscale" "16"
				"smoothing_groups" "0"
			}
			editor
			{
				"color" "0 120 169"
				"visgroupid" "4"
				"visgroupshown" "0"
				"visgroupautoshown" "1"
			}
		}
	}
	hidden
	{
		solid
		{
			"id" "218"
			side
			{
				"id" "228"
				"plane" "(-1344.05 4264.59 -1777.85) (895.286 4264.35 -1778.07) (895.296 4252.34 -1778.09)"
				"material" "METAL/CITADEL_TILEFLOOR016A_CHEAP"
				"uaxis" "[1 0 0 -417.66] 0.25"
				"vaxis" "[0 -1 -0.00181973 13.3535] 0.25"
				"rotation" "0"
				"lightmapscale" "16"
				"smoothing_groups" "0"
			}
			side
			{
				"id" "227"
				"plane" "(-1344.02 4252.02 -2072.43) (895.338 4251.79 -2072.65) (895.329 4263.81 -2072.62)"
				"material" "METAL/CITADEL_TILEFLOOR016A_CHEAP"
				"uaxis" "[1 0 0 -417.66] 0.25"
				"vaxis" "[0 -1 -0.00181973 13.3535] 0.25"
				"rotation" "0"
				"lightmapscale" "16"
				"smoothing_groups" "0"
			}
			side
			{
				"id" "226"
				"plane" "(-1344.02 4264.04 -2072.4) (-1344.05 4264.59 -1777.85) (-1344.04 4252.57 -1777.86)"
				"material" "METAL/CITADEL_TILEFLOOR016A_CHEAP"
				"uaxis" "[0 1 0 -27.2344] 0.25"
				"vaxis" "[0 0 -1 284.881] 0.25"
				"rotation" "0"
				"lightmapscale" "16"
				"smoothing_groups" "0"
			}
			side
			{
				"id" "225"
				"plane" "(895.338 4251.79 -2072.65) (895.296 4252.34 -1778.09) (895.286 4264.35 -1778.07)"
				"material" "METAL/CITADEL_TILEFLOOR016A_CHEAP"
				"uaxis" "[0 1 0 -27.2344] 0.25"
				"vaxis" "[0 0 -1 284.881] 0.25"
				"rotation" "0"
				"lightmapscale" "16"
				"smoothing_groups" "0"
			}
			side
			{
				"id" "224"
				"plane" "(895.329 4263.81 -2072.62) (895.286 4264.35 -1778.07) (-1344.05 4264.59 -1777.85)"
				"material" "METAL/CITADEL_TILEFLOOR016A_CHEAP"
				"uaxis" "[1 0 0 -417.66] 0.25"
				"vaxis" "[0 -0.00181973 -1 316.238] 0.25"
				"rotation" "0"
				"lightmapscale" "16"
				"smoothing_groups" "0"
			}
			side
			{
				"id" "223"
				"plane" "(-1344.02 4252.02 -2072.43) (-1344.04 4252.57 -1777.86) (895.296 4252.34 -1778.09)"
				"material" "METAL/CITADEL_TILEFLOOR016A_CHEAP"
				"uaxis" "[1 0 0 -417.66] 0.25"
				"vaxis" "[0 -0.00181973 -1 316.238] 0.25"
				"rotation" "0"
				"lightmapscale" "16"
				"smoothing_groups" "0"
			}
			editor
			{
				"color" "0 128 181"
				"visgroupid" "4"
				"visgroupshown" "0"
				"visgroupautoshown" "1"
			}
		}
	}
	hidden
	{
		solid
		{
			"id" "294"
			side
			{
				"id" "300"
				"plane" "(-2042 7344 -1656) (1040 7344 -1656) (1040 6950 -1656)"
				"material" "TOOLS/TOOLSNODRAW"
				"uaxis" "[1 0 0 0] 0.25"
				"vaxis" "[0 -1 0 48] 0.25"
				"rotation" "0"
				"lightmapscale" "128"
				"smoothing_groups" "0"
			}
			side
			{
				"id" "299"
				"plane" "(-2042 6950 -1668) (1040 6950 -1668) (1040 7344 -1668)"
				"material" "TOOLS/TOOLSNODRAW"
				"uaxis" "[1 0 0 0] 0.25"
				"vaxis" "[0 -1 0 48] 0.25"
				"rotation" "0"
				"lightmapscale" "128"
				"smoothing_groups" "0"
			}
			side
			{
				"id" "298"
				"plane" "(-2042 7344 -1656) (-2042 6950 -1656) (-2042 6950 -1668)"
				"material" "TOOLS/TOOLSNODRAW"
				"uaxis" "[0 1 0 -48] 0.25"
				"vaxis" "[0 0 -1 32] 0.25"
				"rotation" "0"
				"lightmapscale" "128"
				"smoothing_groups" "0"
			}
			side
			{
				"id" "297"
				"plane" "(1040 7344 -1668) (1040 6950 -1668) (1040 6950 -1656)"
				"material" "TOOLS/TOOLSNODRAW"
				"uaxis" "[0 1 0 -48] 0.25"
				"vaxis" "[0 0 -1 32] 0.25"
				"rotation" "0"
				"lightmapscale" "128"
				"smoothing_groups" "0"
			}
			side
			{
				"id" "296"
				"plane" "(1040 7344 -1656) (-2042 7344 -1656) (-2042 7344 -1668)"
				"material" "TOOLS/TOOLSNODRAW"
				"uaxis" "[1 0 0 0] 0.25"
				"vaxis" "[0 0 -1 32] 0.25"
				"rotation" "0"
				"lightmapscale" "128"
				"smoothing_groups" "0"
			}
			side
			{
				"id" "295"
				"plane" "(1040 6950 -1668) (-2042 6950 -1668) (-2042 6950 -1656)"
				"material" "TOOLS/TOOLSNODRAW"
				"uaxis" "[1 0 0 0] 0.25"
				"vaxis" "[0 0 -1 32] 0.25"
				"rotation" "0"
				"lightmapscale" "128"
				"smoothing_groups" "0"
			}
			editor
			{
				"color" "0 140 141"
				"visgroupid" "4"
				"visgroupshown" "0"
				"visgroupautoshown" "1"
			}
		}
	}
	hidden
	{
		solid
		{
			"id" "295"
			side
			{
				"id" "306"
				"plane" "(-2042 6938 -1656) (1040 6938 -1656) (1040 6938 -2074)"
				"material" "TOOLS/TOOLSNODRAW"
				"uaxis" "[1 0 0 0] 0.25"
				"vaxis" "[0 0 -1 32] 0.25"
				"rotation" "0"
				"lightmapscale" "128"
				"smoothing_groups" "0"
			}
			side
			{
				"id" "305"
				"plane" "(-2042 6950 -2074) (1040 6950 -2074) (1040 6950 -1656)"
				"material" "TOOLS/TOOLSNODRAW"
				"uaxis" "[1 0 0 0] 0.25"
				"vaxis" "[0 0 -1 32] 0.25"
				"rotation" "0"
				"lightmapscale" "128"
				"smoothing_groups" "0"
			}
			side
			{
				"id" "304"
				"plane" "(-2042 6938 -1656) (-2042 6938 -2074) (-2042 6950 -2074)"
				"material" "TOOLS/TOOLSNODRAW"
				"uaxis" "[0 0 1 -32] 0.25"
				"vaxis" "[0 1 0 -40] 0.25"
				"rotation" "0"
				"lightmapscale" "128"
				"smoothing_groups" "0"
			}
			side
			{
				"id" "303"
				"plane" "(1040 6950 -1656) (1040 6950 -2074) (1040 6938 -2074)"
				"material" "TOOLS/TOOLSNODRAW"
				"uaxis" "[0 0 1 -32] 0.25"
				"vaxis" "[0 1 0 -40] 0.25"
				"rotation" "0"
				"lightmapscale" "128"
				"smoothing_groups" "0"
			}
			side
			{
				"id" "302"
				"plane" "(1040 6938 -1656) (-2042 6938 -1656) (-2042 6950 -1656)"
				"material" "TOOLS/TOOLSNODRAW"
				"uaxis" "[1 0 0 0] 0.25"
				"vaxis" "[0 1 0 -40] 0.25"
				"rotation" "0"
				"lightmapscale" "128"
				"smoothing_groups" "0"
			}
			side
			{
				"id" "301"
				"plane" "(1040 6950 -2074) (-2042 6950 -2074) (-2042 6938 -2074)"
				"material" "TOOLS/TOOLSNODRAW"
				"uaxis" "[1 0 0 0] 0.25"
				"vaxis" "[0 1 0 -40] 0.25"
				"rotation" "0"
				"lightmapscale" "128"
				"smoothing_groups" "0"
			}
			editor
			{
				"color" "0 140 141"
				"visgroupid" "4"
				"visgroupshown" "0"
				"visgroupautoshown" "1"
			}
		}
	}
	hidden
	{
		solid
		{
			"id" "296"
			side
			{
				"id" "312"
				"plane" "(-2042 7344 -2062) (1040 7344 -2062) (1040 6950 -2062)"
				"material" "TOOLS/TOOLSNODRAW"
				"uaxis" "[1 0 0 0] 0.25"
				"vaxis" "[0 -1 0 48] 0.25"
				"rotation" "0"
				"lightmapscale" "128"
				"smoothing_groups" "0"
			}
			side
			{
				"id" "311"
				"plane" "(-2042 6950 -2074) (1040 6950 -2074) (1040 7344 -2074)"
				"material" "TOOLS/TOOLSNODRAW"
				"uaxis" "[1 0 0 0] 0.25"
				"vaxis" "[0 -1 0 48] 0.25"
				"rotation" "0"
				"lightmapscale" "128"
				"smoothing_groups" "0"
			}
			side
			{
				"id" "310"
				"plane" "(-2042 7344 -2062) (-2042 6950 -2062) (-2042 6950 -2074)"
				"material" "TOOLS/TOOLSNODRAW"
				"uaxis" "[0 1 0 -48] 0.25"
				"vaxis" "[0 0 -1 8] 0.25"
				"rotation" "0"
				"lightmapscale" "128"
				"smoothing_groups" "0"
			}
			side
			{
				"id" "309"
				"plane" "(1040 7344 -2074) (1040 6950 -2074) (1040 6950 -2062)"
				"material" "TOOLS/TOOLSNODRAW"
				"uaxis" "[0 1 0 -48] 0.25"
				"vaxis" "[0 0 -1 8] 0.25"
				"rotation" "0"
				"lightmapscale" "128"
				"smoothing_groups" "0"
			}
			side
			{
				"id" "308"
				"plane" "(1040 7344 -2062) (-2042 7344 -2062) (-2042 7344 -2074)"
				"material" "TOOLS/TOOLSNODRAW"
				"uaxis" "[1 0 0 0] 0.25"
				"vaxis" "[0 0 -1 8] 0.25"
				"rotation" "0"
				"lightmapscale" "128"
				"smoothing_groups" "0"
			}
			side
			{
				"id" "307"
				"plane" "(1040 6950 -2074) (-2042 6950 -2074) (-2042 6950 -2062)"
				"material" "TOOLS/TOOLSNODRAW"
				"uaxis" "[1 0 0 0] 0.25"
				"vaxis" "[0 0 -1 8] 0.25"
				"rotation" "0"
				"lightmapscale" "128"
				"smoothing_groups" "0"
			}
			editor
			{
				"color" "0 140 141"
				"visgroupid" "4"
				"visgroupshown" "0"
				"visgroupautoshown" "1"
			}
		}
	}
	hidden
	{
		solid
		{
			"id" "297"
			side
			{
				"id" "318"
				"plane" "(-2042 7344 -1656) (1040 7344 -1656) (1040 7344 -2074)"
				"material" "TOOLS/TOOLSNODRAW"
				"uaxis" "[1 0 0 0] 0.25"
				"vaxis" "[0 0 -1 32] 0.25"
				"rotation" "0"
				"lightmapscale" "128"
				"smoothing_groups" "0"
			}
			side
			{
				"id" "317"
				"plane" "(-2042 7356 -2074) (1040 7356 -2074) (1040 7356 -1656)"
				"material" "TOOLS/TOOLSNODRAW"
				"uaxis" "[1 0 0 0] 0.25"
				"vaxis" "[0 0 -1 32] 0.25"
				"rotation" "0"
				"lightmapscale" "128"
				"smoothing_groups" "0"
			}
			side
			{
				"id" "316"
				"plane" "(-2042 7344 -1656) (-2042 7344 -2074) (-2042 7356 -2074)"
				"material" "TOOLS/TOOLSNODRAW"
				"uaxis" "[0 0 1 -32] 0.25"
				"vaxis" "[0 1 0 0] 0.25"
				"rotation" "0"
				"lightmapscale" "128"
				"smoothing_groups" "0"
			}
			side
			{
				"id" "315"
				"plane" "(1040 7356 -1656) (1040 7356 -2074) (1040 7344 -2074)"
				"material" "TOOLS/TOOLSNODRAW"
				"uaxis" "[0 0 1 -32] 0.25"
				"vaxis" "[0 1 0 0] 0.25"
				"rotation" "0"
				"lightmapscale" "128"
				"smoothing_groups" "0"
			}
			side
			{
				"id" "314"
				"plane" "(1040 7344 -1656) (-2042 7344 -1656) (-2042 7356 -1656)"
				"material" "TOOLS/TOOLSNODRAW"
				"uaxis" "[1 0 0 0] 0.25"
				"vaxis" "[0 1 0 0] 0.25"
				"rotation" "0"
				"lightmapscale" "128"
				"smoothing_groups" "0"
			}
			side
			{
				"id" "313"
				"plane" "(1040 7356 -2074) (-2042 7356 -2074) (-2042 7344 -2074)"
				"material" "TOOLS/TOOLSNODRAW"
				"uaxis" "[1 0 0 0] 0.25"
				"vaxis" "[0 1 0 0] 0.25"
				"rotation" "0"
				"lightmapscale" "128"
				"smoothing_groups" "0"
			}
			editor
			{
				"color" "0 140 141"
				"visgroupid" "4"
				"visgroupshown" "0"
				"visgroupautoshown" "1"
			}
		}
	}
	hidden
	{
		solid
		{
			"id" "966"
			side
			{
				"id" "521"
				"plane" "(47.3085 6345.09 -2140.47) (63.3053 6345.09 -2140.47) (63.3083 6345.09 -2423.47)"
				"material" "GLASS/GLASSWINDOW007A"
				"uaxis" "[1 0 0 -101.021] 0.25"
				"vaxis" "[0 0 -1 337.398] 0.25"
				"rotation" "0"
				"lightmapscale" "16"
				"smoothing_groups" "0"
			}
			side
			{
				"id" "520"
				"plane" "(47.3042 6360.42 -2423.46) (63.3014 6360.42 -2423.46) (63.3038 6360.42 -2140.47)"
				"material" "GLASS/GLASSWINDOW007A"
				"uaxis" "[1 0 0 -101.021] 0.25"
				"vaxis" "[0 0 -1 337.398] 0.25"
				"rotation" "0"
				"lightmapscale" "16"
				"smoothing_groups" "0"
			}
			side
			{
				"id" "519"
				"plane" "(47.3085 6345.09 -2423.47) (47.3042 6360.42 -2423.46) (47.3042 6360.42 -2140.48)"
				"material" "GLASS/GLASSWINDOW007A"
				"uaxis" "[0 0 1 -337.398] 0.25"
				"vaxis" "[0 1 0 -68.085] 0.25"
				"rotation" "0"
				"lightmapscale" "16"
				"smoothing_groups" "0"
			}
			side
			{
				"id" "518"
				"plane" "(63.3014 6360.42 -2423.46) (63.3083 6345.09 -2423.47) (63.3053 6345.09 -2140.47)"
				"material" "GLASS/GLASSWINDOW007A"
				"uaxis" "[0 0 1 -337.398] 0.25"
				"vaxis" "[0 1 0 -68.085] 0.25"
				"rotation" "0"
				"lightmapscale" "16"
				"smoothing_groups" "0"
			}
			side
			{
				"id" "517"
				"plane" "(47.3085 6345.09 -2140.47) (47.3042 6360.42 -2140.48) (63.3038 6360.42 -2140.47)"
				"material" "GLASS/GLASSWINDOW007A"
				"uaxis" "[1 0 0 -101.021] 0.25"
				"vaxis" "[0 1 0 -68.085] 0.25"
				"rotation" "0"
				"lightmapscale" "16"
				"smoothing_groups" "0"
			}
			side
			{
				"id" "516"
				"plane" "(47.3042 6360.42 -2423.46) (47.3085 6345.09 -2423.47) (63.3083 6345.09 -2423.47)"
				"material" "GLASS/GLASSWINDOW007A"
				"uaxis" "[1 0 0 -101.021] 0.25"
				"vaxis" "[0 1 0 -68.085] 0.25"
				"rotation" "0"
				"lightmapscale" "16"
				"smoothing_groups" "0"
			}
			editor
			{
				"color" "0 128 237"
				"visgroupid" "4"
				"visgroupshown" "0"
				"visgroupautoshown" "1"
			}
		}
	}
	hidden
	{
		solid
		{
			"id" "967"
			side
			{
				"id" "527"
				"plane" "(46.4912 6208 -2135.86) (62.4885 6208 -2135.86) (62.4873 6208.01 -2418.86)"
				"material" "METAL/CITADEL_TILEFLOOR016A_CHEAP"
				"uaxis" "[1 0 0 -98.0208] 0.25"
				"vaxis" "[0 0 -1 356.398] 0.25"
				"rotation" "0"
				"lightmapscale" "16"
				"smoothing_groups" "0"
			}
			side
			{
				"id" "526"
				"plane" "(46.4941 6345 -2418.85) (62.4922 6345 -2418.85) (62.4941 6344.99 -2135.86)"
				"material" "METAL/CITADEL_TILEFLOOR016A_CHEAP"
				"uaxis" "[1 0 0 -98.0208] 0.25"
				"vaxis" "[0 0 -1 356.398] 0.25"
				"rotation" "0"
				"lightmapscale" "16"
				"smoothing_groups" "0"
			}
			side
			{
				"id" "525"
				"plane" "(46.4939 6208 -2418.85) (46.4941 6345 -2418.85) (46.488 6344.99 -2135.87)"
				"material" "METAL/CITADEL_TILEFLOOR016A_CHEAP"
				"uaxis" "[0 0 1 -356.398] 0.25"
				"vaxis" "[0 1 0 -369.085] 0.25"
				"rotation" "0"
				"lightmapscale" "16"
				"smoothing_groups" "0"
			}
			side
			{
				"id" "524"
				"plane" "(62.4922 6345 -2418.85) (62.4873 6208.01 -2418.86) (62.4885 6208 -2135.86)"
				"material" "METAL/CITADEL_TILEFLOOR016A_CHEAP"
				"uaxis" "[0 0 1 -356.398] 0.25"
				"vaxis" "[0 1 0 -369.085] 0.25"
				"rotation" "0"
				"lightmapscale" "16"
				"smoothing_groups" "0"
			}
			side
			{
				"id" "523"
				"plane" "(46.4912 6208 -2135.86) (46.488 6344.99 -2135.87) (62.4941 6344.99 -2135.86)"
				"material" "METAL/CITADEL_TILEFLOOR016A_CHEAP"
				"uaxis" "[1 0 0 -98.0208] 0.25"
				"vaxis" "[0 1 0 -369.085] 0.25"
				"rotation" "0"
				"lightmapscale" "16"
				"smoothing_groups" "0"
			}
			side
			{
				"id" "522"
				"plane" "(46.4941 6345 -2418.85) (46.4939 6208 -2418.85) (62.4873 6208.01 -2418.86)"
				"material" "METAL/CITADEL_TILEFLOOR016A_CHEAP"
				"uaxis" "[1 0 0 -98.0208] 0.25"
				"vaxis" "[0 1 0 -369.085] 0.25"
				"rotation" "0"
				"lightmapscale" "16"
				"smoothing_groups" "0"
			}
			editor
			{
				"color" "0 194 119"
				"visgroupid" "4"
				"visgroupshown" "0"
				"visgroupautoshown" "1"
			}
		}
	}
	hidden
	{
		solid
		{
			"id" "968"
			side
			{
				"id" "533"
				"plane" "(896.03 6208.41 -2419.97) (896.02 6208.42 -2407.95) (895.994 6502.97 -2407.4)"
				"material" "METAL/CITADEL_TILEFLOOR016A_CHEAP"
				"uaxis" "[0 0 -1 182.242] 0.25"
				"vaxis" "[0 1 0 -27.8184] 0.25"
				"rotation" "0"
				"lightmapscale" "16"
				"smoothing_groups" "0"
			}
			side
			{
				"id" "532"
				"plane" "(-1343.35 6503.18 -2419.2) (-1343.35 6503.2 -2407.18) (-1343.32 6208.65 -2407.73)"
				"material" "METAL/CITADEL_TILEFLOOR016A_CHEAP"
				"uaxis" "[0 0 -1 182.242] 0.25"
				"vaxis" "[0 1 0 -27.8184] 0.25"
				"rotation" "0"
				"lightmapscale" "16"
				"smoothing_groups" "0"
			}
			side
			{
				"id" "531"
				"plane" "(-1343.32 6208.63 -2419.74) (896.03 6208.41 -2419.97) (896.005 6502.96 -2419.43)"
				"material" "METAL/CITADEL_TILEFLOOR016A_CHEAP"
				"uaxis" "[-1 0 0 -6.66089] 0.25"
				"vaxis" "[0 1 0.00181973 -11.2676] 0.25"
				"rotation" "0"
				"lightmapscale" "16"
				"smoothing_groups" "0"
			}
			side
			{
				"id" "530"
				"plane" "(-1343.35 6503.2 -2407.18) (895.994 6502.97 -2407.4) (896.02 6208.42 -2407.95)"
				"material" "METAL/CITADEL_TILEFLOOR016A_CHEAP"
				"uaxis" "[-1 0 0 -6.66089] 0.25"
				"vaxis" "[0 1 0.00181973 -11.2676] 0.25"
				"rotation" "0"
				"lightmapscale" "16"
				"smoothing_groups" "0"
			}
			side
			{
				"id" "529"
				"plane" "(-1343.32 6208.65 -2407.73) (896.02 6208.42 -2407.95) (896.03 6208.41 -2419.97)"
				"material" "METAL/CITADEL_TILEFLOOR016A_CHEAP"
				"uaxis" "[0.819152 -0.40558 -0.40558 334.479] 0.25"
				"vaxis" "[0 -0.707107 0.707107 -425.284] 0.25"
				"rotation" "0"
				"lightmapscale" "16"
				"smoothing_groups" "0"
			}
			side
			{
				"id" "528"
				"plane" "(-1343.35 6503.18 -2419.2) (896.005 6502.96 -2419.43) (895.994 6502.97 -2407.4)"
				"material" "METAL/CITADEL_TILEFLOOR016A_CHEAP"
				"uaxis" "[0.819152 -0.40558 -0.40558 334.479] 0.25"
				"vaxis" "[0 -0.707107 0.707107 -425.284] 0.25"
				"rotation" "0"
				"lightmapscale" "16"
				"smoothing_groups" "0"
			}
			editor
			{
				"color" "0 120 145"
				"visgroupid" "4"
				"visgroupshown" "0"
				"visgroupautoshown" "1"
			}
		}
	}
	solid
	{
		"id" "1060"
		side
		{
			"id" "719"
			"plane" "(-2042 7682 -1561) (1040 7682 -1561) (1040 7682 -1979)"
			"material" "TOOLS/TOOLSNODRAW"
			"uaxis" "[1 0 0 0] 0.25"
			"vaxis" "[0 0 -1 28] 0.25"
			"rotation" "0"
			"lightmapscale" "128"
			"smoothing_groups" "0"
		}
		side
		{
			"id" "718"
			"plane" "(-2042 7694 -1979) (1040 7694 -1979) (1040 7694 -1561)"
			"material" "TOOLS/TOOLSNODRAW"
			"uaxis" "[1 0 0 0] 0.25"
			"vaxis" "[0 0 -1 28] 0.25"
			"rotation" "0"
			"lightmapscale" "128"
			"smoothing_groups" "0"
		}
		side
		{
			"id" "717"
			"plane" "(-2042 7682 -1561) (-2042 7682 -1979) (-2042 7694 -1979)"
			"material" "TOOLS/TOOLSNODRAW"
			"uaxis" "[0 0 1 -28] 0.25"
			"vaxis" "[0 1 0 -8] 0.25"
			"rotation" "0"
			"lightmapscale" "128"
			"smoothing_groups" "0"
		}
		side
		{
			"id" "716"
			"plane" "(1040 7694 -1561) (1040 7694 -1979) (1040 7682 -1979)"
			"material" "TOOLS/TOOLSNODRAW"
			"uaxis" "[0 0 1 -28] 0.25"
			"vaxis" "[0 1 0 -8] 0.25"
			"rotation" "0"
			"lightmapscale" "128"
			"smoothing_groups" "0"
		}
		side
		{
			"id" "715"
			"plane" "(1040 7682 -1561) (-2042 7682 -1561) (-2042 7694 -1561)"
			"material" "TOOLS/TOOLSNODRAW"
			"uaxis" "[1 0 0 0] 0.25"
			"vaxis" "[0 1 0 -8] 0.25"
			"rotation" "0"
			"lightmapscale" "128"
			"smoothing_groups" "0"
		}
		side
		{
			"id" "714"
			"plane" "(1040 7694 -1979) (-2042 7694 -1979) (-2042 7682 -1979)"
			"material" "TOOLS/TOOLSNODRAW"
			"uaxis" "[1 0 0 0] 0.25"
			"vaxis" "[0 1 0 -8] 0.25"
			"rotation" "0"
			"lightmapscale" "128"
			"smoothing_groups" "0"
		}
		editor
		{
			"color" "146 103 0"
			"groupid" "1059"
			"visgroupshown" "1"
			"visgroupautoshown" "1"
		}
	}
	solid
	{
		"id" "1061"
		side
		{
			"id" "725"
			"plane" "(-2042 7682 -1967) (1040 7682 -1967) (1040 7288 -1967)"
			"material" "TOOLS/TOOLSNODRAW"
			"uaxis" "[1 0 0 0] 0.25"
			"vaxis" "[0 -1 0 56] 0.25"
			"rotation" "0"
			"lightmapscale" "128"
			"smoothing_groups" "0"
		}
		side
		{
			"id" "724"
			"plane" "(-2042 7288 -1979) (1040 7288 -1979) (1040 7682 -1979)"
			"material" "TOOLS/TOOLSNODRAW"
			"uaxis" "[1 0 0 0] 0.25"
			"vaxis" "[0 -1 0 56] 0.25"
			"rotation" "0"
			"lightmapscale" "128"
			"smoothing_groups" "0"
		}
		side
		{
			"id" "723"
			"plane" "(-2042 7682 -1967) (-2042 7288 -1967) (-2042 7288 -1979)"
			"material" "TOOLS/TOOLSNODRAW"
			"uaxis" "[0 1 0 -56] 0.25"
			"vaxis" "[0 0 -1 4] 0.25"
			"rotation" "0"
			"lightmapscale" "128"
			"smoothing_groups" "0"
		}
		side
		{
			"id" "722"
			"plane" "(1040 7682 -1979) (1040 7288 -1979) (1040 7288 -1967)"
			"material" "TOOLS/TOOLSNODRAW"
			"uaxis" "[0 1 0 -56] 0.25"
			"vaxis" "[0 0 -1 4] 0.25"
			"rotation" "0"
			"lightmapscale" "128"
			"smoothing_groups" "0"
		}
		side
		{
			"id" "721"
			"plane" "(1040 7682 -1967) (-2042 7682 -1967) (-2042 7682 -1979)"
			"material" "TOOLS/TOOLSNODRAW"
			"uaxis" "[1 0 0 0] 0.25"
			"vaxis" "[0 0 -1 4] 0.25"
			"rotation" "0"
			"lightmapscale" "128"
			"smoothing_groups" "0"
		}
		side
		{
			"id" "720"
			"plane" "(1040 7288 -1979) (-2042 7288 -1979) (-2042 7288 -1967)"
			"material" "TOOLS/TOOLSNODRAW"
			"uaxis" "[1 0 0 0] 0.25"
			"vaxis" "[0 0 -1 4] 0.25"
			"rotation" "0"
			"lightmapscale" "128"
			"smoothing_groups" "0"
		}
		editor
		{
			"color" "146 103 0"
			"groupid" "1059"
			"visgroupshown" "1"
			"visgroupautoshown" "1"
		}
	}
	solid
	{
		"id" "1062"
		side
		{
			"id" "731"
			"plane" "(-2042 7276 -1561) (1040 7276 -1561) (1040 7276 -1979)"
			"material" "TOOLS/TOOLSNODRAW"
			"uaxis" "[1 0 0 0] 0.25"
			"vaxis" "[0 0 -1 28] 0.25"
			"rotation" "0"
			"lightmapscale" "128"
			"smoothing_groups" "0"
		}
		side
		{
			"id" "730"
			"plane" "(-2042 7288 -1979) (1040 7288 -1979) (1040 7288 -1561)"
			"material" "TOOLS/TOOLSNODRAW"
			"uaxis" "[1 0 0 0] 0.25"
			"vaxis" "[0 0 -1 28] 0.25"
			"rotation" "0"
			"lightmapscale" "128"
			"smoothing_groups" "0"
		}
		side
		{
			"id" "729"
			"plane" "(-2042 7276 -1561) (-2042 7276 -1979) (-2042 7288 -1979)"
			"material" "TOOLS/TOOLSNODRAW"
			"uaxis" "[0 0 1 -28] 0.25"
			"vaxis" "[0 1 0 -48] 0.25"
			"rotation" "0"
			"lightmapscale" "128"
			"smoothing_groups" "0"
		}
		side
		{
			"id" "728"
			"plane" "(1040 7288 -1561) (1040 7288 -1979) (1040 7276 -1979)"
			"material" "TOOLS/TOOLSNODRAW"
			"uaxis" "[0 0 1 -28] 0.25"
			"vaxis" "[0 1 0 -48] 0.25"
			"rotation" "0"
			"lightmapscale" "128"
			"smoothing_groups" "0"
		}
		side
		{
			"id" "727"
			"plane" "(1040 7276 -1561) (-2042 7276 -1561) (-2042 7288 -1561)"
			"material" "TOOLS/TOOLSNODRAW"
			"uaxis" "[1 0 0 0] 0.25"
			"vaxis" "[0 1 0 -48] 0.25"
			"rotation" "0"
			"lightmapscale" "128"
			"smoothing_groups" "0"
		}
		side
		{
			"id" "726"
			"plane" "(1040 7288 -1979) (-2042 7288 -1979) (-2042 7276 -1979)"
			"material" "TOOLS/TOOLSNODRAW"
			"uaxis" "[1 0 0 0] 0.25"
			"vaxis" "[0 1 0 -48] 0.25"
			"rotation" "0"
			"lightmapscale" "128"
			"smoothing_groups" "0"
		}
		editor
		{
			"color" "146 103 0"
			"groupid" "1059"
			"visgroupshown" "1"
			"visgroupautoshown" "1"
		}
	}
	solid
	{
		"id" "1063"
		side
		{
			"id" "737"
			"plane" "(-2042 7682 -1561) (1040 7682 -1561) (1040 7288 -1561)"
			"material" "TOOLS/TOOLSNODRAW"
			"uaxis" "[1 0 0 0] 0.25"
			"vaxis" "[0 -1 0 56] 0.25"
			"rotation" "0"
			"lightmapscale" "128"
			"smoothing_groups" "0"
		}
		side
		{
			"id" "736"
			"plane" "(-2042 7288 -1573) (1040 7288 -1573) (1040 7682 -1573)"
			"material" "TOOLS/TOOLSNODRAW"
			"uaxis" "[1 0 0 0] 0.25"
			"vaxis" "[0 -1 0 56] 0.25"
			"rotation" "0"
			"lightmapscale" "128"
			"smoothing_groups" "0"
		}
		side
		{
			"id" "735"
			"plane" "(-2042 7682 -1561) (-2042 7288 -1561) (-2042 7288 -1573)"
			"material" "TOOLS/TOOLSNODRAW"
			"uaxis" "[0 1 0 -56] 0.25"
			"vaxis" "[0 0 -1 28] 0.25"
			"rotation" "0"
			"lightmapscale" "128"
			"smoothing_groups" "0"
		}
		side
		{
			"id" "734"
			"plane" "(1040 7682 -1573) (1040 7288 -1573) (1040 7288 -1561)"
			"material" "TOOLS/TOOLSNODRAW"
			"uaxis" "[0 1 0 -56] 0.25"
			"vaxis" "[0 0 -1 28] 0.25"
			"rotation" "0"
			"lightmapscale" "128"
			"smoothing_groups" "0"
		}
		side
		{
			"id" "733"
			"plane" "(1040 7682 -1561) (-2042 7682 -1561) (-2042 7682 -1573)"
			"material" "TOOLS/TOOLSNODRAW"
			"uaxis" "[1 0 0 0] 0.25"
			"vaxis" "[0 0 -1 28] 0.25"
			"rotation" "0"
			"lightmapscale" "128"
			"smoothing_groups" "0"
		}
		side
		{
			"id" "732"
			"plane" "(1040 7288 -1573) (-2042 7288 -1573) (-2042 7288 -1561)"
			"material" "TOOLS/TOOLSNODRAW"
			"uaxis" "[1 0 0 0] 0.25"
			"vaxis" "[0 0 -1 28] 0.25"
			"rotation" "0"
			"lightmapscale" "128"
			"smoothing_groups" "0"
		}
		editor
		{
			"color" "146 103 0"
			"groupid" "1059"
			"visgroupshown" "1"
			"visgroupautoshown" "1"
		}
	}
	solid
	{
		"id" "1064"
		side
		{
			"id" "743"
			"plane" "(47 7463 -1573) (63 7463 -1573) (63 7288 -1573)"
			"material" "TOOLS/TOOLSNODRAW"
			"uaxis" "[1 0 0 0] 0.25"
			"vaxis" "[0 -1 0 56] 0.25"
			"rotation" "0"
			"lightmapscale" "128"
			"smoothing_groups" "0"
		}
		side
		{
			"id" "742"
			"plane" "(47 7288 -1967) (63 7288 -1967) (63 7463 -1967)"
			"material" "TOOLS/TOOLSNODRAW"
			"uaxis" "[1 0 0 0] 0.25"
			"vaxis" "[0 -1 0 56] 0.25"
			"rotation" "0"
			"lightmapscale" "128"
			"smoothing_groups" "0"
		}
		side
		{
			"id" "741"
			"plane" "(47 7463 -1573) (47 7288 -1573) (47 7288 -1967)"
			"material" "TOOLS/TOOLSNODRAW"
			"uaxis" "[0 1 0 -56] 0.25"
			"vaxis" "[0 0 -1 28] 0.25"
			"rotation" "0"
			"lightmapscale" "128"
			"smoothing_groups" "0"
		}
		side
		{
			"id" "740"
			"plane" "(63 7463 -1967) (63 7288 -1967) (63 7288 -1573)"
			"material" "TOOLS/TOOLSNODRAW"
			"uaxis" "[0 1 0 -56] 0.25"
			"vaxis" "[0 0 -1 28] 0.25"
			"rotation" "0"
			"lightmapscale" "128"
			"smoothing_groups" "0"
		}
		side
		{
			"id" "739"
			"plane" "(63 7463 -1573) (47 7463 -1573) (47 7463 -1967)"
			"material" "TOOLS/TOOLSNODRAW"
			"uaxis" "[1 0 0 0] 0.25"
			"vaxis" "[0 0 -1 28] 0.25"
			"rotation" "0"
			"lightmapscale" "128"
			"smoothing_groups" "0"
		}
		side
		{
			"id" "738"
			"plane" "(63 7288 -1967) (47 7288 -1967) (47 7288 -1573)"
			"material" "TOOLS/TOOLSNODRAW"
			"uaxis" "[1 0 0 0] 0.25"
			"vaxis" "[0 0 -1 28] 0.25"
			"rotation" "0"
			"lightmapscale" "128"
			"smoothing_groups" "0"
		}
		editor
		{
			"color" "0 143 148"
			"visgroupshown" "1"
			"visgroupautoshown" "1"
		}
	}
	solid
	{
		"id" "1065"
		side
		{
			"id" "749"
			"plane" "(47 7485 -1573) (63 7485 -1573) (63 7463 -1573)"
			"material" "TOOLS/TOOLSNODRAW"
			"uaxis" "[1 0 0 0] 0.25"
			"vaxis" "[0 -1 0 44] 0.25"
			"rotation" "0"
			"lightmapscale" "128"
			"smoothing_groups" "0"
		}
		side
		{
			"id" "748"
			"plane" "(47 7463 -1967) (63 7463 -1967) (63 7485 -1967)"
			"material" "TOOLS/TOOLSNODRAW"
			"uaxis" "[1 0 0 0] 0.25"
			"vaxis" "[0 -1 0 44] 0.25"
			"rotation" "0"
			"lightmapscale" "128"
			"smoothing_groups" "0"
		}
		side
		{
			"id" "747"
			"plane" "(47 7485 -1573) (47 7463 -1573) (47 7463 -1967)"
			"material" "TOOLS/TOOLSNODRAW"
			"uaxis" "[0 1 0 -44] 0.25"
			"vaxis" "[0 0 -1 28] 0.25"
			"rotation" "0"
			"lightmapscale" "128"
			"smoothing_groups" "0"
		}
		side
		{
			"id" "746"
			"plane" "(63 7485 -1967) (63 7463 -1967) (63 7463 -1573)"
			"material" "TOOLS/TOOLSNODRAW"
			"uaxis" "[0 1 0 -44] 0.25"
			"vaxis" "[0 0 -1 28] 0.25"
			"rotation" "0"
			"lightmapscale" "128"
			"smoothing_groups" "0"
		}
		side
		{
			"id" "745"
			"plane" "(63 7485 -1573) (47 7485 -1573) (47 7485 -1967)"
			"material" "TOOLS/TOOLSNODRAW"
			"uaxis" "[1 0 0 0] 0.25"
			"vaxis" "[0 0 -1 28] 0.25"
			"rotation" "0"
			"lightmapscale" "128"
			"smoothing_groups" "0"
		}
		side
		{
			"id" "744"
			"plane" "(63 7463 -1967) (47 7463 -1967) (47 7463 -1573)"
			"material" "TOOLS/TOOLSNODRAW"
			"uaxis" "[1 0 0 0] 0.25"
			"vaxis" "[0 0 -1 28] 0.25"
			"rotation" "0"
			"lightmapscale" "128"
			"smoothing_groups" "0"
		}
		editor
		{
			"color" "0 213 218"
			"visgroupshown" "1"
			"visgroupautoshown" "1"
		}
	}
	solid
	{
		"id" "1066"
		side
		{
			"id" "755"
			"plane" "(-358 7507 -1967) (-374 7507 -1967) (-374 7485 -1967)"
			"material" "TOOLS/TOOLSNODRAW"
			"uaxis" "[-1 0 0 -27.998] 0.25"
			"vaxis" "[0 1 0 -60] 0.25"
			"rotation" "0"
			"lightmapscale" "128"
			"smoothing_groups" "0"
		}
		side
		{
			"id" "754"
			"plane" "(-358 7485 -1573) (-374 7485 -1573) (-374 7507 -1573)"
			"material" "TOOLS/TOOLSNODRAW"
			"uaxis" "[-1 0 0 -27.998] 0.25"
			"vaxis" "[0 1 0 -60] 0.25"
			"rotation" "0"
			"lightmapscale" "128"
			"smoothing_groups" "0"
		}
		side
		{
			"id" "753"
			"plane" "(-358 7485 -1573) (-358 7507 -1573) (-358 7507 -1967)"
			"material" "TOOLS/TOOLSNODRAW"
			"uaxis" "[0 -1 0 60] 0.25"
			"vaxis" "[0 0 1 -20] 0.25"
			"rotation" "0"
			"lightmapscale" "128"
			"smoothing_groups" "0"
		}
		side
		{
			"id" "752"
			"plane" "(-374 7485 -1967) (-374 7507 -1967) (-374 7507 -1573)"
			"material" "TOOLS/TOOLSNODRAW"
			"uaxis" "[0 -1 0 60] 0.25"
			"vaxis" "[0 0 1 -20] 0.25"
			"rotation" "0"
			"lightmapscale" "128"
			"smoothing_groups" "0"
		}
		side
		{
			"id" "751"
			"plane" "(-374 7485 -1573) (-358 7485 -1573) (-358 7485 -1967)"
			"material" "TOOLS/TOOLSNODRAW"
			"uaxis" "[-1 0 0 -27.998] 0.25"
			"vaxis" "[0 0 1 -20] 0.25"
			"rotation" "0"
			"lightmapscale" "128"
			"smoothing_groups" "0"
		}
		side
		{
			"id" "750"
			"plane" "(-374 7507 -1967) (-358 7507 -1967) (-358 7507 -1573)"
			"material" "TOOLS/TOOLSNODRAW"
			"uaxis" "[-1 0 0 -27.998] 0.25"
			"vaxis" "[0 0 1 -20] 0.25"
			"rotation" "0"
			"lightmapscale" "128"
			"smoothing_groups" "0"
		}
		editor
		{
			"color" "0 213 218"
			"visgroupshown" "1"
			"visgroupautoshown" "1"
		}
	}
	solid
	{
		"id" "1067"
		side
		{
			"id" "761"
			"plane" "(-358 7682 -1967) (-374 7682 -1967) (-374 7507 -1967)"
			"material" "TOOLS/TOOLSNODRAW"
			"uaxis" "[-1 0 0 -27.998] 0.25"
			"vaxis" "[0 1 0 -48] 0.25"
			"rotation" "0"
			"lightmapscale" "128"
			"smoothing_groups" "0"
		}
		side
		{
			"id" "760"
			"plane" "(-358 7507 -1573) (-374 7507 -1573) (-374 7682 -1573)"
			"material" "TOOLS/TOOLSNODRAW"
			"uaxis" "[-1 0 0 -27.998] 0.25"
			"vaxis" "[0 1 0 -48] 0.25"
			"rotation" "0"
			"lightmapscale" "128"
			"smoothing_groups" "0"
		}
		side
		{
			"id" "759"
			"plane" "(-358 7507 -1573) (-358 7682 -1573) (-358 7682 -1967)"
			"material" "TOOLS/TOOLSNODRAW"
			"uaxis" "[0 -1 0 48] 0.25"
			"vaxis" "[0 0 1 -20] 0.25"
			"rotation" "0"
			"lightmapscale" "128"
			"smoothing_groups" "0"
		}
		side
		{
			"id" "758"
			"plane" "(-374 7507 -1967) (-374 7682 -1967) (-374 7682 -1573)"
			"material" "TOOLS/TOOLSNODRAW"
			"uaxis" "[0 -1 0 48] 0.25"
			"vaxis" "[0 0 1 -20] 0.25"
			"rotation" "0"
			"lightmapscale" "128"
			"smoothing_groups" "0"
		}
		side
		{
			"id" "757"
			"plane" "(-374 7507 -1573) (-358 7507 -1573) (-358 7507 -1967)"
			"material" "TOOLS/TOOLSNODRAW"
			"uaxis" "[-1 0 0 -27.998] 0.25"
			"vaxis" "[0 0 1 -20] 0.25"
			"rotation" "0"
			"lightmapscale" "128"
			"smoothing_groups" "0"
		}
		side
		{
			"id" "756"
			"plane" "(-374 7682 -1967) (-358 7682 -1967) (-358 7682 -1573)"
			"material" "TOOLS/TOOLSNODRAW"
			"uaxis" "[-1 0 0 -27.998] 0.25"
			"vaxis" "[0 0 1 -20] 0.25"
			"rotation" "0"
			"lightmapscale" "128"
			"smoothing_groups" "0"
		}
		editor
		{
			"color" "0 143 148"
			"visgroupshown" "1"
			"visgroupautoshown" "1"
		}
	}
	solid
	{
		"id" "1430"
		side
		{
			"id" "820"
			"plane" "(899 4041 -3036) (899 4250 -3036) (929 4250 -3036)"
			"material" "TOOLS/TOOLSNODRAW"
			"uaxis" "[1 0 0 0] 0.25"
			"vaxis" "[0 -1 0 0] 0.25"
			"rotation" "0"
			"lightmapscale" "128"
			"smoothing_groups" "0"
		}
		side
		{
			"id" "819"
			"plane" "(899 4041 -3245) (899 4250 -3036) (899 4041 -3036)"
			"material" "TOOLS/TOOLSNODRAW"
			"uaxis" "[0 1 0 0] 0.25"
			"vaxis" "[0 0 -1 0] 0.25"
			"rotation" "0"
			"lightmapscale" "128"
			"smoothing_groups" "0"
		}
		side
		{
			"id" "818"
			"plane" "(929 4041 -3245) (929 4041 -3036) (929 4250 -3036)"
			"material" "TOOLS/TOOLSNODRAW"
			"uaxis" "[0 1 0 -4] 0.25"
			"vaxis" "[0 0 -1 -12] 0.25"
			"rotation" "0"
			"lightmapscale" "128"
			"smoothing_groups" "0"
		}
		side
		{
			"id" "817"
			"plane" "(929 4041 -3245) (899 4041 -3245) (899 4041 -3036)"
			"material" "TOOLS/TOOLSNODRAW"
			"uaxis" "[1 0 0 0] 0.25"
			"vaxis" "[0 0 -1 0] 0.25"
			"rotation" "0"
			"lightmapscale" "128"
			"smoothing_groups" "0"
		}
		side
		{
			"id" "816"
			"plane" "(899 4041 -3245) (929 4041 -3245) (929 4250 -3036)"
			"material" "TOOLS/TOOLSNODRAW"
			"uaxis" "[1 0 0 0] 0.25"
			"vaxis" "[0 0 -1 0] 0.25"
			"rotation" "0"
			"lightmapscale" "128"
			"smoothing_groups" "0"
		}
		editor
		{
			"color" "0 233 206"
			"visgroupshown" "1"
			"visgroupautoshown" "1"
		}
	}
	solid
	{
		"id" "1431"
		side
		{
			"id" "830"
			"plane" "(929 4459 -3036) (929 4250 -3036) (899 4250 -3036)"
			"material" "TOOLS/TOOLSNODRAW"
			"uaxis" "[1 0 0 0] 0.25"
			"vaxis" "[0 1 0 -16] 0.25"
			"rotation" "0"
			"lightmapscale" "128"
			"smoothing_groups" "0"
		}
		side
		{
			"id" "829"
			"plane" "(899 4459 -3036) (899 4250 -3036) (899 4459 -3245)"
			"material" "TOOLS/TOOLSNODRAW"
			"uaxis" "[0 -1 0 16] 0.25"
			"vaxis" "[0 0 -1 0] 0.25"
			"rotation" "0"
			"lightmapscale" "128"
			"smoothing_groups" "0"
		}
		side
		{
			"id" "828"
			"plane" "(929 4250 -3036) (929 4459 -3036) (929 4459 -3245)"
			"material" "TOOLS/TOOLSNODRAW"
			"uaxis" "[0 1 0 -4] 0.25"
			"vaxis" "[0 0 -1 -12] 0.25"
			"rotation" "0"
			"lightmapscale" "128"
			"smoothing_groups" "0"
		}
		side
		{
			"id" "827"
			"plane" "(929 4459 -3036) (899 4459 -3036) (899 4459 -3245)"
			"material" "TOOLS/TOOLSNODRAW"
			"uaxis" "[1 0 0 0] 0.25"
			"vaxis" "[0 0 -1 0] 0.25"
			"rotation" "0"
			"lightmapscale" "128"
			"smoothing_groups" "0"
		}
		side
		{
			"id" "826"
			"plane" "(899 4250 -3036) (929 4250 -3036) (929 4459 -3245)"
			"material" "TOOLS/TOOLSNODRAW"
			"uaxis" "[1 0 0 0] 0.25"
			"vaxis" "[0 0 -1 0] 0.25"
			"rotation" "0"
			"lightmapscale" "128"
			"smoothing_groups" "0"
		}
		editor
		{
			"color" "0 233 206"
			"visgroupshown" "1"
			"visgroupautoshown" "1"
		}
	}
	solid
	{
		"id" "1435"
		side
		{
			"id" "845"
			"plane" "(899 4459 -3454) (899 4250 -3454) (929 4250 -3454)"
			"material" "TOOLS/TOOLSNODRAW"
			"uaxis" "[1 0 0 0] 0.25"
			"vaxis" "[0 1 0 -16] 0.25"
			"rotation" "0"
			"lightmapscale" "128"
			"smoothing_groups" "0"
		}
		side
		{
			"id" "844"
			"plane" "(899 4459 -3245) (899 4250 -3454) (899 4459 -3454)"
			"material" "TOOLS/TOOLSNODRAW"
			"uaxis" "[0 -1 0 16] 0.25"
			"vaxis" "[0 0 1 -24] 0.25"
			"rotation" "0"
			"lightmapscale" "128"
			"smoothing_groups" "0"
		}
		side
		{
			"id" "843"
			"plane" "(929 4459 -3245) (929 4459 -3454) (929 4250 -3454)"
			"material" "TOOLS/TOOLSNODRAW"
			"uaxis" "[0 1 0 -4] 0.25"
			"vaxis" "[0 0 -1 -12] 0.25"
			"rotation" "0"
			"lightmapscale" "128"
			"smoothing_groups" "0"
		}
		side
		{
			"id" "842"
			"plane" "(929 4459 -3245) (899 4459 -3245) (899 4459 -3454)"
			"material" "TOOLS/TOOLSNODRAW"
			"uaxis" "[1 0 0 0] 0.25"
			"vaxis" "[0 0 1 -24] 0.25"
			"rotation" "0"
			"lightmapscale" "128"
			"smoothing_groups" "0"
		}
		side
		{
			"id" "841"
			"plane" "(899 4459 -3245) (929 4459 -3245) (929 4250 -3454)"
			"material" "TOOLS/TOOLSNODRAW"
			"uaxis" "[1 0 0 0] 0.25"
			"vaxis" "[0 0 1 -24] 0.25"
			"rotation" "0"
			"lightmapscale" "128"
			"smoothing_groups" "0"
		}
		editor
		{
			"color" "0 233 206"
			"visgroupshown" "1"
			"visgroupautoshown" "1"
		}
	}
	solid
	{
		"id" "1436"
		side
		{
			"id" "850"
			"plane" "(929 4041 -3454) (929 4250 -3454) (899 4250 -3454)"
			"material" "TOOLS/TOOLSNODRAW"
			"uaxis" "[1 0 0 0] 0.25"
			"vaxis" "[0 -1 0 0] 0.25"
			"rotation" "0"
			"lightmapscale" "128"
			"smoothing_groups" "0"
		}
		side
		{
			"id" "849"
			"plane" "(899 4041 -3454) (899 4250 -3454) (899 4041 -3245)"
			"material" "TOOLS/TOOLSNODRAW"
			"uaxis" "[0 1 0 0] 0.25"
			"vaxis" "[0 0 1 -24] 0.25"
			"rotation" "0"
			"lightmapscale" "128"
			"smoothing_groups" "0"
		}
		side
		{
			"id" "848"
			"plane" "(929 4250 -3454) (929 4041 -3454) (929 4041 -3245)"
			"material" "TOOLS/TOOLSNODRAW"
			"uaxis" "[0 1 0 -4] 0.25"
			"vaxis" "[0 0 -1 -12] 0.25"
			"rotation" "0"
			"lightmapscale" "128"
			"smoothing_groups" "0"
		}
		side
		{
			"id" "847"
			"plane" "(929 4041 -3454) (899 4041 -3454) (899 4041 -3245)"
			"material" "TOOLS/TOOLSNODRAW"
			"uaxis" "[1 0 0 0] 0.25"
			"vaxis" "[0 0 1 -24] 0.25"
			"rotation" "0"
			"lightmapscale" "128"
			"smoothing_groups" "0"
		}
		side
		{
			"id" "846"
			"plane" "(899 4250 -3454) (929 4250 -3454) (929 4041 -3245)"
			"material" "TOOLS/TOOLSNODRAW"
			"uaxis" "[1 0 0 0] 0.25"
			"vaxis" "[0 0 1 -24] 0.25"
			"rotation" "0"
			"lightmapscale" "128"
			"smoothing_groups" "0"
		}
		editor
		{
			"color" "0 233 206"
			"visgroupshown" "1"
			"visgroupautoshown" "1"
		}
	}
	solid
	{
		"id" "1239"
		side
		{
			"id" "767"
			"plane" "(-1344 4244 -3042) (929 4244 -3042) (929 4453 -3251)"
			"material" "TOOLS/TOOLSNODRAW"
			"uaxis" "[1 0 0 60] 0.25"
			"vaxis" "[0 0.707107 -0.707107 -44.7334] 0.25"
			"rotation" "0"
			"lightmapscale" "128"
			"smoothing_groups" "0"
		}
		side
		{
			"id" "766"
			"plane" "(-1344 4459 -3245) (929 4459 -3245) (929 4250 -3036)"
			"material" "TOOLS/TOOLSNODRAW"
			"uaxis" "[1 0 0 60] 0.25"
			"vaxis" "[0 0.707107 -0.707107 -44.7334] 0.25"
			"rotation" "0"
			"lightmapscale" "128"
			"smoothing_groups" "0"
		}
		side
		{
			"id" "765"
			"plane" "(929 4250 -3036) (929 4459 -3245) (929 4453 -3251)"
			"material" "TOOLS/TOOLSNODRAW"
			"uaxis" "[0 -0.707609 0.706605 44.4619] 0.25"
			"vaxis" "[0 0.707609 0.706605 21.755] 0.25"
			"rotation" "0"
			"lightmapscale" "128"
			"smoothing_groups" "0"
		}
		side
		{
			"id" "764"
			"plane" "(929 4244 -3042) (-1344 4244 -3042) (-1344 4250 -3036)"
			"material" "TOOLS/TOOLSNODRAW"
			"uaxis" "[1 0 0 60] 0.25"
			"vaxis" "[0 0.707107 0.707107 21.849] 0.25"
			"rotation" "0"
			"lightmapscale" "128"
			"smoothing_groups" "0"
		}
		side
		{
			"id" "763"
			"plane" "(-1344 4453 -3251) (929 4453 -3251) (929 4459 -3245)"
			"material" "TOOLS/TOOLSNODRAW"
			"uaxis" "[1 0 0 60] 0.25"
			"vaxis" "[0 0.707107 0.707107 21.849] 0.25"
			"rotation" "0"
			"lightmapscale" "128"
			"smoothing_groups" "0"
		}
		side
		{
			"id" "762"
			"plane" "(-1344 4244 -3042) (-1344 4453 -3251) (-1344 4459 -3245)"
			"material" "TOOLS/TOOLSNODRAW"
			"uaxis" "[0 1 0 0] 0.25"
			"vaxis" "[0 0 -1 0] 0.25"
			"rotation" "0"
			"lightmapscale" "128"
			"smoothing_groups" "0"
		}
		editor
		{
			"color" "0 225 170"
			"groupid" "306"
			"visgroupshown" "1"
			"visgroupautoshown" "1"
		}
	}
	solid
	{
		"id" "1240"
		side
		{
			"id" "773"
			"plane" "(-1344 4447 -3245) (929 4447 -3245) (929 4250 -3442)"
			"material" "TOOLS/TOOLSNODRAW"
			"uaxis" "[1 0 0 60] 0.25"
			"vaxis" "[0 -0.707107 -0.707107 -37.849] 0.25"
			"rotation" "0"
			"lightmapscale" "128"
			"smoothing_groups" "0"
		}
		side
		{
			"id" "772"
			"plane" "(-1344 4256 -3448) (929 4256 -3448) (929 4453 -3251)"
			"material" "TOOLS/TOOLSNODRAW"
			"uaxis" "[1 0 0 60] 0.25"
			"vaxis" "[0 -0.707107 -0.707107 -37.849] 0.25"
			"rotation" "0"
			"lightmapscale" "128"
			"smoothing_groups" "0"
		}
		side
		{
			"id" "771"
			"plane" "(929 4453 -3251) (929 4256 -3448) (929 4250 -3442)"
			"material" "TOOLS/TOOLSNODRAW"
			"uaxis" "[0 0.707609 0.706605 37.755] 0.25"
			"vaxis" "[0 0.707609 -0.706605 -4.46189] 0.25"
			"rotation" "0"
			"lightmapscale" "128"
			"smoothing_groups" "0"
		}
		side
		{
			"id" "770"
			"plane" "(-1344 4453 -3251) (929 4453 -3251) (929 4447 -3245)"
			"material" "TOOLS/TOOLSNODRAW"
			"uaxis" "[1 0 0 60] 0.25"
			"vaxis" "[0 0.707107 -0.707107 -4.73341] 0.25"
			"rotation" "0"
			"lightmapscale" "128"
			"smoothing_groups" "0"
		}
		side
		{
			"id" "769"
			"plane" "(929 4256 -3448) (-1344 4256 -3448) (-1344 4250 -3442)"
			"material" "TOOLS/TOOLSNODRAW"
			"uaxis" "[1 0 0 60] 0.25"
			"vaxis" "[0 0.707107 -0.707107 -4.73341] 0.25"
			"rotation" "0"
			"lightmapscale" "128"
			"smoothing_groups" "0"
		}
		side
		{
			"id" "768"
			"plane" "(-1344 4256 -3448) (-1344 4453 -3251) (-1344 4447 -3245)"
			"material" "TOOLS/TOOLSNODRAW"
			"uaxis" "[0 1 0 0] 0.25"
			"vaxis" "[0 0 -1 0] 0.25"
			"rotation" "0"
			"lightmapscale" "128"
			"smoothing_groups" "0"
		}
		editor
		{
			"color" "0 225 170"
			"groupid" "306"
			"visgroupshown" "1"
			"visgroupautoshown" "1"
		}
	}
	solid
	{
		"id" "1241"
		side
		{
			"id" "779"
			"plane" "(929 4041 -3245) (929 4250 -3454) (-1344 4250 -3454)"
			"material" "TOOLS/TOOLSNODRAW"
			"uaxis" "[1 0 0 60] 0.25"
			"vaxis" "[0 0.707107 -0.707107 -44.7334] 0.25"
			"rotation" "0"
			"lightmapscale" "128"
			"smoothing_groups" "0"
		}
		side
		{
			"id" "778"
			"plane" "(-1344 4256 -3448) (929 4256 -3448) (929 4047 -3239)"
			"material" "TOOLS/TOOLSNODRAW"
			"uaxis" "[1 0 0 60] 0.25"
			"vaxis" "[0 0.707107 -0.707107 -44.7334] 0.25"
			"rotation" "0"
			"lightmapscale" "128"
			"smoothing_groups" "0"
		}
		side
		{
			"id" "777"
			"plane" "(929 4047 -3239) (929 4256 -3448) (929 4250 -3454)"
			"material" "TOOLS/TOOLSNODRAW"
			"uaxis" "[0 -0.707609 0.706605 44.4619] 0.25"
			"vaxis" "[0 0.707609 0.706605 45.755] 0.25"
			"rotation" "0"
			"lightmapscale" "128"
			"smoothing_groups" "0"
		}
		side
		{
			"id" "776"
			"plane" "(929 4041 -3245) (-1344 4041 -3245) (-1344 4047 -3239)"
			"material" "TOOLS/TOOLSNODRAW"
			"uaxis" "[1 0 0 60] 0.25"
			"vaxis" "[0 0.707107 0.707107 45.849] 0.25"
			"rotation" "0"
			"lightmapscale" "128"
			"smoothing_groups" "0"
		}
		side
		{
			"id" "775"
			"plane" "(929 4256 -3448) (-1344 4256 -3448) (-1344 4250 -3454)"
			"material" "TOOLS/TOOLSNODRAW"
			"uaxis" "[1 0 0 60] 0.25"
			"vaxis" "[0 0.707107 0.707107 45.849] 0.25"
			"rotation" "0"
			"lightmapscale" "128"
			"smoothing_groups" "0"
		}
		side
		{
			"id" "774"
			"plane" "(-1344 4041 -3245) (-1344 4250 -3454) (-1344 4256 -3448)"
			"material" "TOOLS/TOOLSNODRAW"
			"uaxis" "[0 1 0 0] 0.25"
			"vaxis" "[0 0 -1 0] 0.25"
			"rotation" "0"
			"lightmapscale" "128"
			"smoothing_groups" "0"
		}
		editor
		{
			"color" "0 225 170"
			"groupid" "306"
			"visgroupshown" "1"
			"visgroupautoshown" "1"
		}
	}
	solid
	{
		"id" "1242"
		side
		{
			"id" "785"
			"plane" "(929 4244 -3042) (929 4047 -3239) (-1344 4047 -3239)"
			"material" "TOOLS/TOOLSNODRAW"
			"uaxis" "[1 0 0 60] 0.25"
			"vaxis" "[0 -0.707107 -0.707107 -37.849] 0.25"
			"rotation" "0"
			"lightmapscale" "128"
			"smoothing_groups" "0"
		}
		side
		{
			"id" "784"
			"plane" "(-1344 4053 -3245) (929 4053 -3245) (929 4250 -3048)"
			"material" "TOOLS/TOOLSNODRAW"
			"uaxis" "[1 0 0 60] 0.25"
			"vaxis" "[0 -0.707107 -0.707107 -37.849] 0.25"
			"rotation" "0"
			"lightmapscale" "128"
			"smoothing_groups" "0"
		}
		side
		{
			"id" "783"
			"plane" "(929 4250 -3048) (929 4053 -3245) (929 4047 -3239)"
			"material" "TOOLS/TOOLSNODRAW"
			"uaxis" "[0 0.707609 0.706605 37.755] 0.25"
			"vaxis" "[0 0.707609 -0.706605 -44.4619] 0.25"
			"rotation" "0"
			"lightmapscale" "128"
			"smoothing_groups" "0"
		}
		side
		{
			"id" "782"
			"plane" "(-1344 4250 -3048) (929 4250 -3048) (929 4244 -3042)"
			"material" "TOOLS/TOOLSNODRAW"
			"uaxis" "[1 0 0 60] 0.25"
			"vaxis" "[0 0.707107 -0.707107 -44.7334] 0.25"
			"rotation" "0"
			"lightmapscale" "128"
			"smoothing_groups" "0"
		}
		side
		{
			"id" "781"
			"plane" "(929 4053 -3245) (-1344 4053 -3245) (-1344 4047 -3239)"
			"material" "TOOLS/TOOLSNODRAW"
			"uaxis" "[1 0 0 60] 0.25"
			"vaxis" "[0 0.707107 -0.707107 -44.7334] 0.25"
			"rotation" "0"
			"lightmapscale" "128"
			"smoothing_groups" "0"
		}
		side
		{
			"id" "780"
			"plane" "(-1344 4053 -3245) (-1344 4250 -3048) (-1344 4244 -3042)"
			"material" "TOOLS/TOOLSNODRAW"
			"uaxis" "[0 1 0 0] 0.25"
			"vaxis" "[0 0 -1 0] 0.25"
			"rotation" "0"
			"lightmapscale" "128"
			"smoothing_groups" "0"
		}
		editor
		{
			"color" "0 225 170"
			"groupid" "306"
			"visgroupshown" "1"
			"visgroupautoshown" "1"
		}
	}
	solid
	{
		"id" "1244"
		side
		{
			"id" "797"
			"plane" "(47 4151.5 -3146.5) (63 4151.5 -3146.5) (63 4140.5 -3157.5)"
			"material" "TOOLS/TOOLSNODRAW"
			"uaxis" "[1 0 0 0] 0.25"
			"vaxis" "[0 -0.707107 -0.707107 -49.8477] 0.25"
			"rotation" "0"
			"lightmapscale" "128"
			"smoothing_groups" "0"
		}
		side
		{
			"id" "796"
			"plane" "(47 4337.5 -3354.5) (63 4337.5 -3354.5) (63 4348.5 -3343.5)"
			"material" "TOOLS/TOOLSNODRAW"
			"uaxis" "[1 0 0 0] 0.25"
			"vaxis" "[0 -0.707107 -0.707107 -49.8477] 0.25"
			"rotation" "0"
			"lightmapscale" "128"
			"smoothing_groups" "0"
		}
		side
		{
			"id" "795"
			"plane" "(47 4151.5 -3146.5) (47 4140.5 -3157.5) (47 4337.5 -3354.5)"
			"material" "TOOLS/TOOLSNODRAW"
			"uaxis" "[0 0.707609 0.706605 49.7537] 0.25"
			"vaxis" "[0 0.707609 -0.706605 -44.4605] 0.25"
			"rotation" "0"
			"lightmapscale" "128"
			"smoothing_groups" "0"
		}
		side
		{
			"id" "794"
			"plane" "(63 4348.5 -3343.5) (63 4337.5 -3354.5) (63 4140.5 -3157.5)"
			"material" "TOOLS/TOOLSNODRAW"
			"uaxis" "[0 0.707609 0.706605 49.7537] 0.25"
			"vaxis" "[0 0.707609 -0.706605 -44.4605] 0.25"
			"rotation" "0"
			"lightmapscale" "128"
			"smoothing_groups" "0"
		}
		side
		{
			"id" "793"
			"plane" "(63 4151.5 -3146.5) (47 4151.5 -3146.5) (47 4348.5 -3343.5)"
			"material" "TOOLS/TOOLSNODRAW"
			"uaxis" "[1 0 0 0] 0.25"
			"vaxis" "[0 0.707107 -0.707107 -44.732] 0.25"
			"rotation" "0"
			"lightmapscale" "128"
			"smoothing_groups" "0"
		}
		side
		{
			"id" "792"
			"plane" "(63 4337.5 -3354.5) (47 4337.5 -3354.5) (47 4140.5 -3157.5)"
			"material" "TOOLS/TOOLSNODRAW"
			"uaxis" "[1 0 0 0] 0.25"
			"vaxis" "[0 0.707107 -0.707107 -44.732] 0.25"
			"rotation" "0"
			"lightmapscale" "128"
			"smoothing_groups" "0"
		}
		editor
		{
			"color" "143 104 0"
			"groupid" "1453"
			"visgroupshown" "1"
			"visgroupautoshown" "1"
		}
	}
	solid
	{
		"id" "1243"
		side
		{
			"id" "791"
			"plane" "(47 4140.5 -3157.5) (63 4140.5 -3157.5) (63 4053 -3245)"
			"material" "TOOLS/TOOLSNODRAW"
			"uaxis" "[1 0 0 0] 0.25"
			"vaxis" "[0 -0.707107 -0.707107 -37.8477] 0.25"
			"rotation" "0"
			"lightmapscale" "128"
			"smoothing_groups" "0"
		}
		side
		{
			"id" "790"
			"plane" "(47 4250 -3442) (63 4250 -3442) (63 4337.5 -3354.5)"
			"material" "TOOLS/TOOLSNODRAW"
			"uaxis" "[1 0 0 0] 0.25"
			"vaxis" "[0 -0.707107 -0.707107 -37.8477] 0.25"
			"rotation" "0"
			"lightmapscale" "128"
			"smoothing_groups" "0"
		}
		side
		{
			"id" "789"
			"plane" "(47 4140.5 -3157.5) (47 4053 -3245) (47 4250 -3442)"
			"material" "TOOLS/TOOLSNODRAW"
			"uaxis" "[0 0.707609 0.706605 37.7537] 0.25"
			"vaxis" "[0 0.707609 -0.706605 -44.4605] 0.25"
			"rotation" "0"
			"lightmapscale" "128"
			"smoothing_groups" "0"
		}
		side
		{
			"id" "788"
			"plane" "(63 4337.5 -3354.5) (63 4250 -3442) (63 4053 -3245)"
			"material" "TOOLS/TOOLSNODRAW"
			"uaxis" "[0 0.707609 0.706605 37.7537] 0.25"
			"vaxis" "[0 0.707609 -0.706605 -44.4605] 0.25"
			"rotation" "0"
			"lightmapscale" "128"
			"smoothing_groups" "0"
		}
		side
		{
			"id" "787"
			"plane" "(63 4140.5 -3157.5) (47 4140.5 -3157.5) (47 4337.5 -3354.5)"
			"material" "TOOLS/TOOLSNODRAW"
			"uaxis" "[1 0 0 0] 0.25"
			"vaxis" "[0 0.707107 -0.707107 -44.732] 0.25"
			"rotation" "0"
			"lightmapscale" "128"
			"smoothing_groups" "0"
		}
		side
		{
			"id" "786"
			"plane" "(63 4250 -3442) (47 4250 -3442) (47 4053 -3245)"
			"material" "TOOLS/TOOLSNODRAW"
			"uaxis" "[1 0 0 0] 0.25"
			"vaxis" "[0 0.707107 -0.707107 -44.732] 0.25"
			"rotation" "0"
			"lightmapscale" "128"
			"smoothing_groups" "0"
		}
		editor
		{
			"color" "143 104 0"
			"groupid" "1453"
			"visgroupshown" "1"
			"visgroupautoshown" "1"
		}
	}
	solid
	{
		"id" "1245"
		side
		{
			"id" "803"
			"plane" "(-375 4348.5 -3343.5) (-359 4348.5 -3343.5) (-359 4359.5 -3332.5)"
			"material" "TOOLS/TOOLSNODRAW"
			"uaxis" "[-1 0 0 32.002] 0.25"
			"vaxis" "[0 0.707107 0.707107 35.2612] 0.25"
			"rotation" "0"
			"lightmapscale" "128"
			"smoothing_groups" "0"
		}
		side
		{
			"id" "802"
			"plane" "(-375 4162.5 -3135.5) (-359 4162.5 -3135.5) (-359 4151.5 -3146.5)"
			"material" "TOOLS/TOOLSNODRAW"
			"uaxis" "[-1 0 0 32.002] 0.25"
			"vaxis" "[0 0.707107 0.707107 35.2612] 0.25"
			"rotation" "0"
			"lightmapscale" "128"
			"smoothing_groups" "0"
		}
		side
		{
			"id" "801"
			"plane" "(-359 4348.5 -3343.5) (-359 4151.5 -3146.5) (-359 4162.5 -3135.5)"
			"material" "TOOLS/TOOLSNODRAW"
			"uaxis" "[0 -0.707609 -0.706605 -35.1662] 0.25"
			"vaxis" "[0 -0.707609 0.706605 53.873] 0.25"
			"rotation" "0"
			"lightmapscale" "128"
			"smoothing_groups" "0"
		}
		side
		{
			"id" "800"
			"plane" "(-375 4359.5 -3332.5) (-375 4162.5 -3135.5) (-375 4151.5 -3146.5)"
			"material" "TOOLS/TOOLSNODRAW"
			"uaxis" "[0 -0.707609 -0.706605 -35.1662] 0.25"
			"vaxis" "[0 -0.707609 0.706605 53.873] 0.25"
			"rotation" "0"
			"lightmapscale" "128"
			"smoothing_groups" "0"
		}
		side
		{
			"id" "799"
			"plane" "(-375 4348.5 -3343.5) (-375 4151.5 -3146.5) (-359 4151.5 -3146.5)"
			"material" "TOOLS/TOOLSNODRAW"
			"uaxis" "[-1 0 0 32.002] 0.25"
			"vaxis" "[0 -0.707107 0.707107 -9.85445] 0.25"
			"rotation" "0"
			"lightmapscale" "128"
			"smoothing_groups" "0"
		}
		side
		{
			"id" "798"
			"plane" "(-359 4359.5 -3332.5) (-359 4162.5 -3135.5) (-375 4162.5 -3135.5)"
			"material" "TOOLS/TOOLSNODRAW"
			"uaxis" "[-1 0 0 32.002] 0.25"
			"vaxis" "[0 -0.707107 0.707107 -9.85445] 0.25"
			"rotation" "0"
			"lightmapscale" "128"
			"smoothing_groups" "0"
		}
		editor
		{
			"color" "233 150 0"
			"groupid" "1456"
			"visgroupshown" "1"
			"visgroupautoshown" "1"
		}
	}
	solid
	{
		"id" "1246"
		side
		{
			"id" "809"
			"plane" "(-375 4359.5 -3332.5) (-359 4359.5 -3332.5) (-359 4447 -3245)"
			"material" "TOOLS/TOOLSNODRAW"
			"uaxis" "[-1 0 0 32.002] 0.25"
			"vaxis" "[0 0.707107 0.707107 47.2612] 0.25"
			"rotation" "0"
			"lightmapscale" "128"
			"smoothing_groups" "0"
		}
		side
		{
			"id" "808"
			"plane" "(-359 4162.5 -3135.5) (-375 4162.49 -3135.5) (-375 4250 -3048)"
			"material" "TOOLS/TOOLSNODRAW"
			"uaxis" "[-1 0 0 32.002] 0.25"
			"vaxis" "[0 0.707107 0.707107 47.2612] 0.25"
			"rotation" "0"
			"lightmapscale" "128"
			"smoothing_groups" "0"
		}
		side
		{
			"id" "807"
			"plane" "(-359 4359.5 -3332.5) (-359 4162.5 -3135.5) (-359 4250 -3048)"
			"material" "TOOLS/TOOLSNODRAW"
			"uaxis" "[0 -0.707609 -0.706605 -47.1662] 0.25"
			"vaxis" "[0 -0.707609 0.706605 53.873] 0.25"
			"rotation" "0"
			"lightmapscale" "128"
			"smoothing_groups" "0"
		}
		side
		{
			"id" "806"
			"plane" "(-375 4447 -3245) (-375 4250 -3048) (-375 4162.49 -3135.5)"
			"material" "TOOLS/TOOLSNODRAW"
			"uaxis" "[0 -0.707609 -0.706605 -47.1662] 0.25"
			"vaxis" "[0 -0.707609 0.706605 53.873] 0.25"
			"rotation" "0"
			"lightmapscale" "128"
			"smoothing_groups" "0"
		}
		side
		{
			"id" "805"
			"plane" "(-375 4359.5 -3332.5) (-375 4162.49 -3135.5) (-359 4162.5 -3135.5)"
			"material" "TOOLS/TOOLSNODRAW"
			"uaxis" "[-1 0 0 32.002] 0.25"
			"vaxis" "[0 -0.707107 0.707107 -9.85445] 0.25"
			"rotation" "0"
			"lightmapscale" "128"
			"smoothing_groups" "0"
		}
		side
		{
			"id" "804"
			"plane" "(-375 4250 -3048) (-375 4447 -3245) (-359 4447 -3245)"
			"material" "TOOLS/TOOLSNODRAW"
			"uaxis" "[-1 0 0 32.002] 0.25"
			"vaxis" "[0 -0.707107 0.707107 -9.85445] 0.25"
			"rotation" "0"
			"lightmapscale" "128"
			"smoothing_groups" "0"
		}
		editor
		{
			"color" "233 150 0"
			"groupid" "1456"
			"visgroupshown" "1"
			"visgroupautoshown" "1"
		}
	}
	group
	{
		"id" "1059"
		editor
		{
			"color" "146 103 0"
			"visgroupshown" "1"
			"visgroupautoshown" "1"
		}
	}
	group
	{
		"id" "306"
		editor
		{
			"color" "0 225 170"
			"visgroupshown" "1"
			"visgroupautoshown" "1"
		}
	}
	group
	{
		"id" "1453"
		editor
		{
			"color" "143 104 0"
			"visgroupshown" "1"
			"visgroupautoshown" "1"
		}
	}
	group
	{
		"id" "1456"
		editor
		{
			"color" "233 150 0"
			"visgroupshown" "1"
			"visgroupautoshown" "1"
		}
	}
}
cameras
{
	"activecamera" "-1"
}
cordon
{
	"mins" "(-1024 -1024 -1024)"
	"maxs" "(1024 1024 1024)"
	"active" "0"
}
